%YAML 1.1
%TAG !u! tag:unity3d.com,2011:
--- !u!1001 &7004090349787912296
PrefabInstance:
  m_ObjectHideFlags: 0
  serializedVersion: 2
  m_Modification:
    serializedVersion: 2
    m_TransformParent: {fileID: 0}
    m_Modifications:
    - target: {fileID: 1813673533054887572, guid: a92070e7a96ab5e4c95f7df0eb87681d,
        type: 3}
      propertyPath: m_Materials.Array.data[0]
      value: 
      objectReference: {fileID: 2100000, guid: ed403c57b6451024e880c45ae956d6b4, type: 2}
    - target: {fileID: 3331246626235727654, guid: a92070e7a96ab5e4c95f7df0eb87681d,
        type: 3}
      propertyPath: m_Color.g
      value: 0
      objectReference: {fileID: 0}
    - target: {fileID: 3331246626235727654, guid: a92070e7a96ab5e4c95f7df0eb87681d,
        type: 3}
      propertyPath: m_Color.r
      value: 0
      objectReference: {fileID: 0}
    - target: {fileID: 7097136168437500729, guid: a92070e7a96ab5e4c95f7df0eb87681d,
        type: 3}
      propertyPath: m_Name
      value: MineralBlue3 Variant
      objectReference: {fileID: 0}
    - target: {fileID: 7097136168437500730, guid: a92070e7a96ab5e4c95f7df0eb87681d,
        type: 3}
      propertyPath: m_Materials.Array.data[0]
      value: 
      objectReference: {fileID: 2100000, guid: ed403c57b6451024e880c45ae956d6b4, type: 2}
    - target: {fileID: 7097136168437500731, guid: a92070e7a96ab5e4c95f7df0eb87681d,
        type: 3}
      propertyPath: m_RootOrder
      value: 0
      objectReference: {fileID: 0}
    - target: {fileID: 7097136168437500731, guid: a92070e7a96ab5e4c95f7df0eb87681d,
        type: 3}
      propertyPath: m_LocalPosition.x
      value: -89.78908
      objectReference: {fileID: 0}
    - target: {fileID: 7097136168437500731, guid: a92070e7a96ab5e4c95f7df0eb87681d,
        type: 3}
      propertyPath: m_LocalPosition.y
      value: -26.914053
      objectReference: {fileID: 0}
    - target: {fileID: 7097136168437500731, guid: a92070e7a96ab5e4c95f7df0eb87681d,
        type: 3}
      propertyPath: m_LocalPosition.z
      value: 0
      objectReference: {fileID: 0}
    - target: {fileID: 7097136168437500731, guid: a92070e7a96ab5e4c95f7df0eb87681d,
        type: 3}
      propertyPath: m_LocalRotation.w
      value: 1
      objectReference: {fileID: 0}
    - target: {fileID: 7097136168437500731, guid: a92070e7a96ab5e4c95f7df0eb87681d,
        type: 3}
      propertyPath: m_LocalRotation.x
      value: 0
      objectReference: {fileID: 0}
    - target: {fileID: 7097136168437500731, guid: a92070e7a96ab5e4c95f7df0eb87681d,
        type: 3}
      propertyPath: m_LocalRotation.y
      value: 0
      objectReference: {fileID: 0}
    - target: {fileID: 7097136168437500731, guid: a92070e7a96ab5e4c95f7df0eb87681d,
        type: 3}
      propertyPath: m_LocalRotation.z
      value: 0
      objectReference: {fileID: 0}
    - target: {fileID: 7097136168437500731, guid: a92070e7a96ab5e4c95f7df0eb87681d,
        type: 3}
      propertyPath: m_LocalEulerAnglesHint.x
      value: 0
      objectReference: {fileID: 0}
    - target: {fileID: 7097136168437500731, guid: a92070e7a96ab5e4c95f7df0eb87681d,
        type: 3}
      propertyPath: m_LocalEulerAnglesHint.y
      value: 0
      objectReference: {fileID: 0}
    - target: {fileID: 7097136168437500731, guid: a92070e7a96ab5e4c95f7df0eb87681d,
        type: 3}
      propertyPath: m_LocalEulerAnglesHint.z
      value: 0
      objectReference: {fileID: 0}
    m_RemovedComponents: []
    m_AddedGameObjects: []
  m_SourcePrefab: {fileID: 100100000, guid: a92070e7a96ab5e4c95f7df0eb87681d, type: 3}
