%YAML 1.1
%TAG !u! tag:unity3d.com,2011:
--- !u!114 &11400000
MonoBehaviour:
  m_ObjectHideFlags: 0
  m_CorrespondingSourceObject: {fileID: 0}
  m_PrefabInstance: {fileID: 0}
  m_PrefabAsset: {fileID: 0}
  m_GameObject: {fileID: 0}
  m_Enabled: 1
  m_EditorHideFlags: 0
  m_Script: {fileID: 11500000, guid: 5bf7c34a0dc4e6348bea04faa70406ee, type: 3}
  m_Name: LayneBackHumanFemale
  m_EditorClassIdentifier: 
  m_Labels:
  - m_Name: Head
    m_Hash: 130111906
    m_CategoryList:
    - m_Name: Head
      m_Hash: 130111906
      m_Sprite: {fileID: 4782354108941237574, guid: 55ca217aab474f741916a5982a33cdfe,
        type: 3}
  - m_Name: Upper Body
    m_Hash: -465572829
    m_CategoryList:
    - m_Name: Upper Body
      m_Hash: -465572829
      m_Sprite: {fileID: 5609882801507770516, guid: 55ca217aab474f741916a5982a33cdfe,
        type: 3}
  - m_Name: Right Hand
    m_Hash: 1002107042
    m_CategoryList:
    - m_Name: Right Hand
      m_Hash: 1002107042
      m_Sprite: {fileID: -5174306649510193756, guid: 55ca217aab474f741916a5982a33cdfe,
        type: 3}
  - m_Name: Left Hand
    m_Hash: 1503945155
    m_CategoryList:
    - m_Name: Left Hand
      m_Hash: 1503945155
      m_Sprite: {fileID: 1515596981633534046, guid: 55ca217aab474f741916a5982a33cdfe,
        type: 3}
  - m_Name: Right Upper Arm
    m_Hash: -745937696
    m_CategoryList:
    - m_Name: Right Upper Arm
      m_Hash: -745937696
      m_Sprite: {fileID: 8574105377879444367, guid: 55ca217aab474f741916a5982a33cdfe,
        type: 3}
  - m_Name: Left Upper Arm
    m_Hash: 861191043
    m_CategoryList:
    - m_Name: Left Upper Arm
      m_Hash: 861191043
      m_Sprite: {fileID: -1763434142039253801, guid: 55ca217aab474f741916a5982a33cdfe,
        type: 3}
  - m_Name: Right Lower Arm
    m_Hash: -1277817405
    m_CategoryList:
    - m_Name: Right Lower Arm
      m_Hash: -1277817405
      m_Sprite: {fileID: -4621553293722193037, guid: 55ca217aab474f741916a5982a33cdfe,
        type: 3}
  - m_Name: Left Lower Arm
    m_Hash: 1393250976
    m_CategoryList:
    - m_Name: Left Lower Arm
      m_Hash: 1393250976
      m_Sprite: {fileID: 7875786080305283570, guid: 55ca217aab474f741916a5982a33cdfe,
        type: 3}
  - m_Name: Right Upper Leg
    m_Hash: 1040652859
    m_CategoryList:
    - m_Name: Right Upper Leg
      m_Hash: 1040652859
      m_Sprite: {fileID: -8909170970235202612, guid: 55ca217aab474f741916a5982a33cdfe,
        type: 3}
  - m_Name: Left Upper Leg
    m_Hash: -556120744
    m_CategoryList:
    - m_Name: Left Upper Leg
      m_Hash: -556120744
      m_Sprite: {fileID: 6357106941730719627, guid: 55ca217aab474f741916a5982a33cdfe,
        type: 3}
  - m_Name: Right Lower Leg
    m_Hash: 1582887704
    m_CategoryList:
    - m_Name: Right Lower Leg
      m_Hash: 1582887704
      m_Sprite: {fileID: -7397927487924506344, guid: 55ca217aab474f741916a5982a33cdfe,
        type: 3}
  - m_Name: Left Lower Leg
    m_Hash: -1098535813
    m_CategoryList:
    - m_Name: Left Lower Leg
      m_Hash: -1098535813
      m_Sprite: {fileID: 9165641234965562284, guid: 55ca217aab474f741916a5982a33cdfe,
        type: 3}
