%YAML 1.1
%TAG !u! tag:unity3d.com,2011:
--- !u!114 &11400000
MonoBehaviour:
  m_ObjectHideFlags: 0
  m_CorrespondingSourceObject: {fileID: 0}
  m_PrefabInstance: {fileID: 0}
  m_PrefabAsset: {fileID: 0}
  m_GameObject: {fileID: 0}
  m_Enabled: 1
  m_EditorHideFlags: 0
  m_Script: {fileID: 11500000, guid: 5bf7c34a0dc4e6348bea04faa70406ee, type: 3}
  m_Name: LayneFrontHumanFemale
  m_EditorClassIdentifier: 
  m_Labels:
  - m_Name: Head
    m_Hash: 130111906
    m_CategoryList:
    - m_Name: Head
      m_Hash: 130111906
      m_Sprite: {fileID: 5109085606161958065, guid: c408316c2d81bdf4387f76df3ecf70d3,
        type: 3}
    - m_Name: Head Dark
      m_Hash: -30936146
      m_Sprite: {fileID: 904380873279083416, guid: de0a24a49fc10b4488dfcc883050e539,
        type: 3}
    - m_Name: BurnedHead
      m_Hash: -469544450
      m_Sprite: {fileID: -8772118102189168991, guid: 7a6031ae9edf33a4eb228569285644ee,
        type: 3}
  - m_Name: Eyelids
    m_Hash: 147527589
    m_CategoryList:
    - m_Name: Normal
      m_Hash: 640249298
      m_Sprite: {fileID: -2287535757968506136, guid: c408316c2d81bdf4387f76df3ecf70d3,
        type: 3}
    - m_Name: Full Open H
      m_Hash: 324699689
      m_Sprite: {fileID: 6241702922828709108, guid: bda56206dc3be2842a1807bb5ee340b5,
        type: 3}
    - m_Name: Open
      m_Hash: 71445658
      m_Sprite: {fileID: 8771153056281913707, guid: bda56206dc3be2842a1807bb5ee340b5,
        type: 3}
    - m_Name: Closed
      m_Hash: 57362642
      m_Sprite: {fileID: -923322770543630791, guid: bda56206dc3be2842a1807bb5ee340b5,
        type: 3}
    - m_Name: Full Closed
      m_Hash: 85801781
      m_Sprite: {fileID: 5314727347139784546, guid: bda56206dc3be2842a1807bb5ee340b5,
        type: 3}
  - m_Name: Eyes
    m_Hash: 120101800
    m_CategoryList:
    - m_Name: Eyes
      m_Hash: 120101800
      m_Sprite: {fileID: -4511114037258432490, guid: c408316c2d81bdf4387f76df3ecf70d3,
        type: 3}
  - m_Name: Mouth
    m_Hash: 1594127251
    m_CategoryList:
    - m_Name: Normal
      m_Hash: 640249298
      m_Sprite: {fileID: 4286182573961248659, guid: c408316c2d81bdf4387f76df3ecf70d3,
        type: 3}
    - m_Name: Mouth Death1
      m_Hash: -1909830368
      m_Sprite: {fileID: -3680702831398399188, guid: bda56206dc3be2842a1807bb5ee340b5,
        type: 3}
    - m_Name: Mouth Death2
      m_Hash: 388177050
      m_Sprite: {fileID: -760047147514000638, guid: bda56206dc3be2842a1807bb5ee340b5,
        type: 3}
    - m_Name: Mouth Death3
      m_Hash: 1612983308
      m_Sprite: {fileID: -1715699090745996710, guid: bda56206dc3be2842a1807bb5ee340b5,
        type: 3}
    - m_Name: DevilGrin1
      m_Hash: -1354035275
      m_Sprite: {fileID: -77845566009320585, guid: 9ef9c5bc175480643a775360f33222fa,
        type: 3}
    - m_Name: DevilGrin2
      m_Hash: 910319119
      m_Sprite: {fileID: -7344982650718726099, guid: 9ef9c5bc175480643a775360f33222fa,
        type: 3}
    - m_Name: DevilGrin3
      m_Hash: 1095069337
      m_Sprite: {fileID: 1886315050602598212, guid: 9ef9c5bc175480643a775360f33222fa,
        type: 3}
    - m_Name: DevilGrin4
      m_Hash: -551421126
      m_Sprite: {fileID: 7101677097717188830, guid: 9ef9c5bc175480643a775360f33222fa,
        type: 3}
    - m_Name: DevilGrin5
      m_Hash: -1473852500
      m_Sprite: {fileID: -7123846694864894242, guid: 9ef9c5bc175480643a775360f33222fa,
        type: 3}
    - m_Name: DevilGrin6
      m_Hash: 825203222
      m_Sprite: {fileID: -4111669134897597555, guid: 9ef9c5bc175480643a775360f33222fa,
        type: 3}
    - m_Name: Mouth Dark
      m_Hash: 1223667253
      m_Sprite: {fileID: -8289712634151027785, guid: 9ef9c5bc175480643a775360f33222fa,
        type: 3}
    - m_Name: Mouth Death4
      m_Hash: -29312593
      m_Sprite: {fileID: 4848268244669916043, guid: bda56206dc3be2842a1807bb5ee340b5,
        type: 3}
  - m_Name: Upper Body
    m_Hash: -465572829
    m_CategoryList:
    - m_Name: Upper Body
      m_Hash: -465572829
      m_Sprite: {fileID: 4599052228011987753, guid: c408316c2d81bdf4387f76df3ecf70d3,
        type: 3}
  - m_Name: Right Upper Arm
    m_Hash: -745937696
    m_CategoryList:
    - m_Name: Right Upper Arm
      m_Hash: -745937696
      m_Sprite: {fileID: -4277225016306211613, guid: c408316c2d81bdf4387f76df3ecf70d3,
        type: 3}
  - m_Name: Left Upper Arm
    m_Hash: 861191043
    m_CategoryList:
    - m_Name: Left Upper Arm
      m_Hash: 861191043
      m_Sprite: {fileID: 5675317754948409933, guid: c408316c2d81bdf4387f76df3ecf70d3,
        type: 3}
  - m_Name: Right Lower Arm
    m_Hash: -1277817405
    m_CategoryList:
    - m_Name: Right Lower Arm
      m_Hash: -1277817405
      m_Sprite: {fileID: 7430866127781646766, guid: c408316c2d81bdf4387f76df3ecf70d3,
        type: 3}
  - m_Name: Left Lower Arm
    m_Hash: 1393250976
    m_CategoryList:
    - m_Name: Left Lower Arm
      m_Hash: 1393250976
      m_Sprite: {fileID: 1105454100839443907, guid: c408316c2d81bdf4387f76df3ecf70d3,
        type: 3}
  - m_Name: Right Upper Leg
    m_Hash: 1040652859
    m_CategoryList:
    - m_Name: Right Upper Leg
      m_Hash: 1040652859
      m_Sprite: {fileID: 4110933089551965040, guid: c408316c2d81bdf4387f76df3ecf70d3,
        type: 3}
  - m_Name: Left Upper Leg
    m_Hash: -556120744
    m_CategoryList:
    - m_Name: Left Upper Leg
      m_Hash: -556120744
      m_Sprite: {fileID: -7108058943946322622, guid: c408316c2d81bdf4387f76df3ecf70d3,
        type: 3}
  - m_Name: Right Lower Leg
    m_Hash: 1582887704
    m_CategoryList:
    - m_Name: Right Lower Leg
      m_Hash: 1582887704
      m_Sprite: {fileID: -4682551709838707857, guid: c408316c2d81bdf4387f76df3ecf70d3,
        type: 3}
  - m_Name: Left Lower Leg
    m_Hash: -1098535813
    m_CategoryList:
    - m_Name: Left Lower Leg
      m_Hash: -1098535813
      m_Sprite: {fileID: 2371968876105887279, guid: c408316c2d81bdf4387f76df3ecf70d3,
        type: 3}
