%YAML 1.1
%TAG !u! tag:unity3d.com,2011:
--- !u!74 &7400000
AnimationClip:
  m_ObjectHideFlags: 0
  m_CorrespondingSourceObject: {fileID: 0}
  m_PrefabInstance: {fileID: 0}
  m_PrefabAsset: {fileID: 0}
  m_Name: ShortBloodSplash
  serializedVersion: 6
  m_Legacy: 0
  m_Compressed: 0
  m_UseHighQualityCurve: 1
  m_RotationCurves: []
  m_CompressedRotationCurves: []
  m_EulerCurves: []
  m_PositionCurves: []
  m_ScaleCurves: []
  m_FloatCurves: []
  m_PPtrCurves:
  - curve:
    - time: 0
      value: {fileID: 1063545320339505180, guid: 50d576b32d1c88f4abcea02ff8e68dbe,
        type: 3}
    - time: 0.083333336
      value: {fileID: 8841480863544307596, guid: 50d576b32d1c88f4abcea02ff8e68dbe,
        type: 3}
    - time: 0.16666667
      value: {fileID: -450552114830760111, guid: 50d576b32d1c88f4abcea02ff8e68dbe,
        type: 3}
    - time: 0.25
      value: {fileID: 6238414358739938919, guid: 50d576b32d1c88f4abcea02ff8e68dbe,
        type: 3}
    - time: 0.33333334
      value: {fileID: 8857861054114284424, guid: 50d576b32d1c88f4abcea02ff8e68dbe,
        type: 3}
    - time: 0.41666666
      value: {fileID: -3195793718680774057, guid: 50d576b32d1c88f4abcea02ff8e68dbe,
        type: 3}
    - time: 0.5
      value: {fileID: -917641997496712159, guid: 50d576b32d1c88f4abcea02ff8e68dbe,
        type: 3}
    - time: 0.5833333
      value: {fileID: 3840412883712003732, guid: 50d576b32d1c88f4abcea02ff8e68dbe,
        type: 3}
    - time: 0.6666667
      value: {fileID: -456253010157380328, guid: 50d576b32d1c88f4abcea02ff8e68dbe,
        type: 3}
    - time: 0.75
      value: {fileID: 3162229941391866337, guid: 50d576b32d1c88f4abcea02ff8e68dbe,
        type: 3}
    - time: 0.8333333
      value: {fileID: -7038204277300392535, guid: 50d576b32d1c88f4abcea02ff8e68dbe,
        type: 3}
    - time: 0.9166667
      value: {fileID: -5130740414711120222, guid: 50d576b32d1c88f4abcea02ff8e68dbe,
        type: 3}
    - time: 1
      value: {fileID: -4052554397546333203, guid: 50d576b32d1c88f4abcea02ff8e68dbe,
        type: 3}
    - time: 1.0833334
      value: {fileID: -350920125219747063, guid: 50d576b32d1c88f4abcea02ff8e68dbe,
        type: 3}
    - time: 1.1666666
      value: {fileID: 2620576389549829619, guid: 50d576b32d1c88f4abcea02ff8e68dbe,
        type: 3}
    - time: 1.25
      value: {fileID: 8028216912393947038, guid: 50d576b32d1c88f4abcea02ff8e68dbe,
        type: 3}
    - time: 1.3333334
      value: {fileID: -5255292408770752406, guid: 50d576b32d1c88f4abcea02ff8e68dbe,
        type: 3}
    - time: 1.4166666
      value: {fileID: 921119736120618016, guid: 50d576b32d1c88f4abcea02ff8e68dbe,
        type: 3}
    - time: 1.5
      value: {fileID: 1551306600740625446, guid: 50d576b32d1c88f4abcea02ff8e68dbe,
        type: 3}
    - time: 1.5833334
      value: {fileID: 464557736472678765, guid: 50d576b32d1c88f4abcea02ff8e68dbe,
        type: 3}
    - time: 1.6666666
      value: {fileID: -3236367699698170838, guid: 50d576b32d1c88f4abcea02ff8e68dbe,
        type: 3}
    - time: 1.75
      value: {fileID: -331494705780500640, guid: 50d576b32d1c88f4abcea02ff8e68dbe,
        type: 3}
    - time: 1.8333334
      value: {fileID: -1805804933781563316, guid: 50d576b32d1c88f4abcea02ff8e68dbe,
        type: 3}
    - time: 1.9166666
      value: {fileID: -3145215367438506645, guid: 50d576b32d1c88f4abcea02ff8e68dbe,
        type: 3}
    - time: 2
      value: {fileID: 7186656384566049016, guid: 50d576b32d1c88f4abcea02ff8e68dbe,
        type: 3}
    - time: 2.0833333
      value: {fileID: 2726774741471960369, guid: 50d576b32d1c88f4abcea02ff8e68dbe,
        type: 3}
    - time: 2.1666667
      value: {fileID: -7673691195041807031, guid: 50d576b32d1c88f4abcea02ff8e68dbe,
        type: 3}
    - time: 2.25
      value: {fileID: 5478180750942455865, guid: 50d576b32d1c88f4abcea02ff8e68dbe,
        type: 3}
    - time: 2.3333333
      value: {fileID: -4959097843408694381, guid: 50d576b32d1c88f4abcea02ff8e68dbe,
        type: 3}
    - time: 2.4166667
      value: {fileID: 5636496459741198407, guid: 50d576b32d1c88f4abcea02ff8e68dbe,
        type: 3}
    - time: 2.5
      value: {fileID: -2589398790772822565, guid: 50d576b32d1c88f4abcea02ff8e68dbe,
        type: 3}
    - time: 2.5833333
      value: {fileID: 3876450738387772178, guid: 50d576b32d1c88f4abcea02ff8e68dbe,
        type: 3}
    - time: 2.6666667
      value: {fileID: -2799436507160455085, guid: 50d576b32d1c88f4abcea02ff8e68dbe,
        type: 3}
    attribute: m_Sprite
    path: 
    classID: 212
    script: {fileID: 0}
  m_SampleRate: 12
  m_WrapMode: 0
  m_Bounds:
    m_Center: {x: 0, y: 0, z: 0}
    m_Extent: {x: 0, y: 0, z: 0}
  m_ClipBindingConstant:
    genericBindings:
    - serializedVersion: 2
      path: 0
      attribute: 0
      script: {fileID: 0}
      typeID: 212
      customType: 23
      isPPtrCurve: 1
    pptrCurveMapping:
    - {fileID: 1063545320339505180, guid: 50d576b32d1c88f4abcea02ff8e68dbe, type: 3}
    - {fileID: 8841480863544307596, guid: 50d576b32d1c88f4abcea02ff8e68dbe, type: 3}
    - {fileID: -450552114830760111, guid: 50d576b32d1c88f4abcea02ff8e68dbe, type: 3}
    - {fileID: 6238414358739938919, guid: 50d576b32d1c88f4abcea02ff8e68dbe, type: 3}
    - {fileID: 8857861054114284424, guid: 50d576b32d1c88f4abcea02ff8e68dbe, type: 3}
    - {fileID: -3195793718680774057, guid: 50d576b32d1c88f4abcea02ff8e68dbe, type: 3}
    - {fileID: -917641997496712159, guid: 50d576b32d1c88f4abcea02ff8e68dbe, type: 3}
    - {fileID: 3840412883712003732, guid: 50d576b32d1c88f4abcea02ff8e68dbe, type: 3}
    - {fileID: -456253010157380328, guid: 50d576b32d1c88f4abcea02ff8e68dbe, type: 3}
    - {fileID: 3162229941391866337, guid: 50d576b32d1c88f4abcea02ff8e68dbe, type: 3}
    - {fileID: -7038204277300392535, guid: 50d576b32d1c88f4abcea02ff8e68dbe, type: 3}
    - {fileID: -5130740414711120222, guid: 50d576b32d1c88f4abcea02ff8e68dbe, type: 3}
    - {fileID: -4052554397546333203, guid: 50d576b32d1c88f4abcea02ff8e68dbe, type: 3}
    - {fileID: -350920125219747063, guid: 50d576b32d1c88f4abcea02ff8e68dbe, type: 3}
    - {fileID: 2620576389549829619, guid: 50d576b32d1c88f4abcea02ff8e68dbe, type: 3}
    - {fileID: 8028216912393947038, guid: 50d576b32d1c88f4abcea02ff8e68dbe, type: 3}
    - {fileID: -5255292408770752406, guid: 50d576b32d1c88f4abcea02ff8e68dbe, type: 3}
    - {fileID: 921119736120618016, guid: 50d576b32d1c88f4abcea02ff8e68dbe, type: 3}
    - {fileID: 1551306600740625446, guid: 50d576b32d1c88f4abcea02ff8e68dbe, type: 3}
    - {fileID: 464557736472678765, guid: 50d576b32d1c88f4abcea02ff8e68dbe, type: 3}
    - {fileID: -3236367699698170838, guid: 50d576b32d1c88f4abcea02ff8e68dbe, type: 3}
    - {fileID: -331494705780500640, guid: 50d576b32d1c88f4abcea02ff8e68dbe, type: 3}
    - {fileID: -1805804933781563316, guid: 50d576b32d1c88f4abcea02ff8e68dbe, type: 3}
    - {fileID: -3145215367438506645, guid: 50d576b32d1c88f4abcea02ff8e68dbe, type: 3}
    - {fileID: 7186656384566049016, guid: 50d576b32d1c88f4abcea02ff8e68dbe, type: 3}
    - {fileID: 2726774741471960369, guid: 50d576b32d1c88f4abcea02ff8e68dbe, type: 3}
    - {fileID: -7673691195041807031, guid: 50d576b32d1c88f4abcea02ff8e68dbe, type: 3}
    - {fileID: 5478180750942455865, guid: 50d576b32d1c88f4abcea02ff8e68dbe, type: 3}
    - {fileID: -4959097843408694381, guid: 50d576b32d1c88f4abcea02ff8e68dbe, type: 3}
    - {fileID: 5636496459741198407, guid: 50d576b32d1c88f4abcea02ff8e68dbe, type: 3}
    - {fileID: -2589398790772822565, guid: 50d576b32d1c88f4abcea02ff8e68dbe, type: 3}
    - {fileID: 3876450738387772178, guid: 50d576b32d1c88f4abcea02ff8e68dbe, type: 3}
    - {fileID: -2799436507160455085, guid: 50d576b32d1c88f4abcea02ff8e68dbe, type: 3}
  m_AnimationClipSettings:
    serializedVersion: 2
    m_AdditiveReferencePoseClip: {fileID: 0}
    m_AdditiveReferencePoseTime: 0
    m_StartTime: 0
    m_StopTime: 2.75
    m_OrientationOffsetY: 0
    m_Level: 0
    m_CycleOffset: 0
    m_HasAdditiveReferencePose: 0
    m_LoopTime: 0
    m_LoopBlend: 0
    m_LoopBlendOrientation: 0
    m_LoopBlendPositionY: 0
    m_LoopBlendPositionXZ: 0
    m_KeepOriginalOrientation: 0
    m_KeepOriginalPositionY: 1
    m_KeepOriginalPositionXZ: 0
    m_HeightFromFeet: 0
    m_Mirror: 0
  m_EditorCurves: []
  m_EulerEditorCurves: []
  m_HasGenericRootTransform: 0
  m_HasMotionFloatCurves: 0
  m_Events: []
