%YAML 1.1
%TAG !u! tag:unity3d.com,2011:
--- !u!1001 &1425129055983351477
PrefabInstance:
  m_ObjectHideFlags: 0
  serializedVersion: 2
  m_Modification:
    serializedVersion: 2
    m_TransformParent: {fileID: 0}
    m_Modifications:
    - target: {fileID: 2243499425516074305, guid: 2c415cad09312df4392769cb10680d73,
        type: 3}
      propertyPath: m_IsActive
      value: 0
      objectReference: {fileID: 0}
    - target: {fileID: 2272540327982594902, guid: 2c415cad09312df4392769cb10680d73,
        type: 3}
      propertyPath: m_IsActive
      value: 0
      objectReference: {fileID: 0}
    - target: {fileID: 4944733505790227445, guid: 2c415cad09312df4392769cb10680d73,
        type: 3}
      propertyPath: m_Name
      value: Tree7 Variant
      objectReference: {fileID: 0}
    - target: {fileID: 4944733505790227451, guid: 2c415cad09312df4392769cb10680d73,
        type: 3}
      propertyPath: m_RootOrder
      value: 0
      objectReference: {fileID: 0}
    - target: {fileID: 4944733505790227451, guid: 2c415cad09312df4392769cb10680d73,
        type: 3}
      propertyPath: m_LocalPosition.x
      value: 0
      objectReference: {fileID: 0}
    - target: {fileID: 4944733505790227451, guid: 2c415cad09312df4392769cb10680d73,
        type: 3}
      propertyPath: m_LocalPosition.y
      value: 0
      objectReference: {fileID: 0}
    - target: {fileID: 4944733505790227451, guid: 2c415cad09312df4392769cb10680d73,
        type: 3}
      propertyPath: m_LocalPosition.z
      value: 0
      objectReference: {fileID: 0}
    - target: {fileID: 4944733505790227451, guid: 2c415cad09312df4392769cb10680d73,
        type: 3}
      propertyPath: m_LocalRotation.w
      value: 1
      objectReference: {fileID: 0}
    - target: {fileID: 4944733505790227451, guid: 2c415cad09312df4392769cb10680d73,
        type: 3}
      propertyPath: m_LocalRotation.x
      value: -0
      objectReference: {fileID: 0}
    - target: {fileID: 4944733505790227451, guid: 2c415cad09312df4392769cb10680d73,
        type: 3}
      propertyPath: m_LocalRotation.y
      value: -0
      objectReference: {fileID: 0}
    - target: {fileID: 4944733505790227451, guid: 2c415cad09312df4392769cb10680d73,
        type: 3}
      propertyPath: m_LocalRotation.z
      value: -0
      objectReference: {fileID: 0}
    - target: {fileID: 4944733505790227451, guid: 2c415cad09312df4392769cb10680d73,
        type: 3}
      propertyPath: m_LocalEulerAnglesHint.x
      value: 0
      objectReference: {fileID: 0}
    - target: {fileID: 4944733505790227451, guid: 2c415cad09312df4392769cb10680d73,
        type: 3}
      propertyPath: m_LocalEulerAnglesHint.y
      value: 0
      objectReference: {fileID: 0}
    - target: {fileID: 4944733505790227451, guid: 2c415cad09312df4392769cb10680d73,
        type: 3}
      propertyPath: m_LocalEulerAnglesHint.z
      value: 0
      objectReference: {fileID: 0}
    - target: {fileID: 5196930483215261955, guid: 2c415cad09312df4392769cb10680d73,
        type: 3}
      propertyPath: m_Color.b
      value: 0
      objectReference: {fileID: 0}
    - target: {fileID: 5196930483215261955, guid: 2c415cad09312df4392769cb10680d73,
        type: 3}
      propertyPath: m_Color.g
      value: 0
      objectReference: {fileID: 0}
    - target: {fileID: 5196930483215261955, guid: 2c415cad09312df4392769cb10680d73,
        type: 3}
      propertyPath: m_Color.r
      value: 0
      objectReference: {fileID: 0}
    - target: {fileID: 5196930483215261955, guid: 2c415cad09312df4392769cb10680d73,
        type: 3}
      propertyPath: m_MaskInteraction
      value: 2
      objectReference: {fileID: 0}
    - target: {fileID: 5196930483215261955, guid: 2c415cad09312df4392769cb10680d73,
        type: 3}
      propertyPath: m_Materials.Array.data[0]
      value: 
      objectReference: {fileID: 2100000, guid: 272ba847f100d4251bb8260575189042, type: 2}
    - target: {fileID: 6530706298630742597, guid: 2c415cad09312df4392769cb10680d73,
        type: 3}
      propertyPath: m_IsActive
      value: 0
      objectReference: {fileID: 0}
    m_RemovedComponents: []
    m_AddedGameObjects: []
  m_SourcePrefab: {fileID: 100100000, guid: 2c415cad09312df4392769cb10680d73, type: 3}
