%YAML 1.1
%TAG !u! tag:unity3d.com,2011:
--- !u!1 &6001692736979154726
GameObject:
  m_ObjectHideFlags: 0
  m_CorrespondingSourceObject: {fileID: 0}
  m_PrefabInstance: {fileID: 0}
  m_PrefabAsset: {fileID: 0}
  serializedVersion: 6
  m_Component:
  - component: {fileID: 4412779420373359986}
  - component: {fileID: 4473383431615393892}
  m_Layer: 31
  m_Name: Desert
  m_TagString: Untagged
  m_Icon: {fileID: 0}
  m_NavMeshLayer: 0
  m_StaticEditorFlags: 0
  m_IsActive: 1
--- !u!4 &4412779420373359986
Transform:
  m_ObjectHideFlags: 0
  m_CorrespondingSourceObject: {fileID: 0}
  m_PrefabInstance: {fileID: 0}
  m_PrefabAsset: {fileID: 0}
  m_GameObject: {fileID: 6001692736979154726}
  m_LocalRotation: {x: 0, y: 0, z: 0, w: 1}
  m_LocalPosition: {x: 0, y: 0, z: 0}
  m_LocalScale: {x: 1, y: 1, z: 1}
  m_ConstrainProportionsScale: 0
  m_Children:
  - {fileID: 5955517498881518396}
  m_Father: {fileID: 0}
  m_RootOrder: 0
  m_LocalEulerAnglesHint: {x: 0, y: 0, z: 0}
--- !u!156049354 &4473383431615393892
Grid:
  m_ObjectHideFlags: 0
  m_CorrespondingSourceObject: {fileID: 0}
  m_PrefabInstance: {fileID: 0}
  m_PrefabAsset: {fileID: 0}
  m_GameObject: {fileID: 6001692736979154726}
  m_Enabled: 1
  m_CellSize: {x: 1, y: 1, z: 0}
  m_CellGap: {x: 0, y: 0, z: 0}
  m_CellLayout: 0
  m_CellSwizzle: 0
--- !u!1 &7411641318790502566
GameObject:
  m_ObjectHideFlags: 0
  m_CorrespondingSourceObject: {fileID: 0}
  m_PrefabInstance: {fileID: 0}
  m_PrefabAsset: {fileID: 0}
  serializedVersion: 6
  m_Component:
  - component: {fileID: 5955517498881518396}
  - component: {fileID: 3717304846583067500}
  - component: {fileID: 8453947966121843775}
  m_Layer: 0
  m_Name: Layer1
  m_TagString: Untagged
  m_Icon: {fileID: 0}
  m_NavMeshLayer: 0
  m_StaticEditorFlags: 0
  m_IsActive: 1
--- !u!4 &5955517498881518396
Transform:
  m_ObjectHideFlags: 0
  m_CorrespondingSourceObject: {fileID: 0}
  m_PrefabInstance: {fileID: 0}
  m_PrefabAsset: {fileID: 0}
  m_GameObject: {fileID: 7411641318790502566}
  m_LocalRotation: {x: -0, y: -0, z: -0, w: 1}
  m_LocalPosition: {x: 0, y: 0, z: 0}
  m_LocalScale: {x: 1, y: 1, z: 1}
  m_ConstrainProportionsScale: 0
  m_Children: []
  m_Father: {fileID: 4412779420373359986}
  m_RootOrder: 0
  m_LocalEulerAnglesHint: {x: 0, y: 0, z: 0}
--- !u!1839735485 &3717304846583067500
Tilemap:
  m_ObjectHideFlags: 0
  m_CorrespondingSourceObject: {fileID: 0}
  m_PrefabInstance: {fileID: 0}
  m_PrefabAsset: {fileID: 0}
  m_GameObject: {fileID: 7411641318790502566}
  m_Enabled: 1
  m_Tiles:
  - first: {x: 18, y: -20, z: 0}
    second:
      serializedVersion: 2
      m_TileIndex: 27
      m_TileSpriteIndex: 36
      m_TileMatrixIndex: 0
      m_TileColorIndex: 0
      m_TileObjectToInstantiateIndex: 65535
      dummyAlignment: 0
      m_AllTileFlags: 1073741825
  - first: {x: 19, y: -20, z: 0}
    second:
      serializedVersion: 2
      m_TileIndex: 28
      m_TileSpriteIndex: 35
      m_TileMatrixIndex: 0
      m_TileColorIndex: 0
      m_TileObjectToInstantiateIndex: 65535
      dummyAlignment: 0
      m_AllTileFlags: 1073741825
  - first: {x: 20, y: -20, z: 0}
    second:
      serializedVersion: 2
      m_TileIndex: 29
      m_TileSpriteIndex: 34
      m_TileMatrixIndex: 0
      m_TileColorIndex: 0
      m_TileObjectToInstantiateIndex: 65535
      dummyAlignment: 0
      m_AllTileFlags: 1073741825
  - first: {x: 21, y: -20, z: 0}
    second:
      serializedVersion: 2
      m_TileIndex: 26
      m_TileSpriteIndex: 3
      m_TileMatrixIndex: 0
      m_TileColorIndex: 0
      m_TileObjectToInstantiateIndex: 65535
      dummyAlignment: 0
      m_AllTileFlags: 1073741825
  - first: {x: 24, y: -20, z: 0}
    second:
      serializedVersion: 2
      m_TileIndex: 34
      m_TileSpriteIndex: 4
      m_TileMatrixIndex: 0
      m_TileColorIndex: 0
      m_TileObjectToInstantiateIndex: 65535
      dummyAlignment: 0
      m_AllTileFlags: 1073741825
  - first: {x: 25, y: -20, z: 0}
    second:
      serializedVersion: 2
      m_TileIndex: 33
      m_TileSpriteIndex: 5
      m_TileMatrixIndex: 0
      m_TileColorIndex: 0
      m_TileObjectToInstantiateIndex: 65535
      dummyAlignment: 0
      m_AllTileFlags: 1073741825
  - first: {x: 26, y: -20, z: 0}
    second:
      serializedVersion: 2
      m_TileIndex: 32
      m_TileSpriteIndex: 6
      m_TileMatrixIndex: 0
      m_TileColorIndex: 0
      m_TileObjectToInstantiateIndex: 65535
      dummyAlignment: 0
      m_AllTileFlags: 1073741825
  - first: {x: 40, y: -20, z: 0}
    second:
      serializedVersion: 2
      m_TileIndex: 30
      m_TileSpriteIndex: 4294967295
      m_TileMatrixIndex: 0
      m_TileColorIndex: 0
      m_TileObjectToInstantiateIndex: 65535
      dummyAlignment: 0
      m_AllTileFlags: 1073741825
  - first: {x: 24, y: -19, z: 0}
    second:
      serializedVersion: 2
      m_TileIndex: 31
      m_TileSpriteIndex: 7
      m_TileMatrixIndex: 0
      m_TileColorIndex: 0
      m_TileObjectToInstantiateIndex: 65535
      dummyAlignment: 0
      m_AllTileFlags: 1073741825
  - first: {x: 26, y: -19, z: 0}
    second:
      serializedVersion: 2
      m_TileIndex: 25
      m_TileSpriteIndex: 8
      m_TileMatrixIndex: 0
      m_TileColorIndex: 0
      m_TileObjectToInstantiateIndex: 65535
      dummyAlignment: 0
      m_AllTileFlags: 1073741825
  - first: {x: 24, y: -18, z: 0}
    second:
      serializedVersion: 2
      m_TileIndex: 24
      m_TileSpriteIndex: 9
      m_TileMatrixIndex: 0
      m_TileColorIndex: 0
      m_TileObjectToInstantiateIndex: 65535
      dummyAlignment: 0
      m_AllTileFlags: 1073741825
  - first: {x: 25, y: -18, z: 0}
    second:
      serializedVersion: 2
      m_TileIndex: 23
      m_TileSpriteIndex: 10
      m_TileMatrixIndex: 0
      m_TileColorIndex: 0
      m_TileObjectToInstantiateIndex: 65535
      dummyAlignment: 0
      m_AllTileFlags: 1073741825
  - first: {x: 26, y: -18, z: 0}
    second:
      serializedVersion: 2
      m_TileIndex: 0
      m_TileSpriteIndex: 11
      m_TileMatrixIndex: 0
      m_TileColorIndex: 0
      m_TileObjectToInstantiateIndex: 65535
      dummyAlignment: 0
      m_AllTileFlags: 1073741825
  - first: {x: 18, y: -17, z: 0}
    second:
      serializedVersion: 2
      m_TileIndex: 20
      m_TileSpriteIndex: 12
      m_TileMatrixIndex: 0
      m_TileColorIndex: 0
      m_TileObjectToInstantiateIndex: 65535
      dummyAlignment: 0
      m_AllTileFlags: 1073741825
  - first: {x: 19, y: -17, z: 0}
    second:
      serializedVersion: 2
      m_TileIndex: 21
      m_TileSpriteIndex: 13
      m_TileMatrixIndex: 0
      m_TileColorIndex: 0
      m_TileObjectToInstantiateIndex: 65535
      dummyAlignment: 0
      m_AllTileFlags: 1073741825
  - first: {x: 20, y: -17, z: 0}
    second:
      serializedVersion: 2
      m_TileIndex: 22
      m_TileSpriteIndex: 14
      m_TileMatrixIndex: 0
      m_TileColorIndex: 0
      m_TileObjectToInstantiateIndex: 65535
      dummyAlignment: 0
      m_AllTileFlags: 1073741825
  - first: {x: 21, y: -17, z: 0}
    second:
      serializedVersion: 2
      m_TileIndex: 19
      m_TileSpriteIndex: 15
      m_TileMatrixIndex: 0
      m_TileColorIndex: 0
      m_TileObjectToInstantiateIndex: 65535
      dummyAlignment: 0
      m_AllTileFlags: 1073741825
  - first: {x: 19, y: -15, z: 0}
    second:
      serializedVersion: 2
      m_TileIndex: 18
      m_TileSpriteIndex: 16
      m_TileMatrixIndex: 0
      m_TileColorIndex: 0
      m_TileObjectToInstantiateIndex: 65535
      dummyAlignment: 0
      m_AllTileFlags: 1073741825
  - first: {x: 20, y: -15, z: 0}
    second:
      serializedVersion: 2
      m_TileIndex: 17
      m_TileSpriteIndex: 17
      m_TileMatrixIndex: 0
      m_TileColorIndex: 0
      m_TileObjectToInstantiateIndex: 65535
      dummyAlignment: 0
      m_AllTileFlags: 1073741825
  - first: {x: 21, y: -15, z: 0}
    second:
      serializedVersion: 2
      m_TileIndex: 16
      m_TileSpriteIndex: 18
      m_TileMatrixIndex: 0
      m_TileColorIndex: 0
      m_TileObjectToInstantiateIndex: 65535
      dummyAlignment: 0
      m_AllTileFlags: 1073741825
  - first: {x: 24, y: -15, z: 0}
    second:
      serializedVersion: 2
      m_TileIndex: 15
      m_TileSpriteIndex: 19
      m_TileMatrixIndex: 0
      m_TileColorIndex: 0
      m_TileObjectToInstantiateIndex: 65535
      dummyAlignment: 0
      m_AllTileFlags: 1073741825
  - first: {x: 25, y: -15, z: 0}
    second:
      serializedVersion: 2
      m_TileIndex: 14
      m_TileSpriteIndex: 20
      m_TileMatrixIndex: 0
      m_TileColorIndex: 0
      m_TileObjectToInstantiateIndex: 65535
      dummyAlignment: 0
      m_AllTileFlags: 1073741825
  - first: {x: 26, y: -15, z: 0}
    second:
      serializedVersion: 2
      m_TileIndex: 13
      m_TileSpriteIndex: 21
      m_TileMatrixIndex: 0
      m_TileColorIndex: 0
      m_TileObjectToInstantiateIndex: 65535
      dummyAlignment: 0
      m_AllTileFlags: 1073741825
  - first: {x: 27, y: -15, z: 0}
    second:
      serializedVersion: 2
      m_TileIndex: 12
      m_TileSpriteIndex: 22
      m_TileMatrixIndex: 0
      m_TileColorIndex: 0
      m_TileObjectToInstantiateIndex: 65535
      dummyAlignment: 0
      m_AllTileFlags: 1073741825
  - first: {x: 28, y: -15, z: 0}
    second:
      serializedVersion: 2
      m_TileIndex: 11
      m_TileSpriteIndex: 23
      m_TileMatrixIndex: 0
      m_TileColorIndex: 0
      m_TileObjectToInstantiateIndex: 65535
      dummyAlignment: 0
      m_AllTileFlags: 1073741825
  - first: {x: 19, y: -14, z: 0}
    second:
      serializedVersion: 2
      m_TileIndex: 10
      m_TileSpriteIndex: 24
      m_TileMatrixIndex: 0
      m_TileColorIndex: 0
      m_TileObjectToInstantiateIndex: 65535
      dummyAlignment: 0
      m_AllTileFlags: 1073741825
  - first: {x: 20, y: -14, z: 0}
    second:
      serializedVersion: 2
      m_TileIndex: 9
      m_TileSpriteIndex: 25
      m_TileMatrixIndex: 0
      m_TileColorIndex: 0
      m_TileObjectToInstantiateIndex: 65535
      dummyAlignment: 0
      m_AllTileFlags: 1073741825
  - first: {x: 21, y: -14, z: 0}
    second:
      serializedVersion: 2
      m_TileIndex: 8
      m_TileSpriteIndex: 26
      m_TileMatrixIndex: 0
      m_TileColorIndex: 0
      m_TileObjectToInstantiateIndex: 65535
      dummyAlignment: 0
      m_AllTileFlags: 1073741825
  - first: {x: 25, y: -14, z: 0}
    second:
      serializedVersion: 2
      m_TileIndex: 7
      m_TileSpriteIndex: 27
      m_TileMatrixIndex: 0
      m_TileColorIndex: 0
      m_TileObjectToInstantiateIndex: 65535
      dummyAlignment: 0
      m_AllTileFlags: 1073741825
  - first: {x: 26, y: -14, z: 0}
    second:
      serializedVersion: 2
      m_TileIndex: 6
      m_TileSpriteIndex: 28
      m_TileMatrixIndex: 0
      m_TileColorIndex: 0
      m_TileObjectToInstantiateIndex: 65535
      dummyAlignment: 0
      m_AllTileFlags: 1073741825
  - first: {x: 27, y: -14, z: 0}
    second:
      serializedVersion: 2
      m_TileIndex: 5
      m_TileSpriteIndex: 29
      m_TileMatrixIndex: 0
      m_TileColorIndex: 0
      m_TileObjectToInstantiateIndex: 65535
      dummyAlignment: 0
      m_AllTileFlags: 1073741825
  - first: {x: 19, y: -13, z: 0}
    second:
      serializedVersion: 2
      m_TileIndex: 4
      m_TileSpriteIndex: 30
      m_TileMatrixIndex: 0
      m_TileColorIndex: 0
      m_TileObjectToInstantiateIndex: 65535
      dummyAlignment: 0
      m_AllTileFlags: 1073741825
  - first: {x: 20, y: -13, z: 0}
    second:
      serializedVersion: 2
      m_TileIndex: 3
      m_TileSpriteIndex: 31
      m_TileMatrixIndex: 0
      m_TileColorIndex: 0
      m_TileObjectToInstantiateIndex: 65535
      dummyAlignment: 0
      m_AllTileFlags: 1073741825
  - first: {x: 21, y: -13, z: 0}
    second:
      serializedVersion: 2
      m_TileIndex: 2
      m_TileSpriteIndex: 32
      m_TileMatrixIndex: 0
      m_TileColorIndex: 0
      m_TileObjectToInstantiateIndex: 65535
      dummyAlignment: 0
      m_AllTileFlags: 1073741825
  - first: {x: 26, y: -13, z: 0}
    second:
      serializedVersion: 2
      m_TileIndex: 1
      m_TileSpriteIndex: 33
      m_TileMatrixIndex: 0
      m_TileColorIndex: 0
      m_TileObjectToInstantiateIndex: 65535
      dummyAlignment: 0
      m_AllTileFlags: 1073741825
  - first: {x: 19, y: -9, z: 0}
    second:
      serializedVersion: 2
      m_TileIndex: 40
      m_TileSpriteIndex: 40
      m_TileMatrixIndex: 0
      m_TileColorIndex: 0
      m_TileObjectToInstantiateIndex: 65535
      dummyAlignment: 0
      m_AllTileFlags: 1073741825
  - first: {x: 20, y: -9, z: 0}
    second:
      serializedVersion: 2
      m_TileIndex: 41
      m_TileSpriteIndex: 39
      m_TileMatrixIndex: 0
      m_TileColorIndex: 0
      m_TileObjectToInstantiateIndex: 65535
      dummyAlignment: 0
      m_AllTileFlags: 1073741825
  - first: {x: 21, y: -9, z: 0}
    second:
      serializedVersion: 2
      m_TileIndex: 9
      m_TileSpriteIndex: 25
      m_TileMatrixIndex: 0
      m_TileColorIndex: 0
      m_TileObjectToInstantiateIndex: 65535
      dummyAlignment: 0
      m_AllTileFlags: 1073741825
  - first: {x: 22, y: -9, z: 0}
    second:
      serializedVersion: 2
      m_TileIndex: 13
      m_TileSpriteIndex: 21
      m_TileMatrixIndex: 0
      m_TileColorIndex: 0
      m_TileObjectToInstantiateIndex: 65535
      dummyAlignment: 0
      m_AllTileFlags: 1073741825
  - first: {x: 23, y: -9, z: 0}
    second:
      serializedVersion: 2
      m_TileIndex: 37
      m_TileSpriteIndex: 4294967295
      m_TileMatrixIndex: 0
      m_TileColorIndex: 0
      m_TileObjectToInstantiateIndex: 65535
      dummyAlignment: 0
      m_AllTileFlags: 1073741825
  - first: {x: 19, y: -8, z: 0}
    second:
      serializedVersion: 2
      m_TileIndex: 38
      m_TileSpriteIndex: 38
      m_TileMatrixIndex: 0
      m_TileColorIndex: 0
      m_TileObjectToInstantiateIndex: 65535
      dummyAlignment: 0
      m_AllTileFlags: 1073741825
  - first: {x: 20, y: -8, z: 0}
    second:
      serializedVersion: 2
      m_TileIndex: 39
      m_TileSpriteIndex: 37
      m_TileMatrixIndex: 0
      m_TileColorIndex: 0
      m_TileObjectToInstantiateIndex: 65535
      dummyAlignment: 0
      m_AllTileFlags: 1073741825
  - first: {x: 21, y: -8, z: 0}
    second:
      serializedVersion: 2
      m_TileIndex: 13
      m_TileSpriteIndex: 21
      m_TileMatrixIndex: 0
      m_TileColorIndex: 0
      m_TileObjectToInstantiateIndex: 65535
      dummyAlignment: 0
      m_AllTileFlags: 1073741825
  - first: {x: 22, y: -8, z: 0}
    second:
      serializedVersion: 2
      m_TileIndex: 9
      m_TileSpriteIndex: 25
      m_TileMatrixIndex: 0
      m_TileColorIndex: 0
      m_TileObjectToInstantiateIndex: 65535
      dummyAlignment: 0
      m_AllTileFlags: 1073741825
  - first: {x: 23, y: -8, z: 0}
    second:
      serializedVersion: 2
      m_TileIndex: 35
      m_TileSpriteIndex: 4294967295
      m_TileMatrixIndex: 0
      m_TileColorIndex: 0
      m_TileObjectToInstantiateIndex: 65535
      dummyAlignment: 0
      m_AllTileFlags: 1073741825
  m_AnimatedTiles: {}
  m_TileAssetArray:
  - m_RefCount: 1
    m_Data: {fileID: 11400000, guid: c993a3af5b3d02940ac7d94a32cacd55, type: 2}
  - m_RefCount: 1
    m_Data: {fileID: 11400000, guid: 701338c765180f947b230122dead6a77, type: 2}
  - m_RefCount: 1
    m_Data: {fileID: 11400000, guid: 3ceb785dc5198a746a4d252011c6b60a, type: 2}
  - m_RefCount: 1
    m_Data: {fileID: 11400000, guid: f6f629a15bb91b2479dc1674f1081b35, type: 2}
  - m_RefCount: 1
    m_Data: {fileID: 11400000, guid: 5b52ad0b9fa5ea449b3b54166b46be03, type: 2}
  - m_RefCount: 1
    m_Data: {fileID: 11400000, guid: 3196ada2cf4637841b74b446fa857557, type: 2}
  - m_RefCount: 1
    m_Data: {fileID: 11400000, guid: d0922cca749a5e24abb54e6fd9e6e53d, type: 2}
  - m_RefCount: 1
    m_Data: {fileID: 11400000, guid: f713fb59452fe4044be3b7fec187e4f4, type: 2}
  - m_RefCount: 1
    m_Data: {fileID: 11400000, guid: 9756bdf40a2e9de479e76b81ca153279, type: 2}
  - m_RefCount: 3
    m_Data: {fileID: 11400000, guid: 1dfc744bb9d1bd94e837ffe08b78648c, type: 2}
  - m_RefCount: 1
    m_Data: {fileID: 11400000, guid: 6d803b4fbebc6ba45a5138fa5a5a64f2, type: 2}
  - m_RefCount: 1
    m_Data: {fileID: 11400000, guid: 16cfc39cb22433049a0ce30c1135ac65, type: 2}
  - m_RefCount: 1
    m_Data: {fileID: 11400000, guid: 00395da47c3dec447b672048688f801a, type: 2}
  - m_RefCount: 3
    m_Data: {fileID: 11400000, guid: 05719cd3a44e82c4ba021631424ee28b, type: 2}
  - m_RefCount: 1
    m_Data: {fileID: 11400000, guid: af4051a9a50985f4ba7522121ae85d05, type: 2}
  - m_RefCount: 1
    m_Data: {fileID: 11400000, guid: a907999fbb60ae94d83783bd3fc0c235, type: 2}
  - m_RefCount: 1
    m_Data: {fileID: 11400000, guid: 22ad63ed37c4dd941a41e6b5b768cdb7, type: 2}
  - m_RefCount: 1
    m_Data: {fileID: 11400000, guid: 0fea70529fafaa1429293f76f0cdf0b9, type: 2}
  - m_RefCount: 1
    m_Data: {fileID: 11400000, guid: 1caaa1306cc909b42880556401386d93, type: 2}
  - m_RefCount: 1
    m_Data: {fileID: 11400000, guid: 8a1d53a106d1e4c45b5c88f2d6a5fb82, type: 2}
  - m_RefCount: 1
    m_Data: {fileID: 11400000, guid: a15dabfff2597ab4fa1e2d05b7580b7d, type: 2}
  - m_RefCount: 1
    m_Data: {fileID: 11400000, guid: 03e42b07f2f35fe43b1ec93dc1928c48, type: 2}
  - m_RefCount: 1
    m_Data: {fileID: 11400000, guid: 6a4184063e5b5aa42a65536527a72c4b, type: 2}
  - m_RefCount: 1
    m_Data: {fileID: 11400000, guid: 6c18e13360b425b4e9ac656dcb3883cd, type: 2}
  - m_RefCount: 1
    m_Data: {fileID: 11400000, guid: a9ebdbce719115b40b3afedf108b3597, type: 2}
  - m_RefCount: 1
    m_Data: {fileID: 11400000, guid: 84200018ba9440f48a2635aeecae30bc, type: 2}
  - m_RefCount: 1
    m_Data: {fileID: 11400000, guid: 1cc91ab654662de479b09c0e6a0b98b9, type: 2}
  - m_RefCount: 1
    m_Data: {fileID: 11400000, guid: 0521850ba3410f145923cf4696244b65, type: 2}
  - m_RefCount: 1
    m_Data: {fileID: 11400000, guid: 4cdce5c8e9a7ffa45a08e30834ad8710, type: 2}
  - m_RefCount: 1
    m_Data: {fileID: 11400000, guid: 8d4b0bb8ae3241e49aaf1ace9bd6769d, type: 2}
  - m_RefCount: 1
    m_Data: {fileID: 11400000, guid: 30b7551f67e501645a84e7f414db46e8, type: 2}
  - m_RefCount: 1
    m_Data: {fileID: 11400000, guid: fbbf76e5e00e5ab488bf17f96e84f772, type: 2}
  - m_RefCount: 1
    m_Data: {fileID: 11400000, guid: 4ad90735449451742ab5c22d208b579b, type: 2}
  - m_RefCount: 1
    m_Data: {fileID: 11400000, guid: 808e6056124a15447a1a2d44d88d3b29, type: 2}
  - m_RefCount: 1
    m_Data: {fileID: 11400000, guid: 177afe1ae78dbca4a930b5be4fc1a28f, type: 2}
  - m_RefCount: 1
    m_Data: {fileID: 11400000, guid: 11acc23edcf254e409179d67a8adf607, type: 2}
  - m_RefCount: 0
    m_Data: {fileID: 0}
  - m_RefCount: 1
    m_Data: {fileID: 11400000, guid: bd7f978f5b047664fba557384a8c6806, type: 2}
  - m_RefCount: 1
    m_Data: {fileID: 11400000, guid: 7b23a07e9da5f11408e1c2170d3d66c2, type: 2}
  - m_RefCount: 1
    m_Data: {fileID: 11400000, guid: 5fd2954e2a3aca640b21cff68cbe7a14, type: 2}
  - m_RefCount: 1
    m_Data: {fileID: 11400000, guid: 6f4664651991a3a43bc29e085a881581, type: 2}
  - m_RefCount: 1
    m_Data: {fileID: 11400000, guid: f3e5be5e5c5c585439a93601890a2ffd, type: 2}
  - m_RefCount: 0
    m_Data: {fileID: 0}
  - m_RefCount: 0
    m_Data: {fileID: 0}
  m_TileSpriteArray:
  - m_RefCount: 0
    m_Data: {fileID: 0}
  - m_RefCount: 0
    m_Data: {fileID: 0}
  - m_RefCount: 0
    m_Data: {fileID: 0}
  - m_RefCount: 1
    m_Data: {fileID: 9187610825538361095, guid: 57c1f00103c0d364b9ce1598c969f9bc,
      type: 3}
  - m_RefCount: 1
    m_Data: {fileID: -2035014481975998527, guid: 57c1f00103c0d364b9ce1598c969f9bc,
      type: 3}
  - m_RefCount: 1
    m_Data: {fileID: -8700743376496914353, guid: 57c1f00103c0d364b9ce1598c969f9bc,
      type: 3}
  - m_RefCount: 1
    m_Data: {fileID: 6399035748713760766, guid: 57c1f00103c0d364b9ce1598c969f9bc,
      type: 3}
  - m_RefCount: 1
    m_Data: {fileID: -4642502950856125504, guid: 57c1f00103c0d364b9ce1598c969f9bc,
      type: 3}
  - m_RefCount: 1
    m_Data: {fileID: 4264487323527107048, guid: 57c1f00103c0d364b9ce1598c969f9bc,
      type: 3}
  - m_RefCount: 1
    m_Data: {fileID: 8873718537175000543, guid: 57c1f00103c0d364b9ce1598c969f9bc,
      type: 3}
  - m_RefCount: 1
    m_Data: {fileID: 3573405776122258743, guid: 57c1f00103c0d364b9ce1598c969f9bc,
      type: 3}
  - m_RefCount: 1
    m_Data: {fileID: 7475508794593989067, guid: 57c1f00103c0d364b9ce1598c969f9bc,
      type: 3}
  - m_RefCount: 1
    m_Data: {fileID: -8825017471531413093, guid: 57c1f00103c0d364b9ce1598c969f9bc,
      type: 3}
  - m_RefCount: 1
    m_Data: {fileID: 3147775046621374423, guid: 57c1f00103c0d364b9ce1598c969f9bc,
      type: 3}
  - m_RefCount: 1
    m_Data: {fileID: 3525291583895957595, guid: 57c1f00103c0d364b9ce1598c969f9bc,
      type: 3}
  - m_RefCount: 1
    m_Data: {fileID: -4947034033197536833, guid: 57c1f00103c0d364b9ce1598c969f9bc,
      type: 3}
  - m_RefCount: 1
    m_Data: {fileID: 8411236362449166524, guid: 57c1f00103c0d364b9ce1598c969f9bc,
      type: 3}
  - m_RefCount: 1
    m_Data: {fileID: 2718051350723006041, guid: 57c1f00103c0d364b9ce1598c969f9bc,
      type: 3}
  - m_RefCount: 1
    m_Data: {fileID: 8288829703105912720, guid: 57c1f00103c0d364b9ce1598c969f9bc,
      type: 3}
  - m_RefCount: 1
    m_Data: {fileID: -7540945223546413427, guid: 57c1f00103c0d364b9ce1598c969f9bc,
      type: 3}
  - m_RefCount: 1
    m_Data: {fileID: 9142775563616013436, guid: 57c1f00103c0d364b9ce1598c969f9bc,
      type: 3}
  - m_RefCount: 3
    m_Data: {fileID: 5321157756056497505, guid: 57c1f00103c0d364b9ce1598c969f9bc,
      type: 3}
  - m_RefCount: 1
    m_Data: {fileID: -3337577911045254591, guid: 57c1f00103c0d364b9ce1598c969f9bc,
      type: 3}
  - m_RefCount: 1
    m_Data: {fileID: 7348971044834216090, guid: 57c1f00103c0d364b9ce1598c969f9bc,
      type: 3}
  - m_RefCount: 1
    m_Data: {fileID: 4496395980874391441, guid: 57c1f00103c0d364b9ce1598c969f9bc,
      type: 3}
  - m_RefCount: 3
    m_Data: {fileID: -6922005342401572946, guid: 57c1f00103c0d364b9ce1598c969f9bc,
      type: 3}
  - m_RefCount: 1
    m_Data: {fileID: 9134357878001296572, guid: 57c1f00103c0d364b9ce1598c969f9bc,
      type: 3}
  - m_RefCount: 1
    m_Data: {fileID: -5286823035380626169, guid: 57c1f00103c0d364b9ce1598c969f9bc,
      type: 3}
  - m_RefCount: 1
    m_Data: {fileID: 169730556214689329, guid: 57c1f00103c0d364b9ce1598c969f9bc, type: 3}
  - m_RefCount: 1
    m_Data: {fileID: 7403303327445092585, guid: 57c1f00103c0d364b9ce1598c969f9bc,
      type: 3}
  - m_RefCount: 1
    m_Data: {fileID: -6859434146265161742, guid: 57c1f00103c0d364b9ce1598c969f9bc,
      type: 3}
  - m_RefCount: 1
    m_Data: {fileID: 7107831715035163200, guid: 57c1f00103c0d364b9ce1598c969f9bc,
      type: 3}
  - m_RefCount: 1
    m_Data: {fileID: 6953048030014980016, guid: 57c1f00103c0d364b9ce1598c969f9bc,
      type: 3}
  - m_RefCount: 1
    m_Data: {fileID: 601814126633061633, guid: 57c1f00103c0d364b9ce1598c969f9bc, type: 3}
  - m_RefCount: 1
    m_Data: {fileID: -3565404811362686547, guid: 57c1f00103c0d364b9ce1598c969f9bc,
      type: 3}
  - m_RefCount: 1
    m_Data: {fileID: 3641499531033617731, guid: 57c1f00103c0d364b9ce1598c969f9bc,
      type: 3}
  - m_RefCount: 1
    m_Data: {fileID: 366247427463846467, guid: 57c1f00103c0d364b9ce1598c969f9bc, type: 3}
  - m_RefCount: 1
    m_Data: {fileID: 385557635, guid: e48ff9071ce633a4ca3bdf95c8c688cd, type: 3}
  - m_RefCount: 1
    m_Data: {fileID: 550700073, guid: e48ff9071ce633a4ca3bdf95c8c688cd, type: 3}
  - m_RefCount: 1
    m_Data: {fileID: -735297306, guid: e48ff9071ce633a4ca3bdf95c8c688cd, type: 3}
  - m_RefCount: 1
    m_Data: {fileID: 1679409380, guid: e48ff9071ce633a4ca3bdf95c8c688cd, type: 3}
  m_TileMatrixArray:
  - m_RefCount: 45
    m_Data:
      e00: 1
      e01: 0
      e02: 0
      e03: 0
      e10: 0
      e11: 1
      e12: 0
      e13: 0
      e20: 0
      e21: 0
      e22: 1
      e23: 0
      e30: 0
      e31: 0
      e32: 0
      e33: 1
  m_TileColorArray:
  - m_RefCount: 45
    m_Data: {r: 1, g: 1, b: 1, a: 1}
  m_TileObjectToInstantiateArray: []
  m_AnimationFrameRate: 1
  m_Color: {r: 1, g: 1, b: 1, a: 1}
  m_Origin: {x: 18, y: -20, z: 0}
  m_Size: {x: 23, y: 14, z: 1}
  m_TileAnchor: {x: 0.5, y: 0.5, z: 0}
  m_TileOrientation: 0
  m_TileOrientationMatrix:
    e00: 1
    e01: 0
    e02: 0
    e03: 0
    e10: 0
    e11: 1
    e12: 0
    e13: 0
    e20: 0
    e21: 0
    e22: 1
    e23: 0
    e30: 0
    e31: 0
    e32: 0
    e33: 1
--- !u!483693784 &8453947966121843775
TilemapRenderer:
  m_ObjectHideFlags: 0
  m_CorrespondingSourceObject: {fileID: 0}
  m_PrefabInstance: {fileID: 0}
  m_PrefabAsset: {fileID: 0}
  m_GameObject: {fileID: 7411641318790502566}
  m_Enabled: 1
  m_CastShadows: 0
  m_ReceiveShadows: 0
  m_DynamicOccludee: 0
  m_StaticShadowCaster: 0
  m_MotionVectors: 1
  m_LightProbeUsage: 0
  m_ReflectionProbeUsage: 0
  m_RayTracingMode: 0
  m_RayTraceProcedural: 0
  m_RenderingLayerMask: 1
  m_RendererPriority: 0
  m_Materials:
  - {fileID: 2100000, guid: a97c105638bdf8b4a8650670310a4cd3, type: 2}
  m_StaticBatchInfo:
    firstSubMesh: 0
    subMeshCount: 0
  m_StaticBatchRoot: {fileID: 0}
  m_ProbeAnchor: {fileID: 0}
  m_LightProbeVolumeOverride: {fileID: 0}
  m_ScaleInLightmap: 1
  m_ReceiveGI: 1
  m_PreserveUVs: 0
  m_IgnoreNormalsForChartDetection: 0
  m_ImportantGI: 0
  m_StitchLightmapSeams: 1
  m_SelectedEditorRenderState: 0
  m_MinimumChartSize: 4
  m_AutoUVMaxDistance: 0.5
  m_AutoUVMaxAngle: 89
  m_LightmapParameters: {fileID: 0}
  m_SortingLayerID: 0
  m_SortingLayer: 0
  m_SortingOrder: 0
  m_ChunkSize: {x: 32, y: 32, z: 32}
  m_ChunkCullingBounds: {x: 0, y: 0, z: 0}
  m_MaxChunkCount: 16
  m_MaxFrameAge: 16
  m_SortOrder: 0
  m_Mode: 0
  m_DetectChunkCullingBounds: 0
  m_MaskInteraction: 0
--- !u!114 &686217931449499939
MonoBehaviour:
  m_ObjectHideFlags: 0
  m_CorrespondingSourceObject: {fileID: 0}
  m_PrefabInstance: {fileID: 0}
  m_PrefabAsset: {fileID: 0}
  m_GameObject: {fileID: 0}
  m_Enabled: 1
  m_EditorHideFlags: 0
  m_Script: {fileID: 12395, guid: 0000000000000000e000000000000000, type: 0}
  m_Name: Palette Settings
  m_EditorClassIdentifier: 
  cellSizing: 0
  m_TransparencySortMode: 0
  m_TransparencySortAxis: {x: 0, y: 0, z: 1}
