%YAML 1.1
%TAG !u! tag:unity3d.com,2011:
--- !u!1001 &8171067585736919941
PrefabInstance:
  m_ObjectHideFlags: 0
  serializedVersion: 2
  m_Modification:
    serializedVersion: 2
    m_TransformParent: {fileID: 0}
    m_Modifications:
    - target: {fileID: 96090822810320752, guid: 44de7abed8fef424db8fe84a4d016a03,
        type: 3}
      propertyPath: m_RootOrder
      value: 0
      objectReference: {fileID: 0}
    - target: {fileID: 96090822810320752, guid: 44de7abed8fef424db8fe84a4d016a03,
        type: 3}
      propertyPath: m_LocalPosition.x
      value: -96.941734
      objectReference: {fileID: 0}
    - target: {fileID: 96090822810320752, guid: 44de7abed8fef424db8fe84a4d016a03,
        type: 3}
      propertyPath: m_LocalPosition.y
      value: -27.409046
      objectReference: {fileID: 0}
    - target: {fileID: 96090822810320752, guid: 44de7abed8fef424db8fe84a4d016a03,
        type: 3}
      propertyPath: m_LocalPosition.z
      value: 0
      objectReference: {fileID: 0}
    - target: {fileID: 96090822810320752, guid: 44de7abed8fef424db8fe84a4d016a03,
        type: 3}
      propertyPath: m_LocalRotation.w
      value: 1
      objectReference: {fileID: 0}
    - target: {fileID: 96090822810320752, guid: 44de7abed8fef424db8fe84a4d016a03,
        type: 3}
      propertyPath: m_LocalRotation.x
      value: 0
      objectReference: {fileID: 0}
    - target: {fileID: 96090822810320752, guid: 44de7abed8fef424db8fe84a4d016a03,
        type: 3}
      propertyPath: m_LocalRotation.y
      value: 0
      objectReference: {fileID: 0}
    - target: {fileID: 96090822810320752, guid: 44de7abed8fef424db8fe84a4d016a03,
        type: 3}
      propertyPath: m_LocalRotation.z
      value: 0
      objectReference: {fileID: 0}
    - target: {fileID: 96090822810320752, guid: 44de7abed8fef424db8fe84a4d016a03,
        type: 3}
      propertyPath: m_LocalEulerAnglesHint.x
      value: 0
      objectReference: {fileID: 0}
    - target: {fileID: 96090822810320752, guid: 44de7abed8fef424db8fe84a4d016a03,
        type: 3}
      propertyPath: m_LocalEulerAnglesHint.y
      value: 0
      objectReference: {fileID: 0}
    - target: {fileID: 96090822810320752, guid: 44de7abed8fef424db8fe84a4d016a03,
        type: 3}
      propertyPath: m_LocalEulerAnglesHint.z
      value: 0
      objectReference: {fileID: 0}
    - target: {fileID: 96090822810320753, guid: 44de7abed8fef424db8fe84a4d016a03,
        type: 3}
      propertyPath: m_Materials.Array.data[0]
      value: 
      objectReference: {fileID: 2100000, guid: d69090aee313e364dae4cff610cb5c79, type: 2}
    - target: {fileID: 96090822810320754, guid: 44de7abed8fef424db8fe84a4d016a03,
        type: 3}
      propertyPath: m_Name
      value: MineralGreen1 Variant
      objectReference: {fileID: 0}
    - target: {fileID: 4209258875355947403, guid: 44de7abed8fef424db8fe84a4d016a03,
        type: 3}
      propertyPath: m_Color.b
      value: 0
      objectReference: {fileID: 0}
    - target: {fileID: 4209258875355947403, guid: 44de7abed8fef424db8fe84a4d016a03,
        type: 3}
      propertyPath: m_Color.g
      value: 1
      objectReference: {fileID: 0}
    - target: {fileID: 4209258875355947403, guid: 44de7abed8fef424db8fe84a4d016a03,
        type: 3}
      propertyPath: m_Color.r
      value: 0
      objectReference: {fileID: 0}
    - target: {fileID: 7643611204254147115, guid: 44de7abed8fef424db8fe84a4d016a03,
        type: 3}
      propertyPath: m_Materials.Array.data[0]
      value: 
      objectReference: {fileID: 2100000, guid: d69090aee313e364dae4cff610cb5c79, type: 2}
    m_RemovedComponents: []
    m_AddedGameObjects: []
  m_SourcePrefab: {fileID: 100100000, guid: 44de7abed8fef424db8fe84a4d016a03, type: 3}
