%YAML 1.1
%TAG !u! tag:unity3d.com,2011:
--- !u!1001 &8832524753172426488
PrefabInstance:
  m_ObjectHideFlags: 0
  serializedVersion: 2
  m_Modification:
    serializedVersion: 2
    m_TransformParent: {fileID: 0}
    m_Modifications:
    - target: {fileID: 154426239586217569, guid: 18111dddccc953343bbb9e66dd254bea,
        type: 3}
      propertyPath: m_RootOrder
      value: 0
      objectReference: {fileID: 0}
    - target: {fileID: 154426239586217569, guid: 18111dddccc953343bbb9e66dd254bea,
        type: 3}
      propertyPath: m_LocalPosition.x
      value: -83.03241
      objectReference: {fileID: 0}
    - target: {fileID: 154426239586217569, guid: 18111dddccc953343bbb9e66dd254bea,
        type: 3}
      propertyPath: m_LocalPosition.y
      value: -26.839804
      objectReference: {fileID: 0}
    - target: {fileID: 154426239586217569, guid: 18111dddccc953343bbb9e66dd254bea,
        type: 3}
      propertyPath: m_LocalPosition.z
      value: 0
      objectReference: {fileID: 0}
    - target: {fileID: 154426239586217569, guid: 18111dddccc953343bbb9e66dd254bea,
        type: 3}
      propertyPath: m_LocalRotation.w
      value: 1
      objectReference: {fileID: 0}
    - target: {fileID: 154426239586217569, guid: 18111dddccc953343bbb9e66dd254bea,
        type: 3}
      propertyPath: m_LocalRotation.x
      value: 0
      objectReference: {fileID: 0}
    - target: {fileID: 154426239586217569, guid: 18111dddccc953343bbb9e66dd254bea,
        type: 3}
      propertyPath: m_LocalRotation.y
      value: 0
      objectReference: {fileID: 0}
    - target: {fileID: 154426239586217569, guid: 18111dddccc953343bbb9e66dd254bea,
        type: 3}
      propertyPath: m_LocalRotation.z
      value: 0
      objectReference: {fileID: 0}
    - target: {fileID: 154426239586217569, guid: 18111dddccc953343bbb9e66dd254bea,
        type: 3}
      propertyPath: m_LocalEulerAnglesHint.x
      value: 0
      objectReference: {fileID: 0}
    - target: {fileID: 154426239586217569, guid: 18111dddccc953343bbb9e66dd254bea,
        type: 3}
      propertyPath: m_LocalEulerAnglesHint.y
      value: 0
      objectReference: {fileID: 0}
    - target: {fileID: 154426239586217569, guid: 18111dddccc953343bbb9e66dd254bea,
        type: 3}
      propertyPath: m_LocalEulerAnglesHint.z
      value: 0
      objectReference: {fileID: 0}
    - target: {fileID: 154426239586217574, guid: 18111dddccc953343bbb9e66dd254bea,
        type: 3}
      propertyPath: m_Materials.Array.data[0]
      value: 
      objectReference: {fileID: 2100000, guid: 7d56d64a6694fba408f05cc10bc67b0e, type: 2}
    - target: {fileID: 154426239586217575, guid: 18111dddccc953343bbb9e66dd254bea,
        type: 3}
      propertyPath: m_Name
      value: MineralTeal5 Variant
      objectReference: {fileID: 0}
    - target: {fileID: 154426239586217575, guid: 18111dddccc953343bbb9e66dd254bea,
        type: 3}
      propertyPath: m_IsActive
      value: 1
      objectReference: {fileID: 0}
    - target: {fileID: 6066879189752272544, guid: 18111dddccc953343bbb9e66dd254bea,
        type: 3}
      propertyPath: m_Color.g
      value: 0.98039216
      objectReference: {fileID: 0}
    - target: {fileID: 6066879189752272544, guid: 18111dddccc953343bbb9e66dd254bea,
        type: 3}
      propertyPath: m_Color.r
      value: 0
      objectReference: {fileID: 0}
    - target: {fileID: 6552271018822240786, guid: 18111dddccc953343bbb9e66dd254bea,
        type: 3}
      propertyPath: m_Materials.Array.data[0]
      value: 
      objectReference: {fileID: 2100000, guid: 7d56d64a6694fba408f05cc10bc67b0e, type: 2}
    m_RemovedComponents: []
    m_AddedGameObjects: []
  m_SourcePrefab: {fileID: 100100000, guid: 18111dddccc953343bbb9e66dd254bea, type: 3}
