%YAML 1.1
%TAG !u! tag:unity3d.com,2011:
--- !u!74 &7400000
AnimationClip:
  m_ObjectHideFlags: 0
  m_CorrespondingSourceObject: {fileID: 0}
  m_PrefabInstance: {fileID: 0}
  m_PrefabAsset: {fileID: 0}
  m_Name: BogenBauerWalk
  serializedVersion: 7
  m_Legacy: 0
  m_Compressed: 0
  m_UseHighQualityCurve: 1
  m_RotationCurves: []
  m_CompressedRotationCurves: []
  m_EulerCurves: []
  m_PositionCurves:
  - curve:
      serializedVersion: 2
      m_Curve:
      - serializedVersion: 3
        time: 0
        value: {x: 1.093, y: -0.598, z: 0}
        inSlope: {x: 0, y: 0, z: 0}
        outSlope: {x: 0, y: 0, z: 0}
        tangentMode: 0
        weightedMode: 0
        inWeight: {x: 0, y: 0.33333334, z: 0.33333334}
        outWeight: {x: 0, y: 0.33333334, z: 0.33333334}
      m_PreInfinity: 2
      m_PostInfinity: 2
      m_RotationOrder: 4
    path: ArrowFlames Variant
  m_ScaleCurves: []
  m_FloatCurves: []
  m_PPtrCurves:
  - curve:
    - time: 0
      value: {fileID: 2032919697484889332, guid: 7e98b24b6de6248499007e4f00f8be30,
        type: 3}
    - time: 0.083333336
      value: {fileID: 2136465235020137788, guid: 7e98b24b6de6248499007e4f00f8be30,
        type: 3}
    - time: 0.16666667
      value: {fileID: 7214785619814944085, guid: 7e98b24b6de6248499007e4f00f8be30,
        type: 3}
    - time: 0.25
      value: {fileID: -8646424269949378627, guid: 7e98b24b6de6248499007e4f00f8be30,
        type: 3}
    - time: 0.33333334
      value: {fileID: 8397988040133466534, guid: 7e98b24b6de6248499007e4f00f8be30,
        type: 3}
    - time: 0.41666666
      value: {fileID: 363996213597201662, guid: 7e98b24b6de6248499007e4f00f8be30,
        type: 3}
    - time: 0.5
      value: {fileID: 5817733294090499350, guid: 7e98b24b6de6248499007e4f00f8be30,
        type: 3}
    - time: 0.5833333
      value: {fileID: 6326129284844404171, guid: 7e98b24b6de6248499007e4f00f8be30,
        type: 3}
    - time: 0.6666667
      value: {fileID: 5443345769610299306, guid: 7e98b24b6de6248499007e4f00f8be30,
        type: 3}
    attribute: m_Sprite
    path: 
    classID: 212
    script: {fileID: 0}
  m_SampleRate: 12
  m_WrapMode: 0
  m_Bounds:
    m_Center: {x: 0, y: 0, z: 0}
    m_Extent: {x: 0, y: 0, z: 0}
  m_ClipBindingConstant:
    genericBindings:
    - serializedVersion: 2
      path: 0
      attribute: 0
      script: {fileID: 0}
      typeID: 212
      customType: 23
      isPPtrCurve: 1
      isIntCurve: 0
    - serializedVersion: 2
      path: 3080787180
      attribute: 1
      script: {fileID: 0}
      typeID: 4
      customType: 0
      isPPtrCurve: 0
      isIntCurve: 0
    pptrCurveMapping:
    - {fileID: 2032919697484889332, guid: 7e98b24b6de6248499007e4f00f8be30, type: 3}
    - {fileID: 2136465235020137788, guid: 7e98b24b6de6248499007e4f00f8be30, type: 3}
    - {fileID: 7214785619814944085, guid: 7e98b24b6de6248499007e4f00f8be30, type: 3}
    - {fileID: -8646424269949378627, guid: 7e98b24b6de6248499007e4f00f8be30, type: 3}
    - {fileID: 8397988040133466534, guid: 7e98b24b6de6248499007e4f00f8be30, type: 3}
    - {fileID: 363996213597201662, guid: 7e98b24b6de6248499007e4f00f8be30, type: 3}
    - {fileID: 5817733294090499350, guid: 7e98b24b6de6248499007e4f00f8be30, type: 3}
    - {fileID: 6326129284844404171, guid: 7e98b24b6de6248499007e4f00f8be30, type: 3}
    - {fileID: 5443345769610299306, guid: 7e98b24b6de6248499007e4f00f8be30, type: 3}
  m_AnimationClipSettings:
    serializedVersion: 2
    m_AdditiveReferencePoseClip: {fileID: 0}
    m_AdditiveReferencePoseTime: 0
    m_StartTime: 0
    m_StopTime: 0.75
    m_OrientationOffsetY: 0
    m_Level: 0
    m_CycleOffset: 0
    m_HasAdditiveReferencePose: 0
    m_LoopTime: 1
    m_LoopBlend: 0
    m_LoopBlendOrientation: 0
    m_LoopBlendPositionY: 0
    m_LoopBlendPositionXZ: 0
    m_KeepOriginalOrientation: 0
    m_KeepOriginalPositionY: 1
    m_KeepOriginalPositionXZ: 0
    m_HeightFromFeet: 0
    m_Mirror: 0
  m_EditorCurves:
  - curve:
      serializedVersion: 2
      m_Curve:
      - serializedVersion: 3
        time: 0
        value: 1.093
        inSlope: 0
        outSlope: 0
        tangentMode: 136
        weightedMode: 0
        inWeight: 0
        outWeight: 0
      m_PreInfinity: 2
      m_PostInfinity: 2
      m_RotationOrder: 4
    attribute: m_LocalPosition.x
    path: ArrowFlames Variant
    classID: 4
    script: {fileID: 0}
  - curve:
      serializedVersion: 2
      m_Curve:
      - serializedVersion: 3
        time: 0
        value: -0.598
        inSlope: 0
        outSlope: 0
        tangentMode: 136
        weightedMode: 0
        inWeight: 0
        outWeight: 0
      m_PreInfinity: 2
      m_PostInfinity: 2
      m_RotationOrder: 4
    attribute: m_LocalPosition.y
    path: ArrowFlames Variant
    classID: 4
    script: {fileID: 0}
  - curve:
      serializedVersion: 2
      m_Curve:
      - serializedVersion: 3
        time: 0
        value: 0
        inSlope: 0
        outSlope: 0
        tangentMode: 136
        weightedMode: 0
        inWeight: 0
        outWeight: 0
      m_PreInfinity: 2
      m_PostInfinity: 2
      m_RotationOrder: 4
    attribute: m_LocalPosition.z
    path: ArrowFlames Variant
    classID: 4
    script: {fileID: 0}
  m_EulerEditorCurves: []
  m_HasGenericRootTransform: 0
  m_HasMotionFloatCurves: 0
  m_Events: []
