%YAML 1.1
%TAG !u! tag:unity3d.com,2011:
--- !u!78 &1
TagManager:
  serializedVersion: 2
  tags:
  - Enemy
  - Projectile
  - Killzone
  - Global
  - PowerUp
  - Zone
  - Background
  - Invulnerable
  - Bat
  - Object
  - Ground
  - UI
  - Effect
  layers:
  - Default
  - TransparentFX
  - Ignore Raycast
  - Global
  - Water
  - UI
  - PostProcessing
  - PowerUp
  - Player
  - Enemy
  - Projectile
  - Ground
  - Background
  - Zones
  - Objects
  - Invulnerable
  - Bat
  - OnlyBodenCollision
  - BoundlessProjectile
  - Enemy Projectile
  - Player Projectile
  - Only Player Blocker
  - SquashingTrapWall
  - Friendly
  - Effect
  - 
  - 
  - 
  - 
  - 
  - 
  - 
  m_SortingLayers:
  - name: Default
    uniqueID: 0
    locked: 0
  - name: 1Background
    uniqueID: 838086305
    locked: 0
  - name: 2Map
    uniqueID: 1222712641
    locked: 0
  - name: 3Units
    uniqueID: 2187196483
    locked: 0
  - name: 4HitEffekt
    uniqueID: 4012985687
    locked: 0
  - name: 5Foreground
    uniqueID: 4026774775
    locked: 0
  - name: 6UI
    uniqueID: 1472865985
    locked: 0
