%YAML 1.1
%TAG !u! tag:unity3d.com,2011:
--- !u!1 &1185596256603058
GameObject:
  m_ObjectHideFlags: 0
  m_CorrespondingSourceObject: {fileID: 0}
  m_PrefabInstance: {fileID: 0}
  m_PrefabAsset: {fileID: 0}
  serializedVersion: 6
  m_Component:
  - component: {fileID: 4361142195396104}
  - component: {fileID: 2569400265414050268}
  m_Layer: 31
  m_Name: CastleGothic
  m_TagString: Untagged
  m_Icon: {fileID: 0}
  m_NavMeshLayer: 0
  m_StaticEditorFlags: 0
  m_IsActive: 1
--- !u!4 &4361142195396104
Transform:
  m_ObjectHideFlags: 0
  m_CorrespondingSourceObject: {fileID: 0}
  m_PrefabInstance: {fileID: 0}
  m_PrefabAsset: {fileID: 0}
  m_GameObject: {fileID: 1185596256603058}
  m_LocalRotation: {x: 0, y: 0, z: 0, w: 1}
  m_LocalPosition: {x: 0, y: 0, z: 0}
  m_LocalScale: {x: 1, y: 1, z: 1}
  m_ConstrainProportionsScale: 0
  m_Children:
  - {fileID: 4566463053487920}
  m_Father: {fileID: 0}
  m_RootOrder: 1
  m_LocalEulerAnglesHint: {x: 0, y: 0, z: 0}
--- !u!156049354 &2569400265414050268
Grid:
  m_ObjectHideFlags: 0
  m_CorrespondingSourceObject: {fileID: 0}
  m_PrefabInstance: {fileID: 0}
  m_PrefabAsset: {fileID: 0}
  m_GameObject: {fileID: 1185596256603058}
  m_Enabled: 1
  m_CellSize: {x: 1, y: 1, z: 0}
  m_CellGap: {x: 0, y: 0, z: 0}
  m_CellLayout: 0
  m_CellSwizzle: 0
--- !u!1 &1411023438433892
GameObject:
  m_ObjectHideFlags: 0
  m_CorrespondingSourceObject: {fileID: 0}
  m_PrefabInstance: {fileID: 0}
  m_PrefabAsset: {fileID: 0}
  serializedVersion: 6
  m_Component:
  - component: {fileID: 4566463053487920}
  - component: {fileID: 8195094281831460580}
  - component: {fileID: 3664157343818926458}
  m_Layer: 0
  m_Name: Layer1
  m_TagString: Untagged
  m_Icon: {fileID: 0}
  m_NavMeshLayer: 0
  m_StaticEditorFlags: 0
  m_IsActive: 1
--- !u!4 &4566463053487920
Transform:
  m_ObjectHideFlags: 0
  m_CorrespondingSourceObject: {fileID: 0}
  m_PrefabInstance: {fileID: 0}
  m_PrefabAsset: {fileID: 0}
  m_GameObject: {fileID: 1411023438433892}
  m_LocalRotation: {x: -0, y: -0, z: -0, w: 1}
  m_LocalPosition: {x: 0, y: 0, z: 0}
  m_LocalScale: {x: 1, y: 1, z: 1}
  m_ConstrainProportionsScale: 0
  m_Children: []
  m_Father: {fileID: 4361142195396104}
  m_RootOrder: 0
  m_LocalEulerAnglesHint: {x: 0, y: 0, z: 0}
--- !u!1839735485 &8195094281831460580
Tilemap:
  m_ObjectHideFlags: 0
  m_CorrespondingSourceObject: {fileID: 0}
  m_PrefabInstance: {fileID: 0}
  m_PrefabAsset: {fileID: 0}
  m_GameObject: {fileID: 1411023438433892}
  m_Enabled: 1
  m_Tiles:
  - first: {x: 0, y: -6, z: 0}
    second:
      serializedVersion: 2
      m_TileIndex: 17
      m_TileSpriteIndex: 0
      m_TileMatrixIndex: 0
      m_TileColorIndex: 0
      m_TileObjectToInstantiateIndex: 65535
      dummyAlignment: 0
      m_AllTileFlags: 1073741825
  - first: {x: 7, y: -6, z: 0}
    second:
      serializedVersion: 2
      m_TileIndex: 16
      m_TileSpriteIndex: 1
      m_TileMatrixIndex: 0
      m_TileColorIndex: 0
      m_TileObjectToInstantiateIndex: 65535
      dummyAlignment: 0
      m_AllTileFlags: 1073741825
  - first: {x: 0, y: -5, z: 0}
    second:
      serializedVersion: 2
      m_TileIndex: 15
      m_TileSpriteIndex: 2
      m_TileMatrixIndex: 0
      m_TileColorIndex: 0
      m_TileObjectToInstantiateIndex: 65535
      dummyAlignment: 0
      m_AllTileFlags: 1073741825
  - first: {x: 1, y: -5, z: 0}
    second:
      serializedVersion: 2
      m_TileIndex: 13
      m_TileSpriteIndex: 3
      m_TileMatrixIndex: 0
      m_TileColorIndex: 0
      m_TileObjectToInstantiateIndex: 65535
      dummyAlignment: 0
      m_AllTileFlags: 1073741825
  - first: {x: 6, y: -5, z: 0}
    second:
      serializedVersion: 2
      m_TileIndex: 12
      m_TileSpriteIndex: 4
      m_TileMatrixIndex: 0
      m_TileColorIndex: 0
      m_TileObjectToInstantiateIndex: 65535
      dummyAlignment: 0
      m_AllTileFlags: 1073741825
  - first: {x: 7, y: -5, z: 0}
    second:
      serializedVersion: 2
      m_TileIndex: 11
      m_TileSpriteIndex: 5
      m_TileMatrixIndex: 0
      m_TileColorIndex: 0
      m_TileObjectToInstantiateIndex: 65535
      dummyAlignment: 0
      m_AllTileFlags: 1073741825
  - first: {x: 2, y: -4, z: 0}
    second:
      serializedVersion: 2
      m_TileIndex: 10
      m_TileSpriteIndex: 6
      m_TileMatrixIndex: 0
      m_TileColorIndex: 0
      m_TileObjectToInstantiateIndex: 65535
      dummyAlignment: 0
      m_AllTileFlags: 1073741825
  - first: {x: 5, y: -4, z: 0}
    second:
      serializedVersion: 2
      m_TileIndex: 7
      m_TileSpriteIndex: 7
      m_TileMatrixIndex: 0
      m_TileColorIndex: 0
      m_TileObjectToInstantiateIndex: 65535
      dummyAlignment: 0
      m_AllTileFlags: 1073741825
  - first: {x: 7, y: -4, z: 0}
    second:
      serializedVersion: 2
      m_TileIndex: 43
      m_TileSpriteIndex: 8
      m_TileMatrixIndex: 0
      m_TileColorIndex: 0
      m_TileObjectToInstantiateIndex: 65535
      dummyAlignment: 0
      m_AllTileFlags: 1073741825
  - first: {x: 8, y: -4, z: 0}
    second:
      serializedVersion: 2
      m_TileIndex: 42
      m_TileSpriteIndex: 9
      m_TileMatrixIndex: 0
      m_TileColorIndex: 0
      m_TileObjectToInstantiateIndex: 65535
      dummyAlignment: 0
      m_AllTileFlags: 1073741825
  - first: {x: -2, y: -3, z: 0}
    second:
      serializedVersion: 2
      m_TileIndex: 35
      m_TileSpriteIndex: 10
      m_TileMatrixIndex: 0
      m_TileColorIndex: 0
      m_TileObjectToInstantiateIndex: 65535
      dummyAlignment: 0
      m_AllTileFlags: 1073741825
  - first: {x: -1, y: -3, z: 0}
    second:
      serializedVersion: 2
      m_TileIndex: 41
      m_TileSpriteIndex: 11
      m_TileMatrixIndex: 0
      m_TileColorIndex: 0
      m_TileObjectToInstantiateIndex: 65535
      dummyAlignment: 0
      m_AllTileFlags: 1073741825
  - first: {x: 0, y: -3, z: 0}
    second:
      serializedVersion: 2
      m_TileIndex: 36
      m_TileSpriteIndex: 12
      m_TileMatrixIndex: 0
      m_TileColorIndex: 0
      m_TileObjectToInstantiateIndex: 65535
      dummyAlignment: 0
      m_AllTileFlags: 1073741825
  - first: {x: 3, y: -3, z: 0}
    second:
      serializedVersion: 2
      m_TileIndex: 6
      m_TileSpriteIndex: 13
      m_TileMatrixIndex: 0
      m_TileColorIndex: 0
      m_TileObjectToInstantiateIndex: 65535
      dummyAlignment: 0
      m_AllTileFlags: 1073741825
  - first: {x: 4, y: -3, z: 0}
    second:
      serializedVersion: 2
      m_TileIndex: 5
      m_TileSpriteIndex: 14
      m_TileMatrixIndex: 0
      m_TileColorIndex: 0
      m_TileObjectToInstantiateIndex: 65535
      dummyAlignment: 0
      m_AllTileFlags: 1073741825
  - first: {x: 7, y: -3, z: 0}
    second:
      serializedVersion: 2
      m_TileIndex: 38
      m_TileSpriteIndex: 15
      m_TileMatrixIndex: 0
      m_TileColorIndex: 0
      m_TileObjectToInstantiateIndex: 65535
      dummyAlignment: 0
      m_AllTileFlags: 1073741825
  - first: {x: 8, y: -3, z: 0}
    second:
      serializedVersion: 2
      m_TileIndex: 37
      m_TileSpriteIndex: 16
      m_TileMatrixIndex: 0
      m_TileColorIndex: 0
      m_TileObjectToInstantiateIndex: 65535
      dummyAlignment: 0
      m_AllTileFlags: 1073741825
  - first: {x: -2, y: -2, z: 0}
    second:
      serializedVersion: 2
      m_TileIndex: 29
      m_TileSpriteIndex: 20
      m_TileMatrixIndex: 0
      m_TileColorIndex: 0
      m_TileObjectToInstantiateIndex: 65535
      dummyAlignment: 0
      m_AllTileFlags: 1073741825
  - first: {x: -1, y: -2, z: 0}
    second:
      serializedVersion: 2
      m_TileIndex: 14
      m_TileSpriteIndex: 21
      m_TileMatrixIndex: 0
      m_TileColorIndex: 0
      m_TileObjectToInstantiateIndex: 65535
      dummyAlignment: 0
      m_AllTileFlags: 1073741825
  - first: {x: 0, y: -2, z: 0}
    second:
      serializedVersion: 2
      m_TileIndex: 30
      m_TileSpriteIndex: 22
      m_TileMatrixIndex: 0
      m_TileColorIndex: 0
      m_TileObjectToInstantiateIndex: 65535
      dummyAlignment: 0
      m_AllTileFlags: 1073741825
  - first: {x: 7, y: -2, z: 0}
    second:
      serializedVersion: 2
      m_TileIndex: 32
      m_TileSpriteIndex: 23
      m_TileMatrixIndex: 0
      m_TileColorIndex: 0
      m_TileObjectToInstantiateIndex: 65535
      dummyAlignment: 0
      m_AllTileFlags: 1073741825
  - first: {x: 8, y: -2, z: 0}
    second:
      serializedVersion: 2
      m_TileIndex: 31
      m_TileSpriteIndex: 24
      m_TileMatrixIndex: 0
      m_TileColorIndex: 0
      m_TileObjectToInstantiateIndex: 65535
      dummyAlignment: 0
      m_AllTileFlags: 1073741825
  - first: {x: -2, y: -1, z: 0}
    second:
      serializedVersion: 2
      m_TileIndex: 24
      m_TileSpriteIndex: 28
      m_TileMatrixIndex: 0
      m_TileColorIndex: 0
      m_TileObjectToInstantiateIndex: 65535
      dummyAlignment: 0
      m_AllTileFlags: 1073741825
  - first: {x: -1, y: -1, z: 0}
    second:
      serializedVersion: 2
      m_TileIndex: 23
      m_TileSpriteIndex: 29
      m_TileMatrixIndex: 0
      m_TileColorIndex: 0
      m_TileObjectToInstantiateIndex: 65535
      dummyAlignment: 0
      m_AllTileFlags: 1073741825
  - first: {x: 0, y: -1, z: 0}
    second:
      serializedVersion: 2
      m_TileIndex: 25
      m_TileSpriteIndex: 30
      m_TileMatrixIndex: 0
      m_TileColorIndex: 0
      m_TileObjectToInstantiateIndex: 65535
      dummyAlignment: 0
      m_AllTileFlags: 1073741825
  - first: {x: 7, y: -1, z: 0}
    second:
      serializedVersion: 2
      m_TileIndex: 27
      m_TileSpriteIndex: 31
      m_TileMatrixIndex: 0
      m_TileColorIndex: 0
      m_TileObjectToInstantiateIndex: 65535
      dummyAlignment: 0
      m_AllTileFlags: 1073741825
  - first: {x: 8, y: -1, z: 0}
    second:
      serializedVersion: 2
      m_TileIndex: 26
      m_TileSpriteIndex: 32
      m_TileMatrixIndex: 0
      m_TileColorIndex: 0
      m_TileObjectToInstantiateIndex: 65535
      dummyAlignment: 0
      m_AllTileFlags: 1073741825
  - first: {x: 20, y: -1, z: 0}
    second:
      serializedVersion: 2
      m_TileIndex: 120
      m_TileSpriteIndex: 19
      m_TileMatrixIndex: 0
      m_TileColorIndex: 0
      m_TileObjectToInstantiateIndex: 65535
      dummyAlignment: 0
      m_AllTileFlags: 1073741825
  - first: {x: 2, y: 0, z: 0}
    second:
      serializedVersion: 2
      m_TileIndex: 40
      m_TileSpriteIndex: 37
      m_TileMatrixIndex: 0
      m_TileColorIndex: 0
      m_TileObjectToInstantiateIndex: 65535
      dummyAlignment: 0
      m_AllTileFlags: 1073741825
  - first: {x: 3, y: 0, z: 0}
    second:
      serializedVersion: 2
      m_TileIndex: 39
      m_TileSpriteIndex: 38
      m_TileMatrixIndex: 0
      m_TileColorIndex: 0
      m_TileObjectToInstantiateIndex: 65535
      dummyAlignment: 0
      m_AllTileFlags: 1073741825
  - first: {x: 5, y: 0, z: 0}
    second:
      serializedVersion: 2
      m_TileIndex: 28
      m_TileSpriteIndex: 39
      m_TileMatrixIndex: 0
      m_TileColorIndex: 0
      m_TileObjectToInstantiateIndex: 65535
      dummyAlignment: 0
      m_AllTileFlags: 1073741825
  - first: {x: 7, y: 0, z: 0}
    second:
      serializedVersion: 2
      m_TileIndex: 20
      m_TileSpriteIndex: 40
      m_TileMatrixIndex: 0
      m_TileColorIndex: 0
      m_TileObjectToInstantiateIndex: 65535
      dummyAlignment: 0
      m_AllTileFlags: 1073741825
  - first: {x: 8, y: 0, z: 0}
    second:
      serializedVersion: 2
      m_TileIndex: 21
      m_TileSpriteIndex: 41
      m_TileMatrixIndex: 0
      m_TileColorIndex: 0
      m_TileObjectToInstantiateIndex: 65535
      dummyAlignment: 0
      m_AllTileFlags: 1073741825
  - first: {x: 20, y: 0, z: 0}
    second:
      serializedVersion: 2
      m_TileIndex: 118
      m_TileSpriteIndex: 17
      m_TileMatrixIndex: 0
      m_TileColorIndex: 0
      m_TileObjectToInstantiateIndex: 65535
      dummyAlignment: 0
      m_AllTileFlags: 1073741825
  - first: {x: -2, y: 1, z: 0}
    second:
      serializedVersion: 2
      m_TileIndex: 18
      m_TileSpriteIndex: 44
      m_TileMatrixIndex: 0
      m_TileColorIndex: 0
      m_TileObjectToInstantiateIndex: 65535
      dummyAlignment: 0
      m_AllTileFlags: 1073741825
  - first: {x: 0, y: 1, z: 0}
    second:
      serializedVersion: 2
      m_TileIndex: 19
      m_TileSpriteIndex: 45
      m_TileMatrixIndex: 0
      m_TileColorIndex: 0
      m_TileObjectToInstantiateIndex: 65535
      dummyAlignment: 0
      m_AllTileFlags: 1073741825
  - first: {x: 2, y: 1, z: 0}
    second:
      serializedVersion: 2
      m_TileIndex: 34
      m_TileSpriteIndex: 46
      m_TileMatrixIndex: 0
      m_TileColorIndex: 0
      m_TileObjectToInstantiateIndex: 65535
      dummyAlignment: 0
      m_AllTileFlags: 1073741825
  - first: {x: 3, y: 1, z: 0}
    second:
      serializedVersion: 2
      m_TileIndex: 33
      m_TileSpriteIndex: 47
      m_TileMatrixIndex: 0
      m_TileColorIndex: 0
      m_TileObjectToInstantiateIndex: 65535
      dummyAlignment: 0
      m_AllTileFlags: 1073741825
  - first: {x: 5, y: 1, z: 0}
    second:
      serializedVersion: 2
      m_TileIndex: 22
      m_TileSpriteIndex: 48
      m_TileMatrixIndex: 0
      m_TileColorIndex: 0
      m_TileObjectToInstantiateIndex: 65535
      dummyAlignment: 0
      m_AllTileFlags: 1073741825
  - first: {x: 20, y: 1, z: 0}
    second:
      serializedVersion: 2
      m_TileIndex: 109
      m_TileSpriteIndex: 42
      m_TileMatrixIndex: 0
      m_TileColorIndex: 0
      m_TileObjectToInstantiateIndex: 65535
      dummyAlignment: 0
      m_AllTileFlags: 1073741825
  - first: {x: -2, y: 2, z: 0}
    second:
      serializedVersion: 2
      m_TileIndex: 0
      m_TileSpriteIndex: 49
      m_TileMatrixIndex: 0
      m_TileColorIndex: 0
      m_TileObjectToInstantiateIndex: 65535
      dummyAlignment: 0
      m_AllTileFlags: 1073741825
  - first: {x: 0, y: 2, z: 0}
    second:
      serializedVersion: 2
      m_TileIndex: 1
      m_TileSpriteIndex: 50
      m_TileMatrixIndex: 0
      m_TileColorIndex: 0
      m_TileObjectToInstantiateIndex: 65535
      dummyAlignment: 0
      m_AllTileFlags: 1073741825
  - first: {x: 2, y: 3, z: 0}
    second:
      serializedVersion: 2
      m_TileIndex: 2
      m_TileSpriteIndex: 51
      m_TileMatrixIndex: 0
      m_TileColorIndex: 0
      m_TileObjectToInstantiateIndex: 65535
      dummyAlignment: 0
      m_AllTileFlags: 1073741825
  - first: {x: 4, y: 3, z: 0}
    second:
      serializedVersion: 2
      m_TileIndex: 4
      m_TileSpriteIndex: 52
      m_TileMatrixIndex: 0
      m_TileColorIndex: 0
      m_TileObjectToInstantiateIndex: 65535
      dummyAlignment: 0
      m_AllTileFlags: 1073741825
  - first: {x: 2, y: 4, z: 0}
    second:
      serializedVersion: 2
      m_TileIndex: 8
      m_TileSpriteIndex: 53
      m_TileMatrixIndex: 0
      m_TileColorIndex: 0
      m_TileObjectToInstantiateIndex: 65535
      dummyAlignment: 0
      m_AllTileFlags: 1073741825
  - first: {x: 3, y: 4, z: 0}
    second:
      serializedVersion: 2
      m_TileIndex: 3
      m_TileSpriteIndex: 54
      m_TileMatrixIndex: 0
      m_TileColorIndex: 0
      m_TileObjectToInstantiateIndex: 65535
      dummyAlignment: 0
      m_AllTileFlags: 1073741825
  - first: {x: 4, y: 4, z: 0}
    second:
      serializedVersion: 2
      m_TileIndex: 9
      m_TileSpriteIndex: 55
      m_TileMatrixIndex: 0
      m_TileColorIndex: 0
      m_TileObjectToInstantiateIndex: 65535
      dummyAlignment: 0
      m_AllTileFlags: 1073741825
  - first: {x: 5, y: 5, z: 0}
    second:
      serializedVersion: 2
      m_TileIndex: 106
      m_TileSpriteIndex: 56
      m_TileMatrixIndex: 1
      m_TileColorIndex: 0
      m_TileObjectToInstantiateIndex: 65535
      dummyAlignment: 0
      m_AllTileFlags: 1073741825
  - first: {x: 6, y: 5, z: 0}
    second:
      serializedVersion: 2
      m_TileIndex: 77
      m_TileSpriteIndex: 57
      m_TileMatrixIndex: 1
      m_TileColorIndex: 0
      m_TileObjectToInstantiateIndex: 65535
      dummyAlignment: 0
      m_AllTileFlags: 1073741825
  - first: {x: 7, y: 5, z: 0}
    second:
      serializedVersion: 2
      m_TileIndex: 107
      m_TileSpriteIndex: 58
      m_TileMatrixIndex: 1
      m_TileColorIndex: 0
      m_TileObjectToInstantiateIndex: 65535
      dummyAlignment: 0
      m_AllTileFlags: 1073741825
  - first: {x: 8, y: 5, z: 0}
    second:
      serializedVersion: 2
      m_TileIndex: 108
      m_TileSpriteIndex: 59
      m_TileMatrixIndex: 1
      m_TileColorIndex: 0
      m_TileObjectToInstantiateIndex: 65535
      dummyAlignment: 0
      m_AllTileFlags: 1073741825
  - first: {x: 9, y: 5, z: 0}
    second:
      serializedVersion: 2
      m_TileIndex: 78
      m_TileSpriteIndex: 60
      m_TileMatrixIndex: 1
      m_TileColorIndex: 0
      m_TileObjectToInstantiateIndex: 65535
      dummyAlignment: 0
      m_AllTileFlags: 1073741825
  - first: {x: 10, y: 5, z: 0}
    second:
      serializedVersion: 2
      m_TileIndex: 79
      m_TileSpriteIndex: 61
      m_TileMatrixIndex: 1
      m_TileColorIndex: 0
      m_TileObjectToInstantiateIndex: 65535
      dummyAlignment: 0
      m_AllTileFlags: 1073741825
  - first: {x: -1, y: 6, z: 0}
    second:
      serializedVersion: 2
      m_TileIndex: 55
      m_TileSpriteIndex: 62
      m_TileMatrixIndex: 0
      m_TileColorIndex: 0
      m_TileObjectToInstantiateIndex: 65535
      dummyAlignment: 0
      m_AllTileFlags: 1073741825
  - first: {x: 5, y: 6, z: 0}
    second:
      serializedVersion: 2
      m_TileIndex: 105
      m_TileSpriteIndex: 63
      m_TileMatrixIndex: 1
      m_TileColorIndex: 0
      m_TileObjectToInstantiateIndex: 65535
      dummyAlignment: 0
      m_AllTileFlags: 1073741825
  - first: {x: 6, y: 6, z: 0}
    second:
      serializedVersion: 2
      m_TileIndex: 70
      m_TileSpriteIndex: 64
      m_TileMatrixIndex: 1
      m_TileColorIndex: 0
      m_TileObjectToInstantiateIndex: 65535
      dummyAlignment: 0
      m_AllTileFlags: 1073741825
  - first: {x: 7, y: 6, z: 0}
    second:
      serializedVersion: 2
      m_TileIndex: 71
      m_TileSpriteIndex: 65
      m_TileMatrixIndex: 1
      m_TileColorIndex: 0
      m_TileObjectToInstantiateIndex: 65535
      dummyAlignment: 0
      m_AllTileFlags: 1073741825
  - first: {x: 8, y: 6, z: 0}
    second:
      serializedVersion: 2
      m_TileIndex: 72
      m_TileSpriteIndex: 66
      m_TileMatrixIndex: 1
      m_TileColorIndex: 0
      m_TileObjectToInstantiateIndex: 65535
      dummyAlignment: 0
      m_AllTileFlags: 1073741825
  - first: {x: 9, y: 6, z: 0}
    second:
      serializedVersion: 2
      m_TileIndex: 73
      m_TileSpriteIndex: 67
      m_TileMatrixIndex: 1
      m_TileColorIndex: 0
      m_TileObjectToInstantiateIndex: 65535
      dummyAlignment: 0
      m_AllTileFlags: 1073741825
  - first: {x: 10, y: 6, z: 0}
    second:
      serializedVersion: 2
      m_TileIndex: 74
      m_TileSpriteIndex: 68
      m_TileMatrixIndex: 1
      m_TileColorIndex: 0
      m_TileObjectToInstantiateIndex: 65535
      dummyAlignment: 0
      m_AllTileFlags: 1073741825
  - first: {x: 11, y: 6, z: 0}
    second:
      serializedVersion: 2
      m_TileIndex: 75
      m_TileSpriteIndex: 69
      m_TileMatrixIndex: 1
      m_TileColorIndex: 0
      m_TileObjectToInstantiateIndex: 65535
      dummyAlignment: 0
      m_AllTileFlags: 1073741825
  - first: {x: 12, y: 6, z: 0}
    second:
      serializedVersion: 2
      m_TileIndex: 76
      m_TileSpriteIndex: 70
      m_TileMatrixIndex: 1
      m_TileColorIndex: 0
      m_TileObjectToInstantiateIndex: 65535
      dummyAlignment: 0
      m_AllTileFlags: 1073741825
  - first: {x: 5, y: 7, z: 0}
    second:
      serializedVersion: 2
      m_TileIndex: 99
      m_TileSpriteIndex: 71
      m_TileMatrixIndex: 1
      m_TileColorIndex: 0
      m_TileObjectToInstantiateIndex: 65535
      dummyAlignment: 0
      m_AllTileFlags: 1073741825
  - first: {x: 6, y: 7, z: 0}
    second:
      serializedVersion: 2
      m_TileIndex: 100
      m_TileSpriteIndex: 72
      m_TileMatrixIndex: 1
      m_TileColorIndex: 0
      m_TileObjectToInstantiateIndex: 65535
      dummyAlignment: 0
      m_AllTileFlags: 1073741825
  - first: {x: 7, y: 7, z: 0}
    second:
      serializedVersion: 2
      m_TileIndex: 68
      m_TileSpriteIndex: 73
      m_TileMatrixIndex: 1
      m_TileColorIndex: 0
      m_TileObjectToInstantiateIndex: 65535
      dummyAlignment: 0
      m_AllTileFlags: 1073741825
  - first: {x: 8, y: 7, z: 0}
    second:
      serializedVersion: 2
      m_TileIndex: 101
      m_TileSpriteIndex: 74
      m_TileMatrixIndex: 1
      m_TileColorIndex: 0
      m_TileObjectToInstantiateIndex: 65535
      dummyAlignment: 0
      m_AllTileFlags: 1073741825
  - first: {x: 9, y: 7, z: 0}
    second:
      serializedVersion: 2
      m_TileIndex: 69
      m_TileSpriteIndex: 75
      m_TileMatrixIndex: 1
      m_TileColorIndex: 0
      m_TileObjectToInstantiateIndex: 65535
      dummyAlignment: 0
      m_AllTileFlags: 1073741825
  - first: {x: 10, y: 7, z: 0}
    second:
      serializedVersion: 2
      m_TileIndex: 102
      m_TileSpriteIndex: 76
      m_TileMatrixIndex: 1
      m_TileColorIndex: 0
      m_TileObjectToInstantiateIndex: 65535
      dummyAlignment: 0
      m_AllTileFlags: 1073741825
  - first: {x: 11, y: 7, z: 0}
    second:
      serializedVersion: 2
      m_TileIndex: 103
      m_TileSpriteIndex: 77
      m_TileMatrixIndex: 1
      m_TileColorIndex: 0
      m_TileObjectToInstantiateIndex: 65535
      dummyAlignment: 0
      m_AllTileFlags: 1073741825
  - first: {x: 12, y: 7, z: 0}
    second:
      serializedVersion: 2
      m_TileIndex: 104
      m_TileSpriteIndex: 78
      m_TileMatrixIndex: 1
      m_TileColorIndex: 0
      m_TileObjectToInstantiateIndex: 65535
      dummyAlignment: 0
      m_AllTileFlags: 1073741825
  - first: {x: -1, y: 8, z: 0}
    second:
      serializedVersion: 2
      m_TileIndex: 51
      m_TileSpriteIndex: 79
      m_TileMatrixIndex: 0
      m_TileColorIndex: 0
      m_TileObjectToInstantiateIndex: 65535
      dummyAlignment: 0
      m_AllTileFlags: 1073741825
  - first: {x: 5, y: 8, z: 0}
    second:
      serializedVersion: 2
      m_TileIndex: 96
      m_TileSpriteIndex: 80
      m_TileMatrixIndex: 1
      m_TileColorIndex: 0
      m_TileObjectToInstantiateIndex: 65535
      dummyAlignment: 0
      m_AllTileFlags: 1073741825
  - first: {x: 6, y: 8, z: 0}
    second:
      serializedVersion: 2
      m_TileIndex: 97
      m_TileSpriteIndex: 81
      m_TileMatrixIndex: 1
      m_TileColorIndex: 0
      m_TileObjectToInstantiateIndex: 65535
      dummyAlignment: 0
      m_AllTileFlags: 1073741825
  - first: {x: 7, y: 8, z: 0}
    second:
      serializedVersion: 2
      m_TileIndex: 98
      m_TileSpriteIndex: 82
      m_TileMatrixIndex: 1
      m_TileColorIndex: 0
      m_TileObjectToInstantiateIndex: 65535
      dummyAlignment: 0
      m_AllTileFlags: 1073741825
  - first: {x: 8, y: 8, z: 0}
    second:
      serializedVersion: 2
      m_TileIndex: 63
      m_TileSpriteIndex: 83
      m_TileMatrixIndex: 1
      m_TileColorIndex: 0
      m_TileObjectToInstantiateIndex: 65535
      dummyAlignment: 0
      m_AllTileFlags: 1073741825
  - first: {x: 9, y: 8, z: 0}
    second:
      serializedVersion: 2
      m_TileIndex: 64
      m_TileSpriteIndex: 84
      m_TileMatrixIndex: 1
      m_TileColorIndex: 0
      m_TileObjectToInstantiateIndex: 65535
      dummyAlignment: 0
      m_AllTileFlags: 1073741825
  - first: {x: 10, y: 8, z: 0}
    second:
      serializedVersion: 2
      m_TileIndex: 65
      m_TileSpriteIndex: 85
      m_TileMatrixIndex: 1
      m_TileColorIndex: 0
      m_TileObjectToInstantiateIndex: 65535
      dummyAlignment: 0
      m_AllTileFlags: 1073741825
  - first: {x: 11, y: 8, z: 0}
    second:
      serializedVersion: 2
      m_TileIndex: 66
      m_TileSpriteIndex: 86
      m_TileMatrixIndex: 1
      m_TileColorIndex: 0
      m_TileObjectToInstantiateIndex: 65535
      dummyAlignment: 0
      m_AllTileFlags: 1073741825
  - first: {x: 12, y: 8, z: 0}
    second:
      serializedVersion: 2
      m_TileIndex: 67
      m_TileSpriteIndex: 87
      m_TileMatrixIndex: 1
      m_TileColorIndex: 0
      m_TileObjectToInstantiateIndex: 65535
      dummyAlignment: 0
      m_AllTileFlags: 1073741825
  - first: {x: 5, y: 9, z: 0}
    second:
      serializedVersion: 2
      m_TileIndex: 91
      m_TileSpriteIndex: 88
      m_TileMatrixIndex: 1
      m_TileColorIndex: 0
      m_TileObjectToInstantiateIndex: 65535
      dummyAlignment: 0
      m_AllTileFlags: 1073741825
  - first: {x: 6, y: 9, z: 0}
    second:
      serializedVersion: 2
      m_TileIndex: 92
      m_TileSpriteIndex: 89
      m_TileMatrixIndex: 1
      m_TileColorIndex: 0
      m_TileObjectToInstantiateIndex: 65535
      dummyAlignment: 0
      m_AllTileFlags: 1073741825
  - first: {x: 7, y: 9, z: 0}
    second:
      serializedVersion: 2
      m_TileIndex: 93
      m_TileSpriteIndex: 90
      m_TileMatrixIndex: 1
      m_TileColorIndex: 0
      m_TileObjectToInstantiateIndex: 65535
      dummyAlignment: 0
      m_AllTileFlags: 1073741825
  - first: {x: 8, y: 9, z: 0}
    second:
      serializedVersion: 2
      m_TileIndex: 60
      m_TileSpriteIndex: 91
      m_TileMatrixIndex: 1
      m_TileColorIndex: 0
      m_TileObjectToInstantiateIndex: 65535
      dummyAlignment: 0
      m_AllTileFlags: 1073741825
  - first: {x: 9, y: 9, z: 0}
    second:
      serializedVersion: 2
      m_TileIndex: 61
      m_TileSpriteIndex: 92
      m_TileMatrixIndex: 1
      m_TileColorIndex: 0
      m_TileObjectToInstantiateIndex: 65535
      dummyAlignment: 0
      m_AllTileFlags: 1073741825
  - first: {x: 10, y: 9, z: 0}
    second:
      serializedVersion: 2
      m_TileIndex: 62
      m_TileSpriteIndex: 93
      m_TileMatrixIndex: 1
      m_TileColorIndex: 0
      m_TileObjectToInstantiateIndex: 65535
      dummyAlignment: 0
      m_AllTileFlags: 1073741825
  - first: {x: 11, y: 9, z: 0}
    second:
      serializedVersion: 2
      m_TileIndex: 94
      m_TileSpriteIndex: 94
      m_TileMatrixIndex: 1
      m_TileColorIndex: 0
      m_TileObjectToInstantiateIndex: 65535
      dummyAlignment: 0
      m_AllTileFlags: 1073741825
  - first: {x: 12, y: 9, z: 0}
    second:
      serializedVersion: 2
      m_TileIndex: 95
      m_TileSpriteIndex: 95
      m_TileMatrixIndex: 1
      m_TileColorIndex: 0
      m_TileObjectToInstantiateIndex: 65535
      dummyAlignment: 0
      m_AllTileFlags: 1073741825
  - first: {x: -1, y: 10, z: 0}
    second:
      serializedVersion: 2
      m_TileIndex: 44
      m_TileSpriteIndex: 96
      m_TileMatrixIndex: 0
      m_TileColorIndex: 0
      m_TileObjectToInstantiateIndex: 65535
      dummyAlignment: 0
      m_AllTileFlags: 1073741825
  - first: {x: 5, y: 10, z: 0}
    second:
      serializedVersion: 2
      m_TileIndex: 87
      m_TileSpriteIndex: 97
      m_TileMatrixIndex: 1
      m_TileColorIndex: 0
      m_TileObjectToInstantiateIndex: 65535
      dummyAlignment: 0
      m_AllTileFlags: 1073741825
  - first: {x: 6, y: 10, z: 0}
    second:
      serializedVersion: 2
      m_TileIndex: 88
      m_TileSpriteIndex: 98
      m_TileMatrixIndex: 1
      m_TileColorIndex: 0
      m_TileObjectToInstantiateIndex: 65535
      dummyAlignment: 0
      m_AllTileFlags: 1073741825
  - first: {x: 7, y: 10, z: 0}
    second:
      serializedVersion: 2
      m_TileIndex: 89
      m_TileSpriteIndex: 99
      m_TileMatrixIndex: 1
      m_TileColorIndex: 0
      m_TileObjectToInstantiateIndex: 65535
      dummyAlignment: 0
      m_AllTileFlags: 1073741825
  - first: {x: 8, y: 10, z: 0}
    second:
      serializedVersion: 2
      m_TileIndex: 56
      m_TileSpriteIndex: 100
      m_TileMatrixIndex: 1
      m_TileColorIndex: 0
      m_TileObjectToInstantiateIndex: 65535
      dummyAlignment: 0
      m_AllTileFlags: 1073741825
  - first: {x: 9, y: 10, z: 0}
    second:
      serializedVersion: 2
      m_TileIndex: 57
      m_TileSpriteIndex: 101
      m_TileMatrixIndex: 1
      m_TileColorIndex: 0
      m_TileObjectToInstantiateIndex: 65535
      dummyAlignment: 0
      m_AllTileFlags: 1073741825
  - first: {x: 10, y: 10, z: 0}
    second:
      serializedVersion: 2
      m_TileIndex: 58
      m_TileSpriteIndex: 102
      m_TileMatrixIndex: 1
      m_TileColorIndex: 0
      m_TileObjectToInstantiateIndex: 65535
      dummyAlignment: 0
      m_AllTileFlags: 1073741825
  - first: {x: 11, y: 10, z: 0}
    second:
      serializedVersion: 2
      m_TileIndex: 90
      m_TileSpriteIndex: 103
      m_TileMatrixIndex: 1
      m_TileColorIndex: 0
      m_TileObjectToInstantiateIndex: 65535
      dummyAlignment: 0
      m_AllTileFlags: 1073741825
  - first: {x: 12, y: 10, z: 0}
    second:
      serializedVersion: 2
      m_TileIndex: 59
      m_TileSpriteIndex: 104
      m_TileMatrixIndex: 1
      m_TileColorIndex: 0
      m_TileObjectToInstantiateIndex: 65535
      dummyAlignment: 0
      m_AllTileFlags: 1073741825
  - first: {x: 5, y: 11, z: 0}
    second:
      serializedVersion: 2
      m_TileIndex: 45
      m_TileSpriteIndex: 105
      m_TileMatrixIndex: 1
      m_TileColorIndex: 0
      m_TileObjectToInstantiateIndex: 65535
      dummyAlignment: 0
      m_AllTileFlags: 1073741825
  - first: {x: 6, y: 11, z: 0}
    second:
      serializedVersion: 2
      m_TileIndex: 80
      m_TileSpriteIndex: 106
      m_TileMatrixIndex: 1
      m_TileColorIndex: 0
      m_TileObjectToInstantiateIndex: 65535
      dummyAlignment: 0
      m_AllTileFlags: 1073741825
  - first: {x: 7, y: 11, z: 0}
    second:
      serializedVersion: 2
      m_TileIndex: 81
      m_TileSpriteIndex: 107
      m_TileMatrixIndex: 1
      m_TileColorIndex: 0
      m_TileObjectToInstantiateIndex: 65535
      dummyAlignment: 0
      m_AllTileFlags: 1073741825
  - first: {x: 8, y: 11, z: 0}
    second:
      serializedVersion: 2
      m_TileIndex: 82
      m_TileSpriteIndex: 108
      m_TileMatrixIndex: 1
      m_TileColorIndex: 0
      m_TileObjectToInstantiateIndex: 65535
      dummyAlignment: 0
      m_AllTileFlags: 1073741825
  - first: {x: 9, y: 11, z: 0}
    second:
      serializedVersion: 2
      m_TileIndex: 83
      m_TileSpriteIndex: 109
      m_TileMatrixIndex: 1
      m_TileColorIndex: 0
      m_TileObjectToInstantiateIndex: 65535
      dummyAlignment: 0
      m_AllTileFlags: 1073741825
  - first: {x: 10, y: 11, z: 0}
    second:
      serializedVersion: 2
      m_TileIndex: 84
      m_TileSpriteIndex: 110
      m_TileMatrixIndex: 1
      m_TileColorIndex: 0
      m_TileObjectToInstantiateIndex: 65535
      dummyAlignment: 0
      m_AllTileFlags: 1073741825
  - first: {x: 11, y: 11, z: 0}
    second:
      serializedVersion: 2
      m_TileIndex: 85
      m_TileSpriteIndex: 111
      m_TileMatrixIndex: 1
      m_TileColorIndex: 0
      m_TileObjectToInstantiateIndex: 65535
      dummyAlignment: 0
      m_AllTileFlags: 1073741825
  - first: {x: 12, y: 11, z: 0}
    second:
      serializedVersion: 2
      m_TileIndex: 86
      m_TileSpriteIndex: 112
      m_TileMatrixIndex: 1
      m_TileColorIndex: 0
      m_TileObjectToInstantiateIndex: 65535
      dummyAlignment: 0
      m_AllTileFlags: 1073741825
  - first: {x: 5, y: 12, z: 0}
    second:
      serializedVersion: 2
      m_TileIndex: 54
      m_TileSpriteIndex: 113
      m_TileMatrixIndex: 1
      m_TileColorIndex: 0
      m_TileObjectToInstantiateIndex: 65535
      dummyAlignment: 0
      m_AllTileFlags: 1073741825
  - first: {x: 6, y: 12, z: 0}
    second:
      serializedVersion: 2
      m_TileIndex: 53
      m_TileSpriteIndex: 114
      m_TileMatrixIndex: 1
      m_TileColorIndex: 0
      m_TileObjectToInstantiateIndex: 65535
      dummyAlignment: 0
      m_AllTileFlags: 1073741825
  - first: {x: 7, y: 12, z: 0}
    second:
      serializedVersion: 2
      m_TileIndex: 52
      m_TileSpriteIndex: 115
      m_TileMatrixIndex: 1
      m_TileColorIndex: 0
      m_TileObjectToInstantiateIndex: 65535
      dummyAlignment: 0
      m_AllTileFlags: 1073741825
  - first: {x: 8, y: 12, z: 0}
    second:
      serializedVersion: 2
      m_TileIndex: 50
      m_TileSpriteIndex: 116
      m_TileMatrixIndex: 1
      m_TileColorIndex: 0
      m_TileObjectToInstantiateIndex: 65535
      dummyAlignment: 0
      m_AllTileFlags: 1073741825
  - first: {x: 9, y: 12, z: 0}
    second:
      serializedVersion: 2
      m_TileIndex: 49
      m_TileSpriteIndex: 117
      m_TileMatrixIndex: 1
      m_TileColorIndex: 0
      m_TileObjectToInstantiateIndex: 65535
      dummyAlignment: 0
      m_AllTileFlags: 1073741825
  - first: {x: 10, y: 12, z: 0}
    second:
      serializedVersion: 2
      m_TileIndex: 48
      m_TileSpriteIndex: 4294967295
      m_TileMatrixIndex: 0
      m_TileColorIndex: 0
      m_TileObjectToInstantiateIndex: 65535
      dummyAlignment: 0
      m_AllTileFlags: 1073741825
  - first: {x: 11, y: 12, z: 0}
    second:
      serializedVersion: 2
      m_TileIndex: 47
      m_TileSpriteIndex: 118
      m_TileMatrixIndex: 1
      m_TileColorIndex: 0
      m_TileObjectToInstantiateIndex: 65535
      dummyAlignment: 0
      m_AllTileFlags: 1073741825
  - first: {x: 12, y: 12, z: 0}
    second:
      serializedVersion: 2
      m_TileIndex: 46
      m_TileSpriteIndex: 4294967295
      m_TileMatrixIndex: 0
      m_TileColorIndex: 0
      m_TileObjectToInstantiateIndex: 65535
      dummyAlignment: 0
      m_AllTileFlags: 1073741825
  m_AnimatedTiles: {}
  m_TileAssetArray:
  - m_RefCount: 1
    m_Data: {fileID: 11400000, guid: 8c8d6a5bc1838ad4494ce03b22f4cda4, type: 2}
  - m_RefCount: 1
    m_Data: {fileID: 11400000, guid: 784e1c9f2788fb441a2b0d5040e222db, type: 2}
  - m_RefCount: 1
    m_Data: {fileID: 11400000, guid: be48366bffe220343bab9521dd8843e0, type: 2}
  - m_RefCount: 1
    m_Data: {fileID: 11400000, guid: 8e4460151a8283245b602bf967db527e, type: 2}
  - m_RefCount: 1
    m_Data: {fileID: 11400000, guid: 022f543755803014db310beb6a15db1b, type: 2}
  - m_RefCount: 1
    m_Data: {fileID: 11400000, guid: 41d7bc9a5435bde4484d434b60717f42, type: 2}
  - m_RefCount: 1
    m_Data: {fileID: 11400000, guid: c09e74516ddfcb742873279d0e33f3db, type: 2}
  - m_RefCount: 1
    m_Data: {fileID: 11400000, guid: dd1d5745db570fd4dbf21d12e77270ef, type: 2}
  - m_RefCount: 1
    m_Data: {fileID: 11400000, guid: 7c28c1fd1334e064a95001be3a60ac0c, type: 2}
  - m_RefCount: 1
    m_Data: {fileID: 11400000, guid: 4a5d9769bbeaf054aaa5b8452062e987, type: 2}
  - m_RefCount: 1
    m_Data: {fileID: 11400000, guid: f53345ccbe10b8a4eb0a6f921c497db5, type: 2}
  - m_RefCount: 1
    m_Data: {fileID: 11400000, guid: 79151709c97f9dc40aa59fe9f6707508, type: 2}
  - m_RefCount: 1
    m_Data: {fileID: 11400000, guid: 7431af489a0918b4abfcc138a19466f3, type: 2}
  - m_RefCount: 1
    m_Data: {fileID: 11400000, guid: 4b2324b357960c24a96ddf1ca7ad8c12, type: 2}
  - m_RefCount: 1
    m_Data: {fileID: 11400000, guid: 9f4a1d73f237ef646b44f964db8cd3b6, type: 2}
  - m_RefCount: 1
    m_Data: {fileID: 11400000, guid: 15256a898f7b28444aa96aabe3260c7a, type: 2}
  - m_RefCount: 1
    m_Data: {fileID: 11400000, guid: c5513099ef03a074795e0948fd780fea, type: 2}
  - m_RefCount: 1
    m_Data: {fileID: 11400000, guid: 60f664f890b51b845ac4e605c9e88e8d, type: 2}
  - m_RefCount: 1
    m_Data: {fileID: 11400000, guid: 7f44880b66a188a4aaf0e5db2a83e4f7, type: 2}
  - m_RefCount: 1
    m_Data: {fileID: 11400000, guid: 0e6622ffd5c23c54f891ca7c2b4d35b4, type: 2}
  - m_RefCount: 1
    m_Data: {fileID: 11400000, guid: 34feaadc549cf85468e072d2a70d2794, type: 2}
  - m_RefCount: 1
    m_Data: {fileID: 11400000, guid: ca5dabefa9c85e346b67368980e37522, type: 2}
  - m_RefCount: 1
    m_Data: {fileID: 11400000, guid: dd2593dd4df536d4b8b9a4a589cc69a4, type: 2}
  - m_RefCount: 1
    m_Data: {fileID: 11400000, guid: 0c1317110e7c90d409343b6dfa809292, type: 2}
  - m_RefCount: 1
    m_Data: {fileID: 11400000, guid: 0df925a112c42d240b02dff950e665da, type: 2}
  - m_RefCount: 1
    m_Data: {fileID: 11400000, guid: 50040b60f8177c64b99864d0bc3d00be, type: 2}
  - m_RefCount: 1
    m_Data: {fileID: 11400000, guid: 23809d28b4a298249821a56441095e1d, type: 2}
  - m_RefCount: 1
    m_Data: {fileID: 11400000, guid: 9e42dfb3897f6e7448c807d943e3d69f, type: 2}
  - m_RefCount: 1
    m_Data: {fileID: 11400000, guid: 188a54b10644e954bb6104448148be6b, type: 2}
  - m_RefCount: 1
    m_Data: {fileID: 11400000, guid: 459d601a60cc8c040aa75d996cc77d71, type: 2}
  - m_RefCount: 1
    m_Data: {fileID: 11400000, guid: 0a1d436adec6262479cbe7ff540e8f52, type: 2}
  - m_RefCount: 1
    m_Data: {fileID: 11400000, guid: 618a05c4e2e63504aab85c991f8f28fc, type: 2}
  - m_RefCount: 1
    m_Data: {fileID: 11400000, guid: c91caf4b462240543b187d6c26b53a15, type: 2}
  - m_RefCount: 1
    m_Data: {fileID: 11400000, guid: 8f0b08f06d6d7104cb766243e9df7348, type: 2}
  - m_RefCount: 1
    m_Data: {fileID: 11400000, guid: 209091850d012b742b4cb4648b687a68, type: 2}
  - m_RefCount: 1
    m_Data: {fileID: 11400000, guid: 35994d4bb200e4544914dd8f38451af6, type: 2}
  - m_RefCount: 1
    m_Data: {fileID: 11400000, guid: 209ef8e1f6292b0409ae8d5e959859bc, type: 2}
  - m_RefCount: 1
    m_Data: {fileID: 11400000, guid: 37355ecf279c41d40bd761805236eead, type: 2}
  - m_RefCount: 1
    m_Data: {fileID: 11400000, guid: 41a39adde40e0eb458fe0691f3b6339b, type: 2}
  - m_RefCount: 1
    m_Data: {fileID: 11400000, guid: 417aa7faddd1e6d40893858cb06ac986, type: 2}
  - m_RefCount: 1
    m_Data: {fileID: 11400000, guid: 744ef1e2a2504ee429887e13d9d5a300, type: 2}
  - m_RefCount: 1
    m_Data: {fileID: 11400000, guid: ac07e1d85ced9464396a9fa13ad4bfc1, type: 2}
  - m_RefCount: 1
    m_Data: {fileID: 11400000, guid: 23e8ce53cf99c004fa9b9b5dd171b1eb, type: 2}
  - m_RefCount: 1
    m_Data: {fileID: 11400000, guid: 5a5a1eeb8701b574592205795eed3909, type: 2}
  - m_RefCount: 1
    m_Data: {fileID: 11400000, guid: 5f2ac82220a4abb408dc2c6797b58162, type: 2}
  - m_RefCount: 1
    m_Data: {fileID: 11400000, guid: 99d9ad03440b1ba4aae40062cd418c7d, type: 2}
  - m_RefCount: 1
    m_Data: {fileID: 11400000, guid: be87923ed668e4544a0e99761a7df1c8, type: 2}
  - m_RefCount: 1
    m_Data: {fileID: 11400000, guid: b6115874cc3dbbb46bbc981dd6bc4e48, type: 2}
  - m_RefCount: 1
    m_Data: {fileID: 11400000, guid: 7f2988a167f84a344b3fed9b249d7e3a, type: 2}
  - m_RefCount: 1
    m_Data: {fileID: 11400000, guid: e3b367a526b635e419d717fc24b34653, type: 2}
  - m_RefCount: 1
    m_Data: {fileID: 11400000, guid: 85eb433daf0a69a4da396bb72d349a9e, type: 2}
  - m_RefCount: 1
    m_Data: {fileID: 11400000, guid: 321b864ccc3dc8147bb2653eb5739d18, type: 2}
  - m_RefCount: 1
    m_Data: {fileID: 11400000, guid: 52986b710b50804499283266064b938c, type: 2}
  - m_RefCount: 1
    m_Data: {fileID: 11400000, guid: bda9ef2a4f5a50442a4f840f30d5c2ea, type: 2}
  - m_RefCount: 1
    m_Data: {fileID: 11400000, guid: 293e29e0156307748a6458a582ae844f, type: 2}
  - m_RefCount: 1
    m_Data: {fileID: 11400000, guid: 775b87014ee60ec4cb16e8179ea73ca8, type: 2}
  - m_RefCount: 1
    m_Data: {fileID: 11400000, guid: 40467efa9b15bd746803b11b38338b53, type: 2}
  - m_RefCount: 1
    m_Data: {fileID: 11400000, guid: e421fb746dfe75e4f990b8b5de142f98, type: 2}
  - m_RefCount: 1
    m_Data: {fileID: 11400000, guid: 60525af88b1bba345bfb7548533214df, type: 2}
  - m_RefCount: 1
    m_Data: {fileID: 11400000, guid: 1e412ecc3ddfac045a421d5f1f44b41d, type: 2}
  - m_RefCount: 1
    m_Data: {fileID: 11400000, guid: 3e84b2e0d993b564fbaec652b5dd093f, type: 2}
  - m_RefCount: 1
    m_Data: {fileID: 11400000, guid: 7b0617488a4bb2f42ba3e94eb7ca1bd5, type: 2}
  - m_RefCount: 1
    m_Data: {fileID: 11400000, guid: 78e83ce28358cba4582f22fdced332dc, type: 2}
  - m_RefCount: 1
    m_Data: {fileID: 11400000, guid: 48b37ab54c46dfc4f8e3971ba72675f3, type: 2}
  - m_RefCount: 1
    m_Data: {fileID: 11400000, guid: e561353d0b5da804188fb850cb245f7c, type: 2}
  - m_RefCount: 1
    m_Data: {fileID: 11400000, guid: c7862a12324771e42a17059f8bbff7ef, type: 2}
  - m_RefCount: 1
    m_Data: {fileID: 11400000, guid: 4dc6befed6479c4428c1137de820d847, type: 2}
  - m_RefCount: 1
    m_Data: {fileID: 11400000, guid: 9bd4c364b857f5e4299efe0d90d39c1a, type: 2}
  - m_RefCount: 1
    m_Data: {fileID: 11400000, guid: 0fd0371c020a2c04bba75019d9c492ef, type: 2}
  - m_RefCount: 1
    m_Data: {fileID: 11400000, guid: 1138db9be15394946a6b053bd61897c7, type: 2}
  - m_RefCount: 1
    m_Data: {fileID: 11400000, guid: a34ed4c97035256489c37f8623cf07d0, type: 2}
  - m_RefCount: 1
    m_Data: {fileID: 11400000, guid: b96fd72a94089544ea062bab8ad28de1, type: 2}
  - m_RefCount: 1
    m_Data: {fileID: 11400000, guid: 916322d61a1a9e345aa15ce7131c746d, type: 2}
  - m_RefCount: 1
    m_Data: {fileID: 11400000, guid: d3b5fbc701ada3b45b750947761dcb99, type: 2}
  - m_RefCount: 1
    m_Data: {fileID: 11400000, guid: 4d470e0064c952d4ebcfe09367ab4dc3, type: 2}
  - m_RefCount: 1
    m_Data: {fileID: 11400000, guid: 9dc237dfeb737d042a8681eb6ff506cc, type: 2}
  - m_RefCount: 1
    m_Data: {fileID: 11400000, guid: 4eca3106badb2534ca28fa474ea93365, type: 2}
  - m_RefCount: 1
    m_Data: {fileID: 11400000, guid: 9d9aae5be1d92b54fb93fb1eb285ee79, type: 2}
  - m_RefCount: 1
    m_Data: {fileID: 11400000, guid: 3dd005f671e2e884a9a149c6ed3a68a5, type: 2}
  - m_RefCount: 1
    m_Data: {fileID: 11400000, guid: 9932339128a7e4746b49401bff351b90, type: 2}
  - m_RefCount: 1
    m_Data: {fileID: 11400000, guid: a01fa3578ff1468478cc81a82d80da72, type: 2}
  - m_RefCount: 1
    m_Data: {fileID: 11400000, guid: c056eb36d08aac1429f755465fd74a9c, type: 2}
  - m_RefCount: 1
    m_Data: {fileID: 11400000, guid: f53502e838567db4ab11ba8d8ed6ecbb, type: 2}
  - m_RefCount: 1
    m_Data: {fileID: 11400000, guid: a962e7f658ba68243a2a6e568d34e16e, type: 2}
  - m_RefCount: 1
    m_Data: {fileID: 11400000, guid: 532925ea132863942a912aff8f8988c7, type: 2}
  - m_RefCount: 1
    m_Data: {fileID: 11400000, guid: c572d26dc3630cc4eb508c148c1bc2cb, type: 2}
  - m_RefCount: 1
    m_Data: {fileID: 11400000, guid: bee84cecdaa2998489539124a06005b0, type: 2}
  - m_RefCount: 1
    m_Data: {fileID: 11400000, guid: 7fc713d29c6058a4589b46f196a0aed5, type: 2}
  - m_RefCount: 1
    m_Data: {fileID: 11400000, guid: 575a106cddfdb5340927bb74ff63573f, type: 2}
  - m_RefCount: 1
    m_Data: {fileID: 11400000, guid: 70ba1959d1d77d64cb798dd1c3503089, type: 2}
  - m_RefCount: 1
    m_Data: {fileID: 11400000, guid: 268d42ba2d3482940ab2d10f9736d122, type: 2}
  - m_RefCount: 1
    m_Data: {fileID: 11400000, guid: 8bc1bd1d2e09f104ebd785dbd847361d, type: 2}
  - m_RefCount: 1
    m_Data: {fileID: 11400000, guid: 0b238bb0a1ca98440b0bff6d12e18138, type: 2}
  - m_RefCount: 1
    m_Data: {fileID: 11400000, guid: 20f4f9eb661e1174ab978d5528aa0729, type: 2}
  - m_RefCount: 1
    m_Data: {fileID: 11400000, guid: ed67a8ec820e76548a83bcf7e4981aab, type: 2}
  - m_RefCount: 1
    m_Data: {fileID: 11400000, guid: 0964c5b60f3364c40a51a83490cecb94, type: 2}
  - m_RefCount: 1
    m_Data: {fileID: 11400000, guid: f667a783b8ec50c4eaebc34817e4ddcf, type: 2}
  - m_RefCount: 1
    m_Data: {fileID: 11400000, guid: 7f04c49f5410e7540bfb9a70f428b063, type: 2}
  - m_RefCount: 1
    m_Data: {fileID: 11400000, guid: 4c99926b27909c0458492dc9bb8a2702, type: 2}
  - m_RefCount: 1
    m_Data: {fileID: 11400000, guid: bb8f505e9c776d643ad709cbea078202, type: 2}
  - m_RefCount: 1
    m_Data: {fileID: 11400000, guid: d86895a32c01668479ba1fd93aa5a931, type: 2}
  - m_RefCount: 1
    m_Data: {fileID: 11400000, guid: 7e893825f18ecf5439433a9b1a3b0b2b, type: 2}
  - m_RefCount: 1
    m_Data: {fileID: 11400000, guid: 268bdd9a3fddc7341a324ebea57b629d, type: 2}
  - m_RefCount: 1
    m_Data: {fileID: 11400000, guid: e79909d0444e63045a50313dfed1bc41, type: 2}
  - m_RefCount: 1
    m_Data: {fileID: 11400000, guid: 5923fdf7d0c7c0f4baf72d6928c366d1, type: 2}
  - m_RefCount: 1
    m_Data: {fileID: 11400000, guid: ceee0eac0504c824c83d49770b02f941, type: 2}
  - m_RefCount: 1
    m_Data: {fileID: 11400000, guid: a5aa58a3c7a30304dbb13da38a4cb085, type: 2}
  - m_RefCount: 1
    m_Data: {fileID: 11400000, guid: 50040981ea79001419142d3e652cb3df, type: 2}
  - m_RefCount: 1
    m_Data: {fileID: 11400000, guid: 2a97a5ad374241c44911d9375b35f601, type: 2}
  - m_RefCount: 1
    m_Data: {fileID: 11400000, guid: ac5d29b1d90c1994dbd72fd0f205c8a4, type: 2}
  - m_RefCount: 0
    m_Data: {fileID: 0}
  - m_RefCount: 0
    m_Data: {fileID: 0}
  - m_RefCount: 0
    m_Data: {fileID: 0}
  - m_RefCount: 0
    m_Data: {fileID: 0}
  - m_RefCount: 0
    m_Data: {fileID: 0}
  - m_RefCount: 0
    m_Data: {fileID: 0}
  - m_RefCount: 0
    m_Data: {fileID: 0}
  - m_RefCount: 0
    m_Data: {fileID: 0}
  - m_RefCount: 1
    m_Data: {fileID: 11400000, guid: b9b95b1695270df43a6d50710b520555, type: 2}
  - m_RefCount: 0
    m_Data: {fileID: 0}
  - m_RefCount: 1
    m_Data: {fileID: 11400000, guid: 2ac73cc6540eb354dad4e2be6759466a, type: 2}
  m_TileSpriteArray:
  - m_RefCount: 1
    m_Data: {fileID: 21300014, guid: 05f0e647c87949042aeb94d62f54f854, type: 3}
  - m_RefCount: 1
    m_Data: {fileID: 21300030, guid: 05f0e647c87949042aeb94d62f54f854, type: 3}
  - m_RefCount: 1
    m_Data: {fileID: 21300034, guid: 05f0e647c87949042aeb94d62f54f854, type: 3}
  - m_RefCount: 1
    m_Data: {fileID: 21300024, guid: 05f0e647c87949042aeb94d62f54f854, type: 3}
  - m_RefCount: 1
    m_Data: {fileID: 21300022, guid: 05f0e647c87949042aeb94d62f54f854, type: 3}
  - m_RefCount: 1
    m_Data: {fileID: 21300020, guid: 05f0e647c87949042aeb94d62f54f854, type: 3}
  - m_RefCount: 1
    m_Data: {fileID: 21300012, guid: 05f0e647c87949042aeb94d62f54f854, type: 3}
  - m_RefCount: 1
    m_Data: {fileID: 21300032, guid: 05f0e647c87949042aeb94d62f54f854, type: 3}
  - m_RefCount: 1
    m_Data: {fileID: 21300084, guid: 05f0e647c87949042aeb94d62f54f854, type: 3}
  - m_RefCount: 1
    m_Data: {fileID: 21300086, guid: 05f0e647c87949042aeb94d62f54f854, type: 3}
  - m_RefCount: 1
    m_Data: {fileID: 21300070, guid: 05f0e647c87949042aeb94d62f54f854, type: 3}
  - m_RefCount: 1
    m_Data: {fileID: 21300082, guid: 05f0e647c87949042aeb94d62f54f854, type: 3}
  - m_RefCount: 1
    m_Data: {fileID: 21300072, guid: 05f0e647c87949042aeb94d62f54f854, type: 3}
  - m_RefCount: 1
    m_Data: {fileID: 21300026, guid: 05f0e647c87949042aeb94d62f54f854, type: 3}
  - m_RefCount: 1
    m_Data: {fileID: 21300010, guid: 05f0e647c87949042aeb94d62f54f854, type: 3}
  - m_RefCount: 1
    m_Data: {fileID: 21300074, guid: 05f0e647c87949042aeb94d62f54f854, type: 3}
  - m_RefCount: 1
    m_Data: {fileID: 21300076, guid: 05f0e647c87949042aeb94d62f54f854, type: 3}
  - m_RefCount: 1
    m_Data: {fileID: 1343139007, guid: b1fbf3a50fc08aa4e98788db8efde82c, type: 3}
  - m_RefCount: 0
    m_Data: {fileID: 0}
  - m_RefCount: 1
    m_Data: {fileID: -1092395186, guid: b1fbf3a50fc08aa4e98788db8efde82c, type: 3}
  - m_RefCount: 1
    m_Data: {fileID: 21300058, guid: 05f0e647c87949042aeb94d62f54f854, type: 3}
  - m_RefCount: 1
    m_Data: {fileID: 21300028, guid: 05f0e647c87949042aeb94d62f54f854, type: 3}
  - m_RefCount: 1
    m_Data: {fileID: 21300060, guid: 05f0e647c87949042aeb94d62f54f854, type: 3}
  - m_RefCount: 1
    m_Data: {fileID: 21300062, guid: 05f0e647c87949042aeb94d62f54f854, type: 3}
  - m_RefCount: 1
    m_Data: {fileID: 21300064, guid: 05f0e647c87949042aeb94d62f54f854, type: 3}
  - m_RefCount: 0
    m_Data: {fileID: 0}
  - m_RefCount: 0
    m_Data: {fileID: 0}
  - m_RefCount: 0
    m_Data: {fileID: 0}
  - m_RefCount: 1
    m_Data: {fileID: 21300046, guid: 05f0e647c87949042aeb94d62f54f854, type: 3}
  - m_RefCount: 1
    m_Data: {fileID: 21300048, guid: 05f0e647c87949042aeb94d62f54f854, type: 3}
  - m_RefCount: 1
    m_Data: {fileID: 21300050, guid: 05f0e647c87949042aeb94d62f54f854, type: 3}
  - m_RefCount: 1
    m_Data: {fileID: 21300052, guid: 05f0e647c87949042aeb94d62f54f854, type: 3}
  - m_RefCount: 1
    m_Data: {fileID: 21300054, guid: 05f0e647c87949042aeb94d62f54f854, type: 3}
  - m_RefCount: 0
    m_Data: {fileID: 0}
  - m_RefCount: 0
    m_Data: {fileID: 0}
  - m_RefCount: 0
    m_Data: {fileID: 0}
  - m_RefCount: 0
    m_Data: {fileID: 0}
  - m_RefCount: 1
    m_Data: {fileID: 21300078, guid: 05f0e647c87949042aeb94d62f54f854, type: 3}
  - m_RefCount: 1
    m_Data: {fileID: 21300080, guid: 05f0e647c87949042aeb94d62f54f854, type: 3}
  - m_RefCount: 1
    m_Data: {fileID: 21300056, guid: 05f0e647c87949042aeb94d62f54f854, type: 3}
  - m_RefCount: 1
    m_Data: {fileID: 21300040, guid: 05f0e647c87949042aeb94d62f54f854, type: 3}
  - m_RefCount: 1
    m_Data: {fileID: 21300042, guid: 05f0e647c87949042aeb94d62f54f854, type: 3}
  - m_RefCount: 1
    m_Data: {fileID: 831652905, guid: b1fbf3a50fc08aa4e98788db8efde82c, type: 3}
  - m_RefCount: 0
    m_Data: {fileID: 0}
  - m_RefCount: 1
    m_Data: {fileID: 21300036, guid: 05f0e647c87949042aeb94d62f54f854, type: 3}
  - m_RefCount: 1
    m_Data: {fileID: 21300038, guid: 05f0e647c87949042aeb94d62f54f854, type: 3}
  - m_RefCount: 1
    m_Data: {fileID: 21300066, guid: 05f0e647c87949042aeb94d62f54f854, type: 3}
  - m_RefCount: 1
    m_Data: {fileID: 21300068, guid: 05f0e647c87949042aeb94d62f54f854, type: 3}
  - m_RefCount: 1
    m_Data: {fileID: 21300044, guid: 05f0e647c87949042aeb94d62f54f854, type: 3}
  - m_RefCount: 1
    m_Data: {fileID: 21300000, guid: 05f0e647c87949042aeb94d62f54f854, type: 3}
  - m_RefCount: 1
    m_Data: {fileID: 21300002, guid: 05f0e647c87949042aeb94d62f54f854, type: 3}
  - m_RefCount: 1
    m_Data: {fileID: 21300004, guid: 05f0e647c87949042aeb94d62f54f854, type: 3}
  - m_RefCount: 1
    m_Data: {fileID: 21300008, guid: 05f0e647c87949042aeb94d62f54f854, type: 3}
  - m_RefCount: 1
    m_Data: {fileID: 21300016, guid: 05f0e647c87949042aeb94d62f54f854, type: 3}
  - m_RefCount: 1
    m_Data: {fileID: 21300006, guid: 05f0e647c87949042aeb94d62f54f854, type: 3}
  - m_RefCount: 1
    m_Data: {fileID: 21300018, guid: 05f0e647c87949042aeb94d62f54f854, type: 3}
  - m_RefCount: 1
    m_Data: {fileID: -319411949, guid: ac1c9c96b6dc4084491dd5b72b95624e, type: 3}
  - m_RefCount: 1
    m_Data: {fileID: -1297145892, guid: ac1c9c96b6dc4084491dd5b72b95624e, type: 3}
  - m_RefCount: 1
    m_Data: {fileID: -635720989, guid: ac1c9c96b6dc4084491dd5b72b95624e, type: 3}
  - m_RefCount: 1
    m_Data: {fileID: -155297167, guid: ac1c9c96b6dc4084491dd5b72b95624e, type: 3}
  - m_RefCount: 1
    m_Data: {fileID: -850206304, guid: ac1c9c96b6dc4084491dd5b72b95624e, type: 3}
  - m_RefCount: 1
    m_Data: {fileID: 1872078773, guid: ac1c9c96b6dc4084491dd5b72b95624e, type: 3}
  - m_RefCount: 1
    m_Data: {fileID: 9082993805320947467, guid: 83887ed46a31da148aa493eac773d0ed,
      type: 3}
  - m_RefCount: 1
    m_Data: {fileID: -1965519345, guid: ac1c9c96b6dc4084491dd5b72b95624e, type: 3}
  - m_RefCount: 1
    m_Data: {fileID: 1717016391, guid: ac1c9c96b6dc4084491dd5b72b95624e, type: 3}
  - m_RefCount: 1
    m_Data: {fileID: -1730246481, guid: ac1c9c96b6dc4084491dd5b72b95624e, type: 3}
  - m_RefCount: 1
    m_Data: {fileID: 1697631193, guid: ac1c9c96b6dc4084491dd5b72b95624e, type: 3}
  - m_RefCount: 1
    m_Data: {fileID: -443585068, guid: ac1c9c96b6dc4084491dd5b72b95624e, type: 3}
  - m_RefCount: 1
    m_Data: {fileID: -512748584, guid: ac1c9c96b6dc4084491dd5b72b95624e, type: 3}
  - m_RefCount: 1
    m_Data: {fileID: 239260988, guid: ac1c9c96b6dc4084491dd5b72b95624e, type: 3}
  - m_RefCount: 1
    m_Data: {fileID: 1903557187, guid: ac1c9c96b6dc4084491dd5b72b95624e, type: 3}
  - m_RefCount: 1
    m_Data: {fileID: -1715963160, guid: ac1c9c96b6dc4084491dd5b72b95624e, type: 3}
  - m_RefCount: 1
    m_Data: {fileID: 1018399557, guid: ac1c9c96b6dc4084491dd5b72b95624e, type: 3}
  - m_RefCount: 1
    m_Data: {fileID: -814763481, guid: ac1c9c96b6dc4084491dd5b72b95624e, type: 3}
  - m_RefCount: 1
    m_Data: {fileID: 277309962, guid: ac1c9c96b6dc4084491dd5b72b95624e, type: 3}
  - m_RefCount: 1
    m_Data: {fileID: -537604222, guid: ac1c9c96b6dc4084491dd5b72b95624e, type: 3}
  - m_RefCount: 1
    m_Data: {fileID: 1708454835, guid: ac1c9c96b6dc4084491dd5b72b95624e, type: 3}
  - m_RefCount: 1
    m_Data: {fileID: 266592801, guid: ac1c9c96b6dc4084491dd5b72b95624e, type: 3}
  - m_RefCount: 1
    m_Data: {fileID: -624168539, guid: ac1c9c96b6dc4084491dd5b72b95624e, type: 3}
  - m_RefCount: 1
    m_Data: {fileID: -4557030955189550299, guid: 83887ed46a31da148aa493eac773d0ed,
      type: 3}
  - m_RefCount: 1
    m_Data: {fileID: -220670289, guid: ac1c9c96b6dc4084491dd5b72b95624e, type: 3}
  - m_RefCount: 1
    m_Data: {fileID: -1838697984, guid: ac1c9c96b6dc4084491dd5b72b95624e, type: 3}
  - m_RefCount: 1
    m_Data: {fileID: -289297686, guid: ac1c9c96b6dc4084491dd5b72b95624e, type: 3}
  - m_RefCount: 1
    m_Data: {fileID: 1885097412, guid: ac1c9c96b6dc4084491dd5b72b95624e, type: 3}
  - m_RefCount: 1
    m_Data: {fileID: 767517892, guid: ac1c9c96b6dc4084491dd5b72b95624e, type: 3}
  - m_RefCount: 1
    m_Data: {fileID: -638383094, guid: ac1c9c96b6dc4084491dd5b72b95624e, type: 3}
  - m_RefCount: 1
    m_Data: {fileID: 2060988082, guid: ac1c9c96b6dc4084491dd5b72b95624e, type: 3}
  - m_RefCount: 1
    m_Data: {fileID: 137133388, guid: ac1c9c96b6dc4084491dd5b72b95624e, type: 3}
  - m_RefCount: 1
    m_Data: {fileID: -321554170, guid: ac1c9c96b6dc4084491dd5b72b95624e, type: 3}
  - m_RefCount: 1
    m_Data: {fileID: 1919061369, guid: ac1c9c96b6dc4084491dd5b72b95624e, type: 3}
  - m_RefCount: 1
    m_Data: {fileID: -721180926, guid: ac1c9c96b6dc4084491dd5b72b95624e, type: 3}
  - m_RefCount: 1
    m_Data: {fileID: -1888198906, guid: ac1c9c96b6dc4084491dd5b72b95624e, type: 3}
  - m_RefCount: 1
    m_Data: {fileID: -796700581, guid: ac1c9c96b6dc4084491dd5b72b95624e, type: 3}
  - m_RefCount: 1
    m_Data: {fileID: 935728197, guid: ac1c9c96b6dc4084491dd5b72b95624e, type: 3}
  - m_RefCount: 1
    m_Data: {fileID: -402071922, guid: ac1c9c96b6dc4084491dd5b72b95624e, type: 3}
  - m_RefCount: 1
    m_Data: {fileID: -833858829, guid: ac1c9c96b6dc4084491dd5b72b95624e, type: 3}
  - m_RefCount: 1
    m_Data: {fileID: 8991448270188929136, guid: 83887ed46a31da148aa493eac773d0ed,
      type: 3}
  - m_RefCount: 1
    m_Data: {fileID: -1469759455, guid: ac1c9c96b6dc4084491dd5b72b95624e, type: 3}
  - m_RefCount: 1
    m_Data: {fileID: -1403784788, guid: ac1c9c96b6dc4084491dd5b72b95624e, type: 3}
  - m_RefCount: 1
    m_Data: {fileID: 1718189823, guid: ac1c9c96b6dc4084491dd5b72b95624e, type: 3}
  - m_RefCount: 1
    m_Data: {fileID: -1496937830, guid: ac1c9c96b6dc4084491dd5b72b95624e, type: 3}
  - m_RefCount: 1
    m_Data: {fileID: 384993645, guid: ac1c9c96b6dc4084491dd5b72b95624e, type: 3}
  - m_RefCount: 1
    m_Data: {fileID: -252235081, guid: ac1c9c96b6dc4084491dd5b72b95624e, type: 3}
  - m_RefCount: 1
    m_Data: {fileID: -84566740, guid: ac1c9c96b6dc4084491dd5b72b95624e, type: 3}
  - m_RefCount: 1
    m_Data: {fileID: 1096114581, guid: ac1c9c96b6dc4084491dd5b72b95624e, type: 3}
  - m_RefCount: 1
    m_Data: {fileID: 735771692, guid: ac1c9c96b6dc4084491dd5b72b95624e, type: 3}
  - m_RefCount: 1
    m_Data: {fileID: 729601790, guid: ac1c9c96b6dc4084491dd5b72b95624e, type: 3}
  - m_RefCount: 1
    m_Data: {fileID: 1921275088, guid: ac1c9c96b6dc4084491dd5b72b95624e, type: 3}
  - m_RefCount: 1
    m_Data: {fileID: -1392803542, guid: ac1c9c96b6dc4084491dd5b72b95624e, type: 3}
  - m_RefCount: 1
    m_Data: {fileID: -1201506308, guid: ac1c9c96b6dc4084491dd5b72b95624e, type: 3}
  - m_RefCount: 1
    m_Data: {fileID: 1125605820, guid: ac1c9c96b6dc4084491dd5b72b95624e, type: 3}
  - m_RefCount: 1
    m_Data: {fileID: -1400800066, guid: ac1c9c96b6dc4084491dd5b72b95624e, type: 3}
  - m_RefCount: 1
    m_Data: {fileID: -2041512418, guid: ac1c9c96b6dc4084491dd5b72b95624e, type: 3}
  - m_RefCount: 1
    m_Data: {fileID: -1565824984, guid: ac1c9c96b6dc4084491dd5b72b95624e, type: 3}
  - m_RefCount: 1
    m_Data: {fileID: 322157865, guid: ac1c9c96b6dc4084491dd5b72b95624e, type: 3}
  - m_RefCount: 1
    m_Data: {fileID: 644070101, guid: ac1c9c96b6dc4084491dd5b72b95624e, type: 3}
  - m_RefCount: 1
    m_Data: {fileID: -259355844, guid: ac1c9c96b6dc4084491dd5b72b95624e, type: 3}
  - m_RefCount: 1
    m_Data: {fileID: 927749014, guid: ac1c9c96b6dc4084491dd5b72b95624e, type: 3}
  - m_RefCount: 1
    m_Data: {fileID: 900018243, guid: ac1c9c96b6dc4084491dd5b72b95624e, type: 3}
  m_TileMatrixArray:
  - m_RefCount: 52
    m_Data:
      e00: 1
      e01: 0
      e02: 0
      e03: 0
      e10: 0
      e11: 1
      e12: 0
      e13: 0
      e20: 0
      e21: 0
      e22: 1
      e23: 0
      e30: 0
      e31: 0
      e32: 0
      e33: 1
  - m_RefCount: 60
    m_Data:
      e00: 1
      e01: 0
      e02: 0
      e03: 0.00012207031
      e10: 0
      e11: 1
      e12: 0
      e13: 0.00012212992
      e20: 0
      e21: 0
      e22: 1
      e23: 0
      e30: 0
      e31: 0
      e32: 0
      e33: 1
  m_TileColorArray:
  - m_RefCount: 112
    m_Data: {r: 1, g: 1, b: 1, a: 1}
  m_TileObjectToInstantiateArray: []
  m_AnimationFrameRate: 1
  m_Color: {r: 1, g: 1, b: 1, a: 1}
  m_Origin: {x: -2, y: -6, z: 0}
  m_Size: {x: 23, y: 19, z: 1}
  m_TileAnchor: {x: 0.5, y: 0.5, z: 0}
  m_TileOrientation: 0
  m_TileOrientationMatrix:
    e00: 1
    e01: 0
    e02: 0
    e03: 0
    e10: 0
    e11: 1
    e12: 0
    e13: 0
    e20: 0
    e21: 0
    e22: 1
    e23: 0
    e30: 0
    e31: 0
    e32: 0
    e33: 1
--- !u!483693784 &3664157343818926458
TilemapRenderer:
  m_ObjectHideFlags: 0
  m_CorrespondingSourceObject: {fileID: 0}
  m_PrefabInstance: {fileID: 0}
  m_PrefabAsset: {fileID: 0}
  m_GameObject: {fileID: 1411023438433892}
  m_Enabled: 1
  m_CastShadows: 0
  m_ReceiveShadows: 0
  m_DynamicOccludee: 0
  m_StaticShadowCaster: 0
  m_MotionVectors: 1
  m_LightProbeUsage: 0
  m_ReflectionProbeUsage: 0
  m_RayTracingMode: 0
  m_RayTraceProcedural: 0
  m_RenderingLayerMask: 1
  m_RendererPriority: 0
  m_Materials:
  - {fileID: 10754, guid: 0000000000000000f000000000000000, type: 0}
  m_StaticBatchInfo:
    firstSubMesh: 0
    subMeshCount: 0
  m_StaticBatchRoot: {fileID: 0}
  m_ProbeAnchor: {fileID: 0}
  m_LightProbeVolumeOverride: {fileID: 0}
  m_ScaleInLightmap: 1
  m_ReceiveGI: 1
  m_PreserveUVs: 0
  m_IgnoreNormalsForChartDetection: 0
  m_ImportantGI: 0
  m_StitchLightmapSeams: 0
  m_SelectedEditorRenderState: 0
  m_MinimumChartSize: 4
  m_AutoUVMaxDistance: 0.5
  m_AutoUVMaxAngle: 89
  m_LightmapParameters: {fileID: 0}
  m_SortingLayerID: 0
  m_SortingLayer: 0
  m_SortingOrder: 0
  m_ChunkSize: {x: 32, y: 32, z: 32}
  m_ChunkCullingBounds: {x: 0.027999997, y: 0.12800002, z: 0}
  m_MaxChunkCount: 16
  m_MaxFrameAge: 16
  m_SortOrder: 0
  m_Mode: 0
  m_DetectChunkCullingBounds: 0
  m_MaskInteraction: 0
--- !u!114 &5842356921729355280
MonoBehaviour:
  m_ObjectHideFlags: 0
  m_CorrespondingSourceObject: {fileID: 0}
  m_PrefabInstance: {fileID: 0}
  m_PrefabAsset: {fileID: 0}
  m_GameObject: {fileID: 0}
  m_Enabled: 1
  m_EditorHideFlags: 1
  m_Script: {fileID: 12395, guid: 0000000000000000e000000000000000, type: 0}
  m_Name: Palette Settings
  m_EditorClassIdentifier: 
  cellSizing: 100
  m_TransparencySortMode: 0
  m_TransparencySortAxis: {x: 0, y: 0, z: 1}
