%YAML 1.1
%TAG !u! tag:unity3d.com,2011:
--- !u!1 &1210100264196416
GameObject:
  m_ObjectHideFlags: 0
  m_CorrespondingSourceObject: {fileID: 0}
  m_PrefabInstance: {fileID: 0}
  m_PrefabAsset: {fileID: 0}
  serializedVersion: 6
  m_Component:
  - component: {fileID: 4102881136918236}
  - component: {fileID: 2569400265457105682}
  m_Layer: 31
  m_Name: Mountains_Less_Vegetation
  m_TagString: Untagged
  m_Icon: {fileID: 0}
  m_NavMeshLayer: 0
  m_StaticEditorFlags: 0
  m_IsActive: 1
--- !u!4 &4102881136918236
Transform:
  m_ObjectHideFlags: 0
  m_CorrespondingSourceObject: {fileID: 0}
  m_PrefabInstance: {fileID: 0}
  m_PrefabAsset: {fileID: 0}
  m_GameObject: {fileID: 1210100264196416}
  m_LocalRotation: {x: 0, y: 0, z: 0, w: 1}
  m_LocalPosition: {x: 0, y: 0, z: 0}
  m_LocalScale: {x: 1, y: 1, z: 1}
  m_Children:
  - {fileID: 4571732210965434}
  m_Father: {fileID: 0}
  m_RootOrder: 0
  m_LocalEulerAnglesHint: {x: 0, y: 0, z: 0}
--- !u!156049354 &2569400265457105682
Grid:
  m_ObjectHideFlags: 0
  m_CorrespondingSourceObject: {fileID: 0}
  m_PrefabInstance: {fileID: 0}
  m_PrefabAsset: {fileID: 0}
  m_GameObject: {fileID: 1210100264196416}
  m_Enabled: 1
  m_CellSize: {x: 0.53515625, y: 0.546875, z: 0}
  m_CellGap: {x: 0, y: 0, z: 0}
  m_CellLayout: 0
  m_CellSwizzle: 0
--- !u!1 &1314663984172850
GameObject:
  m_ObjectHideFlags: 0
  m_CorrespondingSourceObject: {fileID: 0}
  m_PrefabInstance: {fileID: 0}
  m_PrefabAsset: {fileID: 0}
  serializedVersion: 6
  m_Component:
  - component: {fileID: 4571732210965434}
  - component: {fileID: 8195094279592479718}
  - component: {fileID: 3664157344895381506}
  m_Layer: 0
  m_Name: Layer1
  m_TagString: Untagged
  m_Icon: {fileID: 0}
  m_NavMeshLayer: 0
  m_StaticEditorFlags: 0
  m_IsActive: 1
--- !u!4 &4571732210965434
Transform:
  m_ObjectHideFlags: 0
  m_CorrespondingSourceObject: {fileID: 0}
  m_PrefabInstance: {fileID: 0}
  m_PrefabAsset: {fileID: 0}
  m_GameObject: {fileID: 1314663984172850}
  m_LocalRotation: {x: -0, y: -0, z: -0, w: 1}
  m_LocalPosition: {x: 0, y: 0, z: 0}
  m_LocalScale: {x: 1, y: 1, z: 1}
  m_Children: []
  m_Father: {fileID: 4102881136918236}
  m_RootOrder: 0
  m_LocalEulerAnglesHint: {x: 0, y: 0, z: 0}
--- !u!1839735485 &8195094279592479718
Tilemap:
  m_ObjectHideFlags: 0
  m_CorrespondingSourceObject: {fileID: 0}
  m_PrefabInstance: {fileID: 0}
  m_PrefabAsset: {fileID: 0}
  m_GameObject: {fileID: 1314663984172850}
  m_Enabled: 1
  m_Tiles:
  - first: {x: -4, y: -13, z: 0}
    second:
      serializedVersion: 2
      m_TileIndex: 9
      m_TileSpriteIndex: 28
      m_TileMatrixIndex: 0
      m_TileColorIndex: 0
      m_TileObjectToInstantiateIndex: 65535
      dummyAlignment: 0
      m_AllTileFlags: 1073741825
  - first: {x: 2, y: -13, z: 0}
    second:
      serializedVersion: 2
      m_TileIndex: 8
      m_TileSpriteIndex: 9
      m_TileMatrixIndex: 0
      m_TileColorIndex: 0
      m_TileObjectToInstantiateIndex: 65535
      dummyAlignment: 0
      m_AllTileFlags: 1073741825
  - first: {x: -4, y: -8, z: 0}
    second:
      serializedVersion: 2
      m_TileIndex: 15
      m_TileSpriteIndex: 15
      m_TileMatrixIndex: 0
      m_TileColorIndex: 0
      m_TileObjectToInstantiateIndex: 65535
      dummyAlignment: 0
      m_AllTileFlags: 1073741825
  - first: {x: -1, y: -8, z: 0}
    second:
      serializedVersion: 2
      m_TileIndex: 14
      m_TileSpriteIndex: 14
      m_TileMatrixIndex: 0
      m_TileColorIndex: 0
      m_TileObjectToInstantiateIndex: 65535
      dummyAlignment: 0
      m_AllTileFlags: 1073741825
  - first: {x: 2, y: -8, z: 0}
    second:
      serializedVersion: 2
      m_TileIndex: 13
      m_TileSpriteIndex: 13
      m_TileMatrixIndex: 0
      m_TileColorIndex: 0
      m_TileObjectToInstantiateIndex: 65535
      dummyAlignment: 0
      m_AllTileFlags: 1073741825
  - first: {x: 5, y: -8, z: 0}
    second:
      serializedVersion: 2
      m_TileIndex: 28
      m_TileSpriteIndex: 12
      m_TileMatrixIndex: 0
      m_TileColorIndex: 0
      m_TileObjectToInstantiateIndex: 65535
      dummyAlignment: 0
      m_AllTileFlags: 1073741825
  - first: {x: 8, y: -8, z: 0}
    second:
      serializedVersion: 2
      m_TileIndex: 11
      m_TileSpriteIndex: 11
      m_TileMatrixIndex: 0
      m_TileColorIndex: 0
      m_TileObjectToInstantiateIndex: 65535
      dummyAlignment: 0
      m_AllTileFlags: 1073741825
  - first: {x: 12, y: -8, z: 0}
    second:
      serializedVersion: 2
      m_TileIndex: 10
      m_TileSpriteIndex: 10
      m_TileMatrixIndex: 0
      m_TileColorIndex: 0
      m_TileObjectToInstantiateIndex: 65535
      dummyAlignment: 0
      m_AllTileFlags: 1073741825
  - first: {x: -4, y: -5, z: 0}
    second:
      serializedVersion: 2
      m_TileIndex: 30
      m_TileSpriteIndex: 30
      m_TileMatrixIndex: 0
      m_TileColorIndex: 0
      m_TileObjectToInstantiateIndex: 65535
      dummyAlignment: 0
      m_AllTileFlags: 1073741825
  - first: {x: -1, y: -5, z: 0}
    second:
      serializedVersion: 2
      m_TileIndex: 29
      m_TileSpriteIndex: 29
      m_TileMatrixIndex: 0
      m_TileColorIndex: 0
      m_TileObjectToInstantiateIndex: 65535
      dummyAlignment: 0
      m_AllTileFlags: 1073741825
  - first: {x: 2, y: -5, z: 0}
    second:
      serializedVersion: 2
      m_TileIndex: 26
      m_TileSpriteIndex: 26
      m_TileMatrixIndex: 0
      m_TileColorIndex: 0
      m_TileObjectToInstantiateIndex: 65535
      dummyAlignment: 0
      m_AllTileFlags: 1073741825
  - first: {x: 5, y: -5, z: 0}
    second:
      serializedVersion: 2
      m_TileIndex: 23
      m_TileSpriteIndex: 23
      m_TileMatrixIndex: 0
      m_TileColorIndex: 0
      m_TileObjectToInstantiateIndex: 65535
      dummyAlignment: 0
      m_AllTileFlags: 1073741825
  - first: {x: 8, y: -5, z: 0}
    second:
      serializedVersion: 2
      m_TileIndex: 20
      m_TileSpriteIndex: 20
      m_TileMatrixIndex: 0
      m_TileColorIndex: 0
      m_TileObjectToInstantiateIndex: 65535
      dummyAlignment: 0
      m_AllTileFlags: 1073741825
  - first: {x: 14, y: -4, z: 0}
    second:
      serializedVersion: 2
      m_TileIndex: 16
      m_TileSpriteIndex: 16
      m_TileMatrixIndex: 0
      m_TileColorIndex: 0
      m_TileObjectToInstantiateIndex: 65535
      dummyAlignment: 0
      m_AllTileFlags: 1073741825
  - first: {x: -1, y: -2, z: 0}
    second:
      serializedVersion: 2
      m_TileIndex: 33
      m_TileSpriteIndex: 33
      m_TileMatrixIndex: 0
      m_TileColorIndex: 0
      m_TileObjectToInstantiateIndex: 65535
      dummyAlignment: 0
      m_AllTileFlags: 1073741825
  - first: {x: 2, y: -2, z: 0}
    second:
      serializedVersion: 2
      m_TileIndex: 27
      m_TileSpriteIndex: 27
      m_TileMatrixIndex: 0
      m_TileColorIndex: 0
      m_TileObjectToInstantiateIndex: 65535
      dummyAlignment: 0
      m_AllTileFlags: 1073741825
  - first: {x: 5, y: -2, z: 0}
    second:
      serializedVersion: 2
      m_TileIndex: 24
      m_TileSpriteIndex: 24
      m_TileMatrixIndex: 0
      m_TileColorIndex: 0
      m_TileObjectToInstantiateIndex: 65535
      dummyAlignment: 0
      m_AllTileFlags: 1073741825
  - first: {x: 8, y: -2, z: 0}
    second:
      serializedVersion: 2
      m_TileIndex: 21
      m_TileSpriteIndex: 21
      m_TileMatrixIndex: 0
      m_TileColorIndex: 0
      m_TileObjectToInstantiateIndex: 65535
      dummyAlignment: 0
      m_AllTileFlags: 1073741825
  - first: {x: 11, y: -2, z: 0}
    second:
      serializedVersion: 2
      m_TileIndex: 18
      m_TileSpriteIndex: 18
      m_TileMatrixIndex: 0
      m_TileColorIndex: 0
      m_TileObjectToInstantiateIndex: 65535
      dummyAlignment: 0
      m_AllTileFlags: 1073741825
  - first: {x: -4, y: -1, z: 0}
    second:
      serializedVersion: 2
      m_TileIndex: 34
      m_TileSpriteIndex: 34
      m_TileMatrixIndex: 0
      m_TileColorIndex: 0
      m_TileObjectToInstantiateIndex: 65535
      dummyAlignment: 0
      m_AllTileFlags: 1073741825
  - first: {x: -1, y: 1, z: 0}
    second:
      serializedVersion: 2
      m_TileIndex: 32
      m_TileSpriteIndex: 32
      m_TileMatrixIndex: 0
      m_TileColorIndex: 0
      m_TileObjectToInstantiateIndex: 65535
      dummyAlignment: 0
      m_AllTileFlags: 1073741825
  - first: {x: 1, y: 1, z: 0}
    second:
      serializedVersion: 2
      m_TileIndex: 19
      m_TileSpriteIndex: 19
      m_TileMatrixIndex: 0
      m_TileColorIndex: 0
      m_TileObjectToInstantiateIndex: 65535
      dummyAlignment: 0
      m_AllTileFlags: 1073741825
  - first: {x: 2, y: 1, z: 0}
    second:
      serializedVersion: 2
      m_TileIndex: 12
      m_TileSpriteIndex: 8
      m_TileMatrixIndex: 0
      m_TileColorIndex: 0
      m_TileObjectToInstantiateIndex: 65535
      dummyAlignment: 0
      m_AllTileFlags: 1073741825
  - first: {x: 3, y: 1, z: 0}
    second:
      serializedVersion: 2
      m_TileIndex: 19
      m_TileSpriteIndex: 19
      m_TileMatrixIndex: 0
      m_TileColorIndex: 0
      m_TileObjectToInstantiateIndex: 65535
      dummyAlignment: 0
      m_AllTileFlags: 1073741825
  - first: {x: 5, y: 1, z: 0}
    second:
      serializedVersion: 2
      m_TileIndex: 25
      m_TileSpriteIndex: 25
      m_TileMatrixIndex: 0
      m_TileColorIndex: 0
      m_TileObjectToInstantiateIndex: 65535
      dummyAlignment: 0
      m_AllTileFlags: 1073741825
  - first: {x: 8, y: 1, z: 0}
    second:
      serializedVersion: 2
      m_TileIndex: 22
      m_TileSpriteIndex: 22
      m_TileMatrixIndex: 0
      m_TileColorIndex: 0
      m_TileObjectToInstantiateIndex: 65535
      dummyAlignment: 0
      m_AllTileFlags: 1073741825
  - first: {x: 11, y: 1, z: 0}
    second:
      serializedVersion: 2
      m_TileIndex: 19
      m_TileSpriteIndex: 19
      m_TileMatrixIndex: 0
      m_TileColorIndex: 0
      m_TileObjectToInstantiateIndex: 65535
      dummyAlignment: 0
      m_AllTileFlags: 1073741825
  - first: {x: 14, y: 1, z: 0}
    second:
      serializedVersion: 2
      m_TileIndex: 17
      m_TileSpriteIndex: 17
      m_TileMatrixIndex: 0
      m_TileColorIndex: 0
      m_TileObjectToInstantiateIndex: 65535
      dummyAlignment: 0
      m_AllTileFlags: 1073741825
  - first: {x: -4, y: 2, z: 0}
    second:
      serializedVersion: 2
      m_TileIndex: 31
      m_TileSpriteIndex: 31
      m_TileMatrixIndex: 0
      m_TileColorIndex: 0
      m_TileObjectToInstantiateIndex: 65535
      dummyAlignment: 0
      m_AllTileFlags: 1073741825
  - first: {x: 2, y: 3, z: 0}
    second:
      serializedVersion: 2
      m_TileIndex: 12
      m_TileSpriteIndex: 8
      m_TileMatrixIndex: 0
      m_TileColorIndex: 0
      m_TileObjectToInstantiateIndex: 65535
      dummyAlignment: 0
      m_AllTileFlags: 1073741825
  - first: {x: 6, y: 6, z: 0}
    second:
      serializedVersion: 2
      m_TileIndex: 21
      m_TileSpriteIndex: 21
      m_TileMatrixIndex: 8
      m_TileColorIndex: 0
      m_TileObjectToInstantiateIndex: 65535
      dummyAlignment: 0
      m_AllTileFlags: 1073741825
  - first: {x: 7, y: 6, z: 0}
    second:
      serializedVersion: 2
      m_TileIndex: 7
      m_TileSpriteIndex: 7
      m_TileMatrixIndex: 9
      m_TileColorIndex: 0
      m_TileObjectToInstantiateIndex: 65535
      dummyAlignment: 0
      m_AllTileFlags: 1073741825
  - first: {x: 8, y: 6, z: 0}
    second:
      serializedVersion: 2
      m_TileIndex: 21
      m_TileSpriteIndex: 21
      m_TileMatrixIndex: 10
      m_TileColorIndex: 0
      m_TileObjectToInstantiateIndex: 65535
      dummyAlignment: 0
      m_AllTileFlags: 1073741825
  - first: {x: 1, y: 9, z: 0}
    second:
      serializedVersion: 2
      m_TileIndex: 7
      m_TileSpriteIndex: 7
      m_TileMatrixIndex: 1
      m_TileColorIndex: 0
      m_TileObjectToInstantiateIndex: 65535
      dummyAlignment: 0
      m_AllTileFlags: 1073741825
  - first: {x: 2, y: 9, z: 0}
    second:
      serializedVersion: 2
      m_TileIndex: 6
      m_TileSpriteIndex: 6
      m_TileMatrixIndex: 2
      m_TileColorIndex: 0
      m_TileObjectToInstantiateIndex: 65535
      dummyAlignment: 0
      m_AllTileFlags: 1073741825
  - first: {x: 3, y: 9, z: 0}
    second:
      serializedVersion: 2
      m_TileIndex: 5
      m_TileSpriteIndex: 5
      m_TileMatrixIndex: 0
      m_TileColorIndex: 0
      m_TileObjectToInstantiateIndex: 65535
      dummyAlignment: 0
      m_AllTileFlags: 1073741825
  - first: {x: 4, y: 9, z: 0}
    second:
      serializedVersion: 2
      m_TileIndex: 5
      m_TileSpriteIndex: 5
      m_TileMatrixIndex: 0
      m_TileColorIndex: 0
      m_TileObjectToInstantiateIndex: 65535
      dummyAlignment: 0
      m_AllTileFlags: 1073741825
  - first: {x: 5, y: 9, z: 0}
    second:
      serializedVersion: 2
      m_TileIndex: 5
      m_TileSpriteIndex: 5
      m_TileMatrixIndex: 0
      m_TileColorIndex: 0
      m_TileObjectToInstantiateIndex: 65535
      dummyAlignment: 0
      m_AllTileFlags: 1073741825
  - first: {x: 6, y: 9, z: 0}
    second:
      serializedVersion: 2
      m_TileIndex: 6
      m_TileSpriteIndex: 6
      m_TileMatrixIndex: 7
      m_TileColorIndex: 0
      m_TileObjectToInstantiateIndex: 65535
      dummyAlignment: 0
      m_AllTileFlags: 1073741825
  - first: {x: 1, y: 10, z: 0}
    second:
      serializedVersion: 2
      m_TileIndex: 4
      m_TileSpriteIndex: 4
      m_TileMatrixIndex: 3
      m_TileColorIndex: 0
      m_TileObjectToInstantiateIndex: 65535
      dummyAlignment: 0
      m_AllTileFlags: 1073741825
  - first: {x: 2, y: 10, z: 0}
    second:
      serializedVersion: 2
      m_TileIndex: 3
      m_TileSpriteIndex: 3
      m_TileMatrixIndex: 4
      m_TileColorIndex: 0
      m_TileObjectToInstantiateIndex: 65535
      dummyAlignment: 0
      m_AllTileFlags: 1073741825
  - first: {x: 3, y: 10, z: 0}
    second:
      serializedVersion: 2
      m_TileIndex: 7
      m_TileSpriteIndex: 7
      m_TileMatrixIndex: 5
      m_TileColorIndex: 0
      m_TileObjectToInstantiateIndex: 65535
      dummyAlignment: 0
      m_AllTileFlags: 1073741825
  - first: {x: 4, y: 10, z: 0}
    second:
      serializedVersion: 2
      m_TileIndex: 7
      m_TileSpriteIndex: 7
      m_TileMatrixIndex: 5
      m_TileColorIndex: 0
      m_TileObjectToInstantiateIndex: 65535
      dummyAlignment: 0
      m_AllTileFlags: 1073741825
  - first: {x: 5, y: 10, z: 0}
    second:
      serializedVersion: 2
      m_TileIndex: 7
      m_TileSpriteIndex: 7
      m_TileMatrixIndex: 5
      m_TileColorIndex: 0
      m_TileObjectToInstantiateIndex: 65535
      dummyAlignment: 0
      m_AllTileFlags: 1073741825
  - first: {x: 6, y: 10, z: 0}
    second:
      serializedVersion: 2
      m_TileIndex: 3
      m_TileSpriteIndex: 3
      m_TileMatrixIndex: 6
      m_TileColorIndex: 0
      m_TileObjectToInstantiateIndex: 65535
      dummyAlignment: 0
      m_AllTileFlags: 1073741825
  m_AnimatedTiles: {}
  m_TileAssetArray:
  - m_RefCount: 0
    m_Data: {fileID: 0}
  - m_RefCount: 0
    m_Data: {fileID: 0}
  - m_RefCount: 0
    m_Data: {fileID: 0}
  - m_RefCount: 2
    m_Data: {fileID: 11400000, guid: 021a35b267730664e9fafa69cf3942f9, type: 2}
  - m_RefCount: 1
    m_Data: {fileID: 11400000, guid: a12ebf95dedde6d47a35d76d42c8aadf, type: 2}
  - m_RefCount: 3
    m_Data: {fileID: 11400000, guid: 229854313afba6a43ba880152a3a77cd, type: 2}
  - m_RefCount: 2
    m_Data: {fileID: 11400000, guid: f982ff302aeeb224bbfd3d4ebd6d6e49, type: 2}
  - m_RefCount: 5
    m_Data: {fileID: 11400000, guid: 52d29c8b4ec41614d99b71db7c17ee3a, type: 2}
  - m_RefCount: 1
    m_Data: {fileID: 11400000, guid: d3ef12ca5c9b53a498cfd95397677b31, type: 2}
  - m_RefCount: 1
    m_Data: {fileID: 11400000, guid: 939099c87058978459846aec1438beae, type: 2}
  - m_RefCount: 1
    m_Data: {fileID: 11400000, guid: 3a0f1c5202d3f864d915dd29cb49332e, type: 2}
  - m_RefCount: 1
    m_Data: {fileID: 11400000, guid: 37c09603602e95b47a210b40233e3f61, type: 2}
  - m_RefCount: 2
    m_Data: {fileID: 11400000, guid: 308a3e800fb045d47b593d2a5aadc525, type: 2}
  - m_RefCount: 1
    m_Data: {fileID: 11400000, guid: 029ea2e8229b42b4b83d33c9f4d2f3bb, type: 2}
  - m_RefCount: 1
    m_Data: {fileID: 11400000, guid: c67e17fcd8763a64e902faf2a5085bdb, type: 2}
  - m_RefCount: 1
    m_Data: {fileID: 11400000, guid: 498d5bbccf1711d4d92f0e9168b4f1ad, type: 2}
  - m_RefCount: 1
    m_Data: {fileID: 11400000, guid: 6e1f8d4a46c83b147b0b30ccc95a405a, type: 2}
  - m_RefCount: 1
    m_Data: {fileID: 11400000, guid: 41dedf5c44390b24db73c5e9b40c6bd6, type: 2}
  - m_RefCount: 1
    m_Data: {fileID: 11400000, guid: 22f0676b3a3991c48b53f520b3e95b5e, type: 2}
  - m_RefCount: 3
    m_Data: {fileID: 11400000, guid: bde5a9c308434374bad9a5935b90eaea, type: 2}
  - m_RefCount: 1
    m_Data: {fileID: 11400000, guid: 735eaea54a8a9c64599574145fde4cd5, type: 2}
  - m_RefCount: 3
    m_Data: {fileID: 11400000, guid: d2641ef8c9ecd8d46a7f0d39aa6dd2f8, type: 2}
  - m_RefCount: 1
    m_Data: {fileID: 11400000, guid: 81b85a13fdfd2ba47a50e08d53cd3d77, type: 2}
  - m_RefCount: 1
    m_Data: {fileID: 11400000, guid: b0b16323e551c3441a223b62087e0ae0, type: 2}
  - m_RefCount: 1
    m_Data: {fileID: 11400000, guid: 64346ad2934d86f44871dde7729f7538, type: 2}
  - m_RefCount: 1
    m_Data: {fileID: 11400000, guid: 55a2cc8469ad30c4589b33884c362565, type: 2}
  - m_RefCount: 1
    m_Data: {fileID: 11400000, guid: 2ecdf7158e66a0d46943a7c627380f81, type: 2}
  - m_RefCount: 1
    m_Data: {fileID: 11400000, guid: 1a35074ae4aa3f241813a1d869ec3f46, type: 2}
  - m_RefCount: 1
    m_Data: {fileID: 11400000, guid: 3bc3678539f8d6440bd4172f220f717a, type: 2}
  - m_RefCount: 1
    m_Data: {fileID: 11400000, guid: 4c8fe90d264cc8b4588252f2d37de956, type: 2}
  - m_RefCount: 1
    m_Data: {fileID: 11400000, guid: 1b8b0b3dc00faa74d852f4daa575ae47, type: 2}
  - m_RefCount: 1
    m_Data: {fileID: 11400000, guid: 9fe7c8ddc9f9f134cb12a18a957d9a38, type: 2}
  - m_RefCount: 1
    m_Data: {fileID: 11400000, guid: 7fea547f2b386614d8f9c00ce1dc3e47, type: 2}
  - m_RefCount: 1
    m_Data: {fileID: 11400000, guid: 9249ddfe26586c54d9bbdf4003106f6d, type: 2}
  - m_RefCount: 1
    m_Data: {fileID: 11400000, guid: f40aec9dea086104286fa82997458a95, type: 2}
  m_TileSpriteArray:
  - m_RefCount: 0
    m_Data: {fileID: 0}
  - m_RefCount: 0
    m_Data: {fileID: 0}
  - m_RefCount: 0
    m_Data: {fileID: 0}
  - m_RefCount: 2
    m_Data: {fileID: 21300030, guid: a6a127f510bee7a4d87d6157615695ab, type: 3}
  - m_RefCount: 1
    m_Data: {fileID: 21300022, guid: a6a127f510bee7a4d87d6157615695ab, type: 3}
  - m_RefCount: 3
    m_Data: {fileID: 21300004, guid: a6a127f510bee7a4d87d6157615695ab, type: 3}
  - m_RefCount: 2
    m_Data: {fileID: 21300010, guid: a6a127f510bee7a4d87d6157615695ab, type: 3}
  - m_RefCount: 5
    m_Data: {fileID: 21300012, guid: a6a127f510bee7a4d87d6157615695ab, type: 3}
  - m_RefCount: 2
    m_Data: {fileID: 21300012, guid: 2b6f6d7ebe192344d98ed72ea9d2b35d, type: 3}
  - m_RefCount: 1
    m_Data: {fileID: 21300000, guid: c1844c4806c84524e97b9295f178c67f, type: 3}
  - m_RefCount: 1
    m_Data: {fileID: 21300000, guid: 69334f2a0d42088409d925e286d2a33f, type: 3}
  - m_RefCount: 1
    m_Data: {fileID: 21300022, guid: d5690c0689d340540ab284a7fb7a1bc8, type: 3}
  - m_RefCount: 1
    m_Data: {fileID: 21300020, guid: d5690c0689d340540ab284a7fb7a1bc8, type: 3}
  - m_RefCount: 1
    m_Data: {fileID: 21300012, guid: d5690c0689d340540ab284a7fb7a1bc8, type: 3}
  - m_RefCount: 1
    m_Data: {fileID: 21300010, guid: d5690c0689d340540ab284a7fb7a1bc8, type: 3}
  - m_RefCount: 1
    m_Data: {fileID: 21300008, guid: d5690c0689d340540ab284a7fb7a1bc8, type: 3}
  - m_RefCount: 1
    m_Data: {fileID: 21300004, guid: d5690c0689d340540ab284a7fb7a1bc8, type: 3}
  - m_RefCount: 1
    m_Data: {fileID: 21300002, guid: d5690c0689d340540ab284a7fb7a1bc8, type: 3}
  - m_RefCount: 1
    m_Data: {fileID: 21300000, guid: d5690c0689d340540ab284a7fb7a1bc8, type: 3}
  - m_RefCount: 3
    m_Data: {fileID: 21300032, guid: 2b6f6d7ebe192344d98ed72ea9d2b35d, type: 3}
  - m_RefCount: 1
    m_Data: {fileID: 21300030, guid: 2b6f6d7ebe192344d98ed72ea9d2b35d, type: 3}
  - m_RefCount: 3
    m_Data: {fileID: 21300028, guid: 2b6f6d7ebe192344d98ed72ea9d2b35d, type: 3}
  - m_RefCount: 1
    m_Data: {fileID: 21300024, guid: 2b6f6d7ebe192344d98ed72ea9d2b35d, type: 3}
  - m_RefCount: 1
    m_Data: {fileID: 21300022, guid: 2b6f6d7ebe192344d98ed72ea9d2b35d, type: 3}
  - m_RefCount: 1
    m_Data: {fileID: 21300020, guid: 2b6f6d7ebe192344d98ed72ea9d2b35d, type: 3}
  - m_RefCount: 1
    m_Data: {fileID: 21300018, guid: 2b6f6d7ebe192344d98ed72ea9d2b35d, type: 3}
  - m_RefCount: 1
    m_Data: {fileID: 21300016, guid: 2b6f6d7ebe192344d98ed72ea9d2b35d, type: 3}
  - m_RefCount: 1
    m_Data: {fileID: 21300014, guid: 2b6f6d7ebe192344d98ed72ea9d2b35d, type: 3}
  - m_RefCount: 1
    m_Data: {fileID: 21300000, guid: 60336507fe8adf4418d92c6124da37b6, type: 3}
  - m_RefCount: 1
    m_Data: {fileID: 21300010, guid: 2b6f6d7ebe192344d98ed72ea9d2b35d, type: 3}
  - m_RefCount: 1
    m_Data: {fileID: 21300008, guid: 2b6f6d7ebe192344d98ed72ea9d2b35d, type: 3}
  - m_RefCount: 1
    m_Data: {fileID: 21300006, guid: 2b6f6d7ebe192344d98ed72ea9d2b35d, type: 3}
  - m_RefCount: 1
    m_Data: {fileID: 21300004, guid: 2b6f6d7ebe192344d98ed72ea9d2b35d, type: 3}
  - m_RefCount: 1
    m_Data: {fileID: 21300002, guid: 2b6f6d7ebe192344d98ed72ea9d2b35d, type: 3}
  - m_RefCount: 1
    m_Data: {fileID: 21300000, guid: 2b6f6d7ebe192344d98ed72ea9d2b35d, type: 3}
  m_TileMatrixArray:
  - m_RefCount: 33
    m_Data:
      e00: 1
      e01: 0
      e02: 0
      e03: 0
      e10: 0
      e11: 1
      e12: 0
      e13: 0
      e20: 0
      e21: 0
      e22: 1
      e23: 0
      e30: 0
      e31: 0
      e32: 0
      e33: 1
  - m_RefCount: 1
    m_Data:
      e00: 1
      e01: 0
      e02: 0
      e03: 0
      e10: 0
      e11: 1
      e12: 0
      e13: -0.232
      e20: 0
      e21: 0
      e22: 1
      e23: 0
      e30: 0
      e31: 0
      e32: 0
      e33: 1
  - m_RefCount: 1
    m_Data:
      e00: 1
      e01: 0
      e02: 0
      e03: 0
      e10: 0
      e11: 1
      e12: 0
      e13: -0.22
      e20: 0
      e21: 0
      e22: 1
      e23: 0
      e30: 0
      e31: 0
      e32: 0
      e33: 1
  - m_RefCount: 1
    m_Data:
      e00: 1
      e01: 0
      e02: 0
      e03: 1.245
      e10: 0
      e11: 1
      e12: 0
      e13: -0.74
      e20: 0
      e21: 0
      e22: 1
      e23: 0
      e30: 0
      e31: 0
      e32: 0
      e33: 1
  - m_RefCount: 1
    m_Data:
      e00: 1
      e01: 0
      e02: 0
      e03: 0.235
      e10: 0
      e11: 1
      e12: 0
      e13: -0.22
      e20: 0
      e21: 0
      e22: 1
      e23: 0
      e30: 0
      e31: 0
      e32: 0
      e33: 1
  - m_RefCount: 3
    m_Data:
      e00: 1
      e01: 0
      e02: 0
      e03: 0
      e10: 0
      e11: 1
      e12: 0
      e13: -0.235
      e20: 0
      e21: 0
      e22: 1
      e23: 0
      e30: 0
      e31: 0
      e32: 0
      e33: 1
  - m_RefCount: 1
    m_Data:
      e00: -1
      e01: 0
      e02: -0.00000008742278
      e03: -0.23
      e10: 0
      e11: 1
      e12: 0
      e13: -0.23
      e20: 0.00000008742278
      e21: 0
      e22: -1
      e23: 0
      e30: 0
      e31: 0
      e32: 0
      e33: 1
  - m_RefCount: 1
    m_Data:
      e00: -1
      e01: 0
      e02: 0
      e03: 0
      e10: -0
      e11: 1
      e12: 0
      e13: -0.22
      e20: -0
      e21: 0
      e22: 1
      e23: 0
      e30: 0
      e31: 0
      e32: 0
      e33: 1
  - m_RefCount: 1
    m_Data:
      e00: 1
      e01: 0
      e02: 0
      e03: 0.235
      e10: 0
      e11: 1
      e12: 0
      e13: -0.1
      e20: 0
      e21: 0
      e22: 1
      e23: 0
      e30: 0
      e31: 0
      e32: 0
      e33: 1
  - m_RefCount: 1
    m_Data:
      e00: 1
      e01: 0
      e02: 0
      e03: 0
      e10: 0
      e11: 1
      e12: 0
      e13: -0.085
      e20: 0
      e21: 0
      e22: 1
      e23: 0
      e30: 0
      e31: 0
      e32: 0
      e33: 1
  - m_RefCount: 1
    m_Data:
      e00: -1
      e01: 0
      e02: -0.00000008742278
      e03: -0.235
      e10: 0
      e11: 1
      e12: 0
      e13: -0.1
      e20: 0.00000008742278
      e21: 0
      e22: -1
      e23: 0
      e30: 0
      e31: 0
      e32: 0
      e33: 1
  m_TileColorArray:
  - m_RefCount: 45
    m_Data: {r: 1, g: 1, b: 1, a: 1}
  m_TileObjectToInstantiateArray: []
  m_AnimationFrameRate: 1
  m_Color: {r: 1, g: 1, b: 1, a: 1}
  m_Origin: {x: -4, y: -13, z: 0}
  m_Size: {x: 19, y: 24, z: 1}
  m_TileAnchor: {x: 0.5, y: 0.5, z: 0}
  m_TileOrientation: 0
  m_TileOrientationMatrix:
    e00: 1
    e01: 0
    e02: 0
    e03: 0
    e10: 0
    e11: 1
    e12: 0
    e13: 0
    e20: 0
    e21: 0
    e22: 1
    e23: 0
    e30: 0
    e31: 0
    e32: 0
    e33: 1
--- !u!483693784 &3664157344895381506
TilemapRenderer:
  m_ObjectHideFlags: 0
  m_CorrespondingSourceObject: {fileID: 0}
  m_PrefabInstance: {fileID: 0}
  m_PrefabAsset: {fileID: 0}
  m_GameObject: {fileID: 1314663984172850}
  m_Enabled: 1
  m_CastShadows: 0
  m_ReceiveShadows: 0
  m_DynamicOccludee: 0
  m_MotionVectors: 1
  m_LightProbeUsage: 0
  m_ReflectionProbeUsage: 0
  m_RayTracingMode: 0
  m_RayTraceProcedural: 0
  m_RenderingLayerMask: 1
  m_RendererPriority: 0
  m_Materials:
  - {fileID: 10754, guid: 0000000000000000f000000000000000, type: 0}
  m_StaticBatchInfo:
    firstSubMesh: 0
    subMeshCount: 0
  m_StaticBatchRoot: {fileID: 0}
  m_ProbeAnchor: {fileID: 0}
  m_LightProbeVolumeOverride: {fileID: 0}
  m_ScaleInLightmap: 1
  m_ReceiveGI: 1
  m_PreserveUVs: 0
  m_IgnoreNormalsForChartDetection: 0
  m_ImportantGI: 0
  m_StitchLightmapSeams: 0
  m_SelectedEditorRenderState: 0
  m_MinimumChartSize: 4
  m_AutoUVMaxDistance: 0.5
  m_AutoUVMaxAngle: 89
  m_LightmapParameters: {fileID: 0}
  m_SortingLayerID: 0
  m_SortingLayer: 0
  m_SortingOrder: 0
  m_ChunkSize: {x: 32, y: 32, z: 32}
  m_ChunkCullingBounds: {x: 0.5, y: 0.5392157, z: 0}
  m_MaxChunkCount: 16
  m_MaxFrameAge: 16
  m_SortOrder: 0
  m_Mode: 0
  m_DetectChunkCullingBounds: 0
  m_MaskInteraction: 0
--- !u!114 &3619277499192819846
MonoBehaviour:
  m_ObjectHideFlags: 0
  m_CorrespondingSourceObject: {fileID: 0}
  m_PrefabInstance: {fileID: 0}
  m_PrefabAsset: {fileID: 0}
  m_GameObject: {fileID: 0}
  m_Enabled: 1
  m_EditorHideFlags: 1
  m_Script: {fileID: 12395, guid: 0000000000000000e000000000000000, type: 0}
  m_Name: Palette Settings
  m_EditorClassIdentifier: 
  cellSizing: 100
  m_TransparencySortMode: 0
  m_TransparencySortAxis: {x: 0, y: 0, z: 1}
