%YAML 1.1
%TAG !u! tag:unity3d.com,2011:
--- !u!1001 &8137536067754210980
PrefabInstance:
  m_ObjectHideFlags: 0
  serializedVersion: 2
  m_Modification:
    serializedVersion: 2
    m_TransformParent: {fileID: 0}
    m_Modifications:
    - target: {fileID: 3554699626323399260, guid: 8d2b561d0cd8b1b4f851753f8aed93b4,
        type: 3}
      propertyPath: m_Name
      value: MineralYellow6 Variant
      objectReference: {fileID: 0}
    - target: {fileID: 3554699626323399260, guid: 8d2b561d0cd8b1b4f851753f8aed93b4,
        type: 3}
      propertyPath: m_IsActive
      value: 1
      objectReference: {fileID: 0}
    - target: {fileID: 3554699626323399262, guid: 8d2b561d0cd8b1b4f851753f8aed93b4,
        type: 3}
      propertyPath: m_RootOrder
      value: 0
      objectReference: {fileID: 0}
    - target: {fileID: 3554699626323399262, guid: 8d2b561d0cd8b1b4f851753f8aed93b4,
        type: 3}
      propertyPath: m_LocalPosition.x
      value: -80.136696
      objectReference: {fileID: 0}
    - target: {fileID: 3554699626323399262, guid: 8d2b561d0cd8b1b4f851753f8aed93b4,
        type: 3}
      propertyPath: m_LocalPosition.y
      value: -27.062551
      objectReference: {fileID: 0}
    - target: {fileID: 3554699626323399262, guid: 8d2b561d0cd8b1b4f851753f8aed93b4,
        type: 3}
      propertyPath: m_LocalPosition.z
      value: 0
      objectReference: {fileID: 0}
    - target: {fileID: 3554699626323399262, guid: 8d2b561d0cd8b1b4f851753f8aed93b4,
        type: 3}
      propertyPath: m_LocalRotation.w
      value: 1
      objectReference: {fileID: 0}
    - target: {fileID: 3554699626323399262, guid: 8d2b561d0cd8b1b4f851753f8aed93b4,
        type: 3}
      propertyPath: m_LocalRotation.x
      value: 0
      objectReference: {fileID: 0}
    - target: {fileID: 3554699626323399262, guid: 8d2b561d0cd8b1b4f851753f8aed93b4,
        type: 3}
      propertyPath: m_LocalRotation.y
      value: 0
      objectReference: {fileID: 0}
    - target: {fileID: 3554699626323399262, guid: 8d2b561d0cd8b1b4f851753f8aed93b4,
        type: 3}
      propertyPath: m_LocalRotation.z
      value: 0
      objectReference: {fileID: 0}
    - target: {fileID: 3554699626323399262, guid: 8d2b561d0cd8b1b4f851753f8aed93b4,
        type: 3}
      propertyPath: m_LocalEulerAnglesHint.x
      value: 0
      objectReference: {fileID: 0}
    - target: {fileID: 3554699626323399262, guid: 8d2b561d0cd8b1b4f851753f8aed93b4,
        type: 3}
      propertyPath: m_LocalEulerAnglesHint.y
      value: 0
      objectReference: {fileID: 0}
    - target: {fileID: 3554699626323399262, guid: 8d2b561d0cd8b1b4f851753f8aed93b4,
        type: 3}
      propertyPath: m_LocalEulerAnglesHint.z
      value: 0
      objectReference: {fileID: 0}
    - target: {fileID: 3554699626323399263, guid: 8d2b561d0cd8b1b4f851753f8aed93b4,
        type: 3}
      propertyPath: m_Materials.Array.data[0]
      value: 
      objectReference: {fileID: 2100000, guid: 6e20c67a1dc9c8544a13ca32facffd1c, type: 2}
    - target: {fileID: 4556062713606856070, guid: 8d2b561d0cd8b1b4f851753f8aed93b4,
        type: 3}
      propertyPath: m_Materials.Array.data[0]
      value: 
      objectReference: {fileID: 2100000, guid: 6e20c67a1dc9c8544a13ca32facffd1c, type: 2}
    - target: {fileID: 5591053473036592699, guid: 8d2b561d0cd8b1b4f851753f8aed93b4,
        type: 3}
      propertyPath: m_Color.b
      value: 0
      objectReference: {fileID: 0}
    m_RemovedComponents: []
    m_AddedGameObjects: []
  m_SourcePrefab: {fileID: 100100000, guid: 8d2b561d0cd8b1b4f851753f8aed93b4, type: 3}
