Library\Bee\artifacts\mvdfrm\Unity.Sysroot.Linux_x86_64.ref.dll_24C7B1A47E18827F.mvfrm
Library\Bee\artifacts\mvdfrm\Unity.SysrootPackage.Editor.ref.dll_51BD9AC91712BC0C.mvfrm
Library\Bee\artifacts\mvdfrm\UnityEditor.TestRunner.ref.dll_193EC4CE382CBFB3.mvfrm
Library\Bee\artifacts\mvdfrm\UnityEditor.UI.ref.dll_4C98D3F7040CD4F5.mvfrm
Library\Bee\artifacts\mvdfrm\UnityEngine.TestRunner.ref.dll_E55D0F7C63F01D9E.mvfrm
Library\Bee\artifacts\mvdfrm\UnityEngine.UI.ref.dll_08FEAA520A2EFD60.mvfrm
Library\Bee\artifacts\mvdfrm\UnityEditor.Graphs.dll_CEBF985918DAF058.mvfrm
Library\Bee\artifacts\mvdfrm\UnityEditor.CoreModule.dll_682C121AD2240C26.mvfrm
Library\Bee\artifacts\mvdfrm\UnityEditor.DeviceSimulatorModule.dll_E7F583DD1F5BC47B.mvfrm
Library\Bee\artifacts\mvdfrm\UnityEditor.DiagnosticsModule.dll_3EBA18AAFFF9E009.mvfrm
Library\Bee\artifacts\mvdfrm\UnityEditor.dll_0EE26F18A23EA48F.mvfrm
Library\Bee\artifacts\mvdfrm\UnityEditor.EditorToolbarModule.dll_68C4F3BC2849B0EB.mvfrm
Library\Bee\artifacts\mvdfrm\UnityEditor.GraphViewModule.dll_F6F63CC43C35DCC0.mvfrm
Library\Bee\artifacts\mvdfrm\UnityEditor.PresetsUIModule.dll_B25C75A63E8E34C5.mvfrm
Library\Bee\artifacts\mvdfrm\UnityEditor.QuickSearchModule.dll_C9C999B858D0DC62.mvfrm
Library\Bee\artifacts\mvdfrm\UnityEditor.SceneTemplateModule.dll_8C64647A27365B23.mvfrm
Library\Bee\artifacts\mvdfrm\UnityEditor.SceneViewModule.dll_35A61FCC3158A9CE.mvfrm
Library\Bee\artifacts\mvdfrm\UnityEditor.TextCoreFontEngineModule.dll_A53C4E946CB23AE4.mvfrm
Library\Bee\artifacts\mvdfrm\UnityEditor.TextCoreTextEngineModule.dll_ED248505FC35F402.mvfrm
Library\Bee\artifacts\mvdfrm\UnityEditor.UIBuilderModule.dll_4B7EE9E0AEEE55F4.mvfrm
Library\Bee\artifacts\mvdfrm\UnityEditor.UIElementsModule.dll_70EF83BCE6BF05A2.mvfrm
Library\Bee\artifacts\mvdfrm\UnityEditor.UIElementsSamplesModule.dll_323254A5B0060BEB.mvfrm
Library\Bee\artifacts\mvdfrm\UnityEditor.UnityConnectModule.dll_2E3AFA54FBB8CDDC.mvfrm
Library\Bee\artifacts\mvdfrm\UnityEngine.AccessibilityModule.dll_BF09D01127AC82C0.mvfrm
Library\Bee\artifacts\mvdfrm\UnityEngine.AIModule.dll_C6A50D8CA3C0D1BA.mvfrm
Library\Bee\artifacts\mvdfrm\UnityEngine.AndroidJNIModule.dll_EF386C902FDE7478.mvfrm
Library\Bee\artifacts\mvdfrm\UnityEngine.AnimationModule.dll_C57BB8ED1692B166.mvfrm
Library\Bee\artifacts\mvdfrm\UnityEngine.ARModule.dll_8017D29000DE3083.mvfrm
Library\Bee\artifacts\mvdfrm\UnityEngine.AssetBundleModule.dll_0DB2CCA9BB379154.mvfrm
Library\Bee\artifacts\mvdfrm\UnityEngine.AudioModule.dll_F586BE2ABD8048D8.mvfrm
Library\Bee\artifacts\mvdfrm\UnityEngine.ClothModule.dll_5C6F1B25979D27BC.mvfrm
Library\Bee\artifacts\mvdfrm\UnityEngine.ClusterInputModule.dll_ADD76F6AAD40A0A2.mvfrm
Library\Bee\artifacts\mvdfrm\UnityEngine.ClusterRendererModule.dll_EDA2464E8F16D1FF.mvfrm
Library\Bee\artifacts\mvdfrm\UnityEngine.ContentLoadModule.dll_A6C925EA89BA3941.mvfrm
Library\Bee\artifacts\mvdfrm\UnityEngine.CoreModule.dll_8B4CE56D7A297751.mvfrm
Library\Bee\artifacts\mvdfrm\UnityEngine.CrashReportingModule.dll_61A74747752D4789.mvfrm
Library\Bee\artifacts\mvdfrm\UnityEngine.DirectorModule.dll_363661008E6C91AE.mvfrm
Library\Bee\artifacts\mvdfrm\UnityEngine.dll_4186B5F100B23174.mvfrm
Library\Bee\artifacts\mvdfrm\UnityEngine.DSPGraphModule.dll_3B87C26A00CD62CF.mvfrm
Library\Bee\artifacts\mvdfrm\UnityEngine.GameCenterModule.dll_1985B6AAF61F6569.mvfrm
Library\Bee\artifacts\mvdfrm\UnityEngine.GIModule.dll_5EE1569A3F6FB9D4.mvfrm
Library\Bee\artifacts\mvdfrm\UnityEngine.GridModule.dll_68BE015B927E0D48.mvfrm
Library\Bee\artifacts\mvdfrm\UnityEngine.HotReloadModule.dll_46C476F2F1C5CCE8.mvfrm
Library\Bee\artifacts\mvdfrm\UnityEngine.ImageConversionModule.dll_599443FF113B89F3.mvfrm
Library\Bee\artifacts\mvdfrm\UnityEngine.IMGUIModule.dll_2DE65D9183B1DCB9.mvfrm
Library\Bee\artifacts\mvdfrm\UnityEngine.InputLegacyModule.dll_9EF7E7C853294745.mvfrm
Library\Bee\artifacts\mvdfrm\UnityEngine.InputModule.dll_5BFC85DB33B86D7C.mvfrm
Library\Bee\artifacts\mvdfrm\UnityEngine.JSONSerializeModule.dll_1F21594D26E7E34A.mvfrm
Library\Bee\artifacts\mvdfrm\UnityEngine.LocalizationModule.dll_EC2439BD44BC939B.mvfrm
Library\Bee\artifacts\mvdfrm\UnityEngine.NVIDIAModule.dll_CA00575B124D2FDD.mvfrm
Library\Bee\artifacts\mvdfrm\UnityEngine.ParticleSystemModule.dll_B4B99093E33ED317.mvfrm
Library\Bee\artifacts\mvdfrm\UnityEngine.PerformanceReportingModule.dll_4DDED0BD1E7A9D10.mvfrm
Library\Bee\artifacts\mvdfrm\UnityEngine.Physics2DModule.dll_1221A8DDB78FA8FB.mvfrm
Library\Bee\artifacts\mvdfrm\UnityEngine.PhysicsModule.dll_E14671E763DFFEA9.mvfrm
Library\Bee\artifacts\mvdfrm\UnityEngine.ProfilerModule.dll_687C9A3727C618BB.mvfrm
Library\Bee\artifacts\mvdfrm\UnityEngine.PropertiesModule.dll_46C0F5E9690AC9A5.mvfrm
Library\Bee\artifacts\mvdfrm\UnityEngine.RuntimeInitializeOnLoadManagerInitializerModule.dll_136F825721238FC4.mvfrm
Library\Bee\artifacts\mvdfrm\UnityEngine.ScreenCaptureModule.dll_390906D23B540FAC.mvfrm
Library\Bee\artifacts\mvdfrm\UnityEngine.SharedInternalsModule.dll_DDA582D488698543.mvfrm
Library\Bee\artifacts\mvdfrm\UnityEngine.SpriteMaskModule.dll_02B2293B178EFAE3.mvfrm
Library\Bee\artifacts\mvdfrm\UnityEngine.SpriteShapeModule.dll_2713FA0470D9C95E.mvfrm
Library\Bee\artifacts\mvdfrm\UnityEngine.StreamingModule.dll_7A10A63D661A68A4.mvfrm
Library\Bee\artifacts\mvdfrm\UnityEngine.SubstanceModule.dll_56BBBA86B16D66B2.mvfrm
Library\Bee\artifacts\mvdfrm\UnityEngine.SubsystemsModule.dll_6D5F8F9CE5D6E2F6.mvfrm
Library\Bee\artifacts\mvdfrm\UnityEngine.TerrainModule.dll_FB8CED56399E4797.mvfrm
Library\Bee\artifacts\mvdfrm\UnityEngine.TerrainPhysicsModule.dll_B5343966FC81CDA4.mvfrm
Library\Bee\artifacts\mvdfrm\UnityEngine.TextCoreFontEngineModule.dll_239BC9E77FAFF9AF.mvfrm
Library\Bee\artifacts\mvdfrm\UnityEngine.TextCoreTextEngineModule.dll_6B8400590F33B2CD.mvfrm
Library\Bee\artifacts\mvdfrm\UnityEngine.TextRenderingModule.dll_624878DCF28B8FA1.mvfrm
Library\Bee\artifacts\mvdfrm\UnityEngine.TilemapModule.dll_9A8954D7515B28A0.mvfrm
Library\Bee\artifacts\mvdfrm\UnityEngine.TLSModule.dll_BA4B17855DE0FD3D.mvfrm
Library\Bee\artifacts\mvdfrm\UnityEngine.UIElementsModule.dll_719DF104E9031EED.mvfrm
Library\Bee\artifacts\mvdfrm\UnityEngine.UIModule.dll_C218ABBA0007D766.mvfrm
Library\Bee\artifacts\mvdfrm\UnityEngine.UmbraModule.dll_705B6A434AA6F44B.mvfrm
Library\Bee\artifacts\mvdfrm\UnityEngine.UnityAnalyticsCommonModule.dll_E91D8E0138633B6E.mvfrm
Library\Bee\artifacts\mvdfrm\UnityEngine.UnityAnalyticsModule.dll_D459015D8F662513.mvfrm
Library\Bee\artifacts\mvdfrm\UnityEngine.UnityConnectModule.dll_1B9A7E63F640CE87.mvfrm
Library\Bee\artifacts\mvdfrm\UnityEngine.UnityCurlModule.dll_F8985A1E86A6A353.mvfrm
Library\Bee\artifacts\mvdfrm\UnityEngine.UnityTestProtocolModule.dll_EDF50A980A016141.mvfrm
Library\Bee\artifacts\mvdfrm\UnityEngine.UnityWebRequestAssetBundleModule.dll_4CEFED2248F75E24.mvfrm
Library\Bee\artifacts\mvdfrm\UnityEngine.UnityWebRequestAudioModule.dll_C5DB249BA4E567A8.mvfrm
Library\Bee\artifacts\mvdfrm\UnityEngine.UnityWebRequestModule.dll_6B334BA91C302472.mvfrm
Library\Bee\artifacts\mvdfrm\UnityEngine.UnityWebRequestTextureModule.dll_D031E6D73303027D.mvfrm
Library\Bee\artifacts\mvdfrm\UnityEngine.UnityWebRequestWWWModule.dll_364645B4FEF36F39.mvfrm
Library\Bee\artifacts\mvdfrm\UnityEngine.VehiclesModule.dll_ADF95A8008966149.mvfrm
Library\Bee\artifacts\mvdfrm\UnityEngine.VFXModule.dll_3B29AFF4344E66AA.mvfrm
Library\Bee\artifacts\mvdfrm\UnityEngine.VideoModule.dll_1A9042958012647D.mvfrm
Library\Bee\artifacts\mvdfrm\UnityEngine.VirtualTexturingModule.dll_84239864C5FFD6AF.mvfrm
Library\Bee\artifacts\mvdfrm\UnityEngine.VRModule.dll_14EAD23FA1C25CDE.mvfrm
Library\Bee\artifacts\mvdfrm\UnityEngine.WindModule.dll_019BC0960B5FF5BA.mvfrm
Library\Bee\artifacts\mvdfrm\UnityEngine.XRModule.dll_47A995442AFCAA3C.mvfrm
Library\Bee\artifacts\mvdfrm\UnityEditor.WindowsStandalone.Extensions.dll_C0932F6B26C21DDA.mvfrm
Library\Bee\artifacts\mvdfrm\Unity.Analytics.StandardEvents.dll_2539AF974BFE7ABE.mvfrm
Library\Bee\artifacts\mvdfrm\Unity.Analytics.Editor.dll_448B18A867B17122.mvfrm
Library\Bee\artifacts\mvdfrm\Unity.Analytics.Tracker.dll_B294C7C751B9DF6F.mvfrm
Library\Bee\artifacts\mvdfrm\Unity.Plastic.Antlr3.Runtime.dll_E340043392540AF9.mvfrm
Library\Bee\artifacts\mvdfrm\Unity.Plastic.Newtonsoft.Json.dll_41CE71F42A4FD22C.mvfrm
Library\Bee\artifacts\mvdfrm\Unity.Collections.LowLevel.ILSupport.dll_2E40CE80E145E521.mvfrm